<svg width="36" height="36" viewBox="0 0 36 36" fill="none" xmlns="http://www.w3.org/2000/svg">
    <path
        d="M9.34399 14.7021H7.34399C7.06799 14.7021 6.84399 14.4781 6.84399 14.2021V7.20215C6.84399 6.92615 7.06799 6.70215 7.34399 6.70215H9.34399C9.61999 6.70215 9.84399 6.92615 9.84399 7.20215V14.2021C9.84399 14.4781 9.61999 14.7021 9.34399 14.7021Z"
        fill="#A0041E" />
    <path d="M5 16L18 3L31 16V33H5V16Z" fill="#FFE8B6" />
    <path d="M18 16H19V32H18V16Z" fill="#FFCC4D" />
    <path
        d="M31 16.9998C30.744 16.9998 30.488 16.9018 30.293 16.7068L18 4.41376L5.70701 16.7068C5.31601 17.0978 4.68401 17.0978 4.29301 16.7068C3.90201 16.3158 3.90201 15.6838 4.29301 15.2928L17.293 2.29276C17.684 1.90176 18.316 1.90176 18.707 2.29276L31.707 15.2928C32.098 15.6838 32.098 16.3158 31.707 16.7068C31.512 16.9018 31.256 16.9998 31 16.9998Z"
        fill="#66757F" />
    <path
        d="M18 16.9998C17.744 16.9998 17.488 16.9018 17.293 16.7068C16.902 16.3158 16.902 15.6838 17.293 15.2928L23.793 8.79276C24.184 8.40176 24.816 8.40176 25.207 8.79276C25.598 9.18376 25.598 9.81576 25.207 10.2068L18.707 16.7068C18.512 16.9018 18.256 16.9998 18 16.9998Z"
        fill="#66757F" />
    <path d="M10 26H14V32H10V26Z" fill="#C1694F" />
    <path d="M10 17H14V21H10V17ZM22.5 17H26.5V21H22.5V17ZM22.5 26H26.5V30H22.5V26Z" fill="#55ACEE" />
    <path
        d="M33.5 33.5C33.5 34.328 32.828 35 32 35H4C3.172 35 2.5 34.328 2.5 33.5C2.5 32.672 3.172 32 4 32H32C32.828 32 33.5 32.672 33.5 33.5Z"
        fill="#5C913B" />
</svg>