<svg width="36" height="36" viewBox="0 0 36 36" fill="none" xmlns="http://www.w3.org/2000/svg">
    <path
        d="M34.3469 16.893L25.4479 13.599L22.1249 2.708C21.9969 2.288 21.6079 2 21.1689 2C20.7299 2 20.3409 2.288 20.2129 2.708L16.8909 13.599L7.99089 16.893C7.59789 17.039 7.33789 17.412 7.33789 17.831C7.33789 18.249 7.59789 18.624 7.99089 18.769L16.8859 22.062L20.2099 33.285C20.3359 33.709 20.7259 34 21.1689 34C21.6109 34 22.0019 33.709 22.1279 33.284L25.4519 22.061L34.3479 18.768C34.7389 18.624 34.9999 18.25 34.9999 17.831C34.9999 17.413 34.7389 17.039 34.3469 16.893Z"
        fill="#FFAC33" />
    <path
        d="M14.347 27.8939L12.033 27.0379L11.133 23.7379C11.015 23.3019 10.62 22.9999 10.169 22.9999C9.718 22.9999 9.323 23.3019 9.204 23.7369L8.304 27.0369L5.991 27.8929C5.598 28.0379 5.338 28.4129 5.338 28.8309C5.338 29.2489 5.598 29.6239 5.991 29.7689L8.292 30.6219L9.199 34.2439C9.311 34.6879 9.71 34.9999 10.169 34.9999C10.628 34.9999 11.027 34.6879 11.139 34.2429L12.046 30.6209L14.347 29.7679C14.74 29.6239 15 29.2489 15 28.8309C15 28.4129 14.74 28.0379 14.347 27.8939ZM10.009 6.23089L7.645 5.35589L6.769 2.99089C6.624 2.59789 6.25 2.33789 5.831 2.33789C5.413 2.33789 5.039 2.59789 4.893 2.99089L4.018 5.35589L1.653 6.23089C1.26 6.37689 1 6.75089 1 7.16889C1 7.58689 1.26 7.96189 1.653 8.10689L4.018 8.98189L4.893 11.3469C5.039 11.7399 5.413 11.9999 5.831 11.9999C6.249 11.9999 6.623 11.7399 6.769 11.3469L7.644 8.98189L10.009 8.10689C10.402 7.96089 10.662 7.58689 10.662 7.16889C10.662 6.75089 10.402 6.37689 10.009 6.23089Z"
        fill="#FFCC4D" />
</svg>