<svg width="50" height="32" viewBox="0 0 50 32" fill="none" xmlns="http://www.w3.org/2000/svg">
    <rect width="50" height="32" rx="8" fill="#D81A00" />
    <path
        d="M34.5 15.134C35.1667 15.5189 35.1667 16.4811 34.5 16.866L21 24.6603C20.3333 25.0452 19.5 24.564 19.5 23.7942L19.5 8.20577C19.5 7.43597 20.3333 6.95485 21 7.33975L34.5 15.134Z"
        fill="white" />
    <path
        d="M34.5 15.134C35.1667 15.5189 35.1667 16.4811 34.5 16.866L21 24.6603C20.3333 25.0452 19.5 24.564 19.5 23.7942L19.5 8.20577C19.5 7.43597 20.3333 6.95485 21 7.33975L34.5 15.134Z"
        fill="white" />
</svg>