<svg width="36" height="36" viewBox="0 0 36 36" fill="none" xmlns="http://www.w3.org/2000/svg">
    <path
        d="M30.4151 9.586L21.4151 0.586C21.0541 0.225 20.5531 0 20.0001 0C18.8961 0 18.0011 0.896 18.0001 2C18.0001 2.552 18.2241 3.053 18.5861 3.415L14.7271 7.274L23.727 16.274L27.5861 12.415C27.9481 12.776 28.4481 13 29.0001 13C30.1041 13 31.001 12.104 31 11C31 10.448 30.7761 9.948 30.4151 9.586Z"
        fill="#E1E8ED" />
    <path
        d="M20 0H5C2.791 0 1 1.791 1 4V32C1 34.209 2.791 36 5 36H27C29.209 36 31 34.209 31 32V11H22C21 11 20 10 20 9V0Z"
        fill="#CCD6DD" />
    <path
        d="M20 0H18V9C18 11.209 19.791 13 22 13H31V11H22C21 11 20 10 20 9V0ZM15 8C15 8.552 14.552 9 14 9H6C5.448 9 5 8.552 5 8C5 7.448 5.448 7 6 7H14C14.552 7 15 7.448 15 8ZM15 12C15 12.552 14.552 13 14 13H6C5.448 13 5 12.552 5 12C5 11.448 5.448 11 6 11H14C14.552 11 15 11.448 15 12ZM27 16C27 16.552 26.553 17 26 17H6C5.448 17 5 16.552 5 16C5 15.448 5.448 15 6 15H26C26.553 15 27 15.448 27 16ZM27 20C27 20.553 26.553 21 26 21H6C5.448 21 5 20.553 5 20C5 19.447 5.448 19 6 19H26C26.553 19 27 19.447 27 20ZM27 24C27 24.553 26.553 25 26 25H6C5.448 25 5 24.553 5 24C5 23.447 5.448 23 6 23H26C26.553 23 27 23.447 27 24ZM27 28C27 28.553 26.553 29 26 29H6C5.448 29 5 28.553 5 28C5 27.447 5.448 27 6 27H26C26.553 27 27 27.447 27 28Z"
        fill="#99AAB5" />
    <path
        d="M31 18.9999C31 18.9999 25.094 18.9979 25.065 18.9999C24.774 18.9999 24.155 19.1739 23.81 19.6059L21.482 22.5349C20.838 23.3439 20.838 24.6539 21.482 25.4649L23.81 28.3939C24.155 28.8259 24.774 28.9999 25.065 28.9999C25.084 29.0019 28.612 28.9999 31 28.9999V18.9999Z"
        fill="#66757F" />
    <path
        d="M33.0001 18.9999C33.0001 18.9999 24.9441 18.9979 24.9161 18.9999C24.6251 18.9999 24.0061 19.1389 23.6611 19.4849L21.3331 21.8269C20.6901 22.4739 20.6901 23.5219 21.3331 24.1709L23.6611 26.5129C24.0061 26.8589 24.6251 26.9999 24.9161 26.9999C24.9441 27.0019 33.0001 26.9999 33.0001 26.9999C34.1041 26.9999 35.0001 26.1029 35.0001 24.9989V20.9999C35.0001 19.8959 34.1041 18.9999 33.0001 18.9999Z"
        fill="#744EAA" />
</svg>