<svg width="36" height="36" viewBox="0 0 36 36" fill="none" xmlns="http://www.w3.org/2000/svg">
    <g clip-path="url(#clip0_3131_40165)">
        <path
            d="M36 32C36 34.209 34.209 36 32 36H4C1.791 36 0 34.209 0 32V4C0 1.791 1.791 0 4 0H32C34.209 0 36 1.791 36 4V32Z"
            fill="#3B88C3" />
        <path d="M22 7V16H29L18 29L7 16H14V7H22Z" fill="white" />
    </g>
    <defs>
        <clipPath id="clip0_3131_40165">
            <rect width="36" height="36" fill="white" />
        </clipPath>
    </defs>
</svg>