<svg width="36" height="36" viewBox="0 0 36 36" fill="none" xmlns="http://www.w3.org/2000/svg">
<g clip-path="url(#clip0_4992_53877)">
<path d="M36 32C36 34.209 34.209 36 32 36H4C1.791 36 0 34.209 0 32V4C0 1.791 1.791 0 4 0H32C34.209 0 36 1.791 36 4V32Z" fill="#226699"/>
<path d="M18 2.24902L21.751 6.00002H27V11.249L30.751 15L27 18.751V24H21.751L18 27.751L14.249 24H9.00002V18.751L5.24902 15L9.00002 11.249V6.00002H14.249L18 2.24902Z" fill="#55ACEE"/>
<path d="M18 4.59424L20.234 9.66324L25.086 8.24624L23.668 13.0972L30.154 15.3322L23.668 17.5662L25.086 22.4172L20.234 21.0002L18 33.1542L15.765 21.0002L10.915 22.4172L12.332 17.5662L5.84497 15.3322L12.332 13.0972L10.915 8.24624L15.765 9.66324L18 4.59424Z" fill="#FFD983"/>
<path d="M18 18C19.6569 18 21 16.6569 21 15C21 13.3431 19.6569 12 18 12C16.3431 12 15 13.3431 15 15C15 16.6569 16.3431 18 18 18Z" fill="#F5F8FA"/>
<path d="M9.99912 13.0002C9.80912 13.0002 9.61612 12.9462 9.44512 12.8322L3.44512 8.83218C2.98612 8.52618 2.86212 7.90518 3.16812 7.44518C3.47412 6.98518 4.09512 6.86118 4.55512 7.16818L10.5551 11.1682C11.0151 11.4742 11.1381 12.0952 10.8321 12.5552C10.6391 12.8442 10.3221 13.0002 9.99912 13.0002ZM26.0011 13.0002C25.6781 13.0002 25.3601 12.8442 25.1681 12.5552C24.8611 12.0952 24.9851 11.4742 25.4451 11.1682L31.4451 7.16818C31.9051 6.86118 32.5261 6.98518 32.8321 7.44518C33.1391 7.90418 33.0151 8.52618 32.5551 8.83218L26.5551 12.8322C26.3841 12.9462 26.1911 13.0002 26.0011 13.0002ZM4.00112 24.0002C3.67812 24.0002 3.36112 23.8442 3.16812 23.5552C2.86212 23.0952 2.98612 22.4752 3.44512 22.1682L9.44512 18.1682C9.90412 17.8602 10.5251 17.9852 10.8321 18.4452C11.1381 18.9052 11.0141 19.5252 10.5551 19.8322L4.55512 23.8322C4.38412 23.9452 4.19112 24.0002 4.00112 24.0002ZM32.9991 24.0002C32.8311 24.0002 32.6601 23.9582 32.5041 23.8682L25.5041 19.8682C25.0251 19.5942 24.8581 18.9832 25.1321 18.5042C25.4061 18.0252 26.0161 17.8572 26.4961 18.1322L33.4961 22.1322C33.9751 22.4062 34.1421 23.0172 33.8681 23.4962C33.6841 23.8192 33.3471 24.0002 32.9991 24.0002ZM10.0001 34.0002C9.86412 34.0002 9.72712 33.9732 9.59412 33.9142C9.09012 33.6892 8.86212 33.0982 9.08712 32.5942L13.0871 23.5942C13.3111 23.0902 13.9011 22.8612 14.4071 23.0862C14.9111 23.3112 15.1391 23.9022 14.9141 24.4062L10.9141 33.4062C10.7481 33.7782 10.3821 34.0002 10.0001 34.0002ZM26.0011 34.0002C25.6171 34.0002 25.2521 33.7792 25.0861 33.4062L21.0861 24.4062C20.8621 23.9012 21.0891 23.3102 21.5941 23.0862C22.1001 22.8622 22.6901 23.0902 22.9141 23.5942L26.9141 32.5942C27.1381 33.0992 26.9111 33.6902 26.4061 33.9142C26.2741 33.9732 26.1371 34.0002 26.0011 34.0002ZM15.0011 8.00018C14.6341 8.00018 14.2811 7.79818 14.1051 7.44718L12.1051 3.44718C11.8581 2.95318 12.0581 2.35218 12.5521 2.10518C13.0471 1.85818 13.6471 2.05918 13.8941 2.55218L15.8941 6.55218C16.1411 7.04618 15.9411 7.64718 15.4471 7.89418C15.3041 7.96618 15.1511 8.00018 15.0011 8.00018ZM20.9991 8.00018C20.8491 8.00018 20.6961 7.96618 20.5531 7.89518C20.0591 7.64818 19.8591 7.04718 20.1061 6.55318L22.1061 2.55318C22.3541 2.05818 22.9531 1.85818 23.4481 2.10618C23.9421 2.35318 24.1421 2.95418 23.8951 3.44818L21.8951 7.44818C21.7191 7.79818 21.3661 8.00018 20.9991 8.00018Z" fill="#FFCC4D"/>
</g>
<defs>
<clipPath id="clip0_4992_53877">
<rect width="36" height="36" fill="white"/>
</clipPath>
</defs>
</svg>
