<svg width="36" height="36" viewBox="0 0 36 36" fill="none" xmlns="http://www.w3.org/2000/svg">
<path d="M35 32C35 34.209 33.209 36 31 36H5C2.791 36 1 34.209 1 32V8C1 5.791 2.791 4 5 4H31C33.209 4 35 5.791 35 8V32Z" fill="#CC2500"/>
<path d="M33 32C33 33.104 32.104 34 31 34H5C3.896 34 3 33.104 3 32V12C3 10.896 3.896 10 5 10H31C32.104 10 33 10.896 33 12V32Z" fill="#E1E8ED"/>
<path d="M33 16H3V8C3 6.896 3.896 6 5 6H31C32.104 6 33 6.896 33 8V16Z" fill="#DD2E44"/>
<path d="M11 7C11 7.552 10.552 8 10 8C9.448 8 9 7.552 9 7V1C9 0.448 9.448 0 10 0C10.552 0 11 0.448 11 1V7ZM27 7C27 7.552 26.553 8 26 8C25.447 8 25 7.552 25 7V1C25 0.448 25.447 0 26 0C26.553 0 27 0.448 27 1V7Z" fill="#99AAB5"/>
<path d="M11.299 11.504C11.299 12.5758 11.0617 12.7885 10.6281 12.7885C10.3826 12.7885 10.1945 12.7149 10.0145 12.6249C9.32719 12.2813 8.689 13.4513 9.47446 13.9258C9.74446 14.0895 10.1617 14.2204 10.7181 14.2204C11.9536 14.2204 12.8454 13.574 12.8454 11.5367V8.33764C12.8454 7.92037 12.4526 7.71582 12.0845 7.71582C11.6999 7.71582 11.299 7.92037 11.299 8.33764V11.504Z" fill="white"/>
<path d="M13.5349 13.3204C13.5022 13.4185 13.4858 13.5004 13.4858 13.5822C13.4858 13.9913 13.8949 14.2613 14.2958 14.2613C14.5985 14.2613 14.9176 14.1058 15.0322 13.7376L15.3103 12.854H17.274L17.5603 13.754C17.6667 14.0976 17.9449 14.2531 18.2967 14.2531C18.7385 14.2531 19.2049 13.9995 19.2049 13.5985C19.2049 13.5249 19.2049 13.4185 19.1722 13.3285L17.2576 8.34582C17.0776 7.88764 16.734 7.71582 16.3331 7.71582C15.9485 7.71582 15.6049 7.88764 15.4412 8.32127L13.5349 13.3204ZM16.2922 9.77764L16.8485 11.5367H15.7276L16.2922 9.77764Z" fill="white"/>
<path d="M22.6605 13.1567C22.9796 13.9013 23.3314 14.2122 24.0187 14.2122C24.5505 14.2122 25.0005 13.8358 25.0005 13.3367V8.33764C25.0005 7.92037 24.6078 7.71582 24.2314 7.71582C23.855 7.71582 23.4705 7.92037 23.4705 8.33764V11.8885L22.1287 8.72218C21.8423 8.05127 21.4741 7.76491 20.7787 7.76491C20.2387 7.76491 19.8459 8.14127 19.8459 8.63218V13.6231C19.8459 14.0567 20.2059 14.2695 20.5659 14.2695C20.9259 14.2695 21.3187 14.0567 21.3187 13.6231V10.0231L22.6605 13.1567Z" fill="white"/>
<path d="M14.4983 20.553C14.0565 20.8148 13.762 21.2403 13.762 21.6494C13.762 22.3694 14.302 23.1384 15.0547 23.1384C15.202 23.1384 15.5129 23.0894 15.6765 22.9912L17.182 22.0748V30.5348C17.182 31.4184 18.0001 31.8603 18.7856 31.8603C19.5383 31.8603 20.3729 31.4184 20.3729 30.5348V20.4875C20.3729 19.2766 19.8492 18.5894 18.622 18.5894C18.082 18.5894 17.4765 18.8021 16.9365 19.1294L14.4983 20.553Z" fill="#66757F"/>
</svg>
