<svg width="36" height="36" viewBox="0 0 36 36" fill="none" xmlns="http://www.w3.org/2000/svg">
    <rect width="36" height="36" />
    <g clip-path="url(#clip0_4422_261734)">
        <path
            d="M3.88844 21.8274C3.88844 23.2071 4.19015 24.2664 4.5845 24.9072C5.10154 25.7466 5.87272 26.1022 6.65892 26.1022C7.67297 26.1022 8.60064 25.8496 10.3884 23.368C11.8206 21.3788 13.5081 18.5868 14.6436 16.8364L16.5666 13.871C17.9024 11.8115 19.4485 9.52209 21.2212 7.97026C22.6684 6.70366 24.2295 6 25.8007 6C28.4384 6 30.951 7.53424 32.874 10.4117C34.9784 13.5631 36 17.5326 36 21.6289C36 24.0641 35.5218 25.8534 34.708 27.267C33.9218 28.6341 32.3895 30 29.8118 30V26.1022C32.0189 26.1022 32.5698 24.0666 32.5698 21.737C32.5698 18.4172 31.7986 14.733 30.0997 12.1005C28.8941 10.2333 27.3318 9.09236 25.6129 9.09236C23.7538 9.09236 22.2578 10.4997 20.5764 13.009C19.6826 14.3422 18.7649 15.9669 17.7346 17.8002L16.6004 19.817C14.3219 23.8718 13.7448 24.7954 12.6055 26.3196C10.6087 28.9885 8.9036 30 6.65892 30C3.99611 30 2.31228 28.8427 1.26944 27.0986C0.418139 25.6775 0 23.8128 0 21.688L3.88844 21.8274Z"
            fill="#0081FB" />
        <path
            d="M3.06592 10.6869C4.84864 7.9288 7.42132 6 10.3721 6C12.0809 6 13.7798 6.50764 15.5537 7.96147C17.4942 9.55099 19.5624 12.1684 22.1426 16.4821L23.0677 18.0302C25.3011 21.7646 26.5718 23.6859 27.3155 24.5918C28.2719 25.7554 28.9417 26.1022 29.8118 26.1022C32.0189 26.1022 32.5697 24.0666 32.5697 21.737L36 21.6289C36 24.0641 35.5218 25.8534 34.708 27.267C33.9218 28.6341 32.3895 30 29.8118 30C28.2093 30 26.7897 29.6507 25.2198 28.1642C24.0129 27.0232 22.602 24.9964 21.5166 23.1744L18.2879 17.7613C16.6679 15.0446 15.1819 13.0191 14.3219 12.1018C13.3967 11.1154 12.2074 9.92419 10.3095 9.92419C8.77339 9.92419 7.46889 11.0061 6.37723 12.6609L3.06592 10.6869Z"
            fill="url(#paint0_linear_4422_261734)" />
        <path
            d="M10.3095 9.92419C8.7734 9.92419 7.46891 11.0061 6.37724 12.6609C4.83363 14.9994 3.88844 18.4825 3.88844 21.8274C3.88844 23.2071 4.19015 24.2664 4.5845 24.9072L1.26944 27.0986C0.418139 25.6775 0 23.8128 0 21.688C0 17.8241 1.05661 13.7969 3.06593 10.6869C4.84866 7.9288 7.42134 6 10.3721 6L10.3095 9.92419Z"
            fill="url(#paint1_linear_4422_261734)" />
    </g>
    <defs>
        <linearGradient id="paint0_linear_4422_261734" x1="7.80441" y1="17.378" x2="32.5927" y2="18.6253"
            gradientUnits="userSpaceOnUse">
            <stop stop-color="#0064E1" />
            <stop offset="0.4" stop-color="#0064E1" />
            <stop offset="0.83" stop-color="#0073EE" />
            <stop offset="1" stop-color="#0082FB" />
        </linearGradient>
        <linearGradient id="paint1_linear_4422_261734" x1="5.18542" y1="23.466" x2="5.18542" y2="14.2932"
            gradientUnits="userSpaceOnUse">
            <stop stop-color="#0082FB" />
            <stop offset="1" stop-color="#0064E0" />
        </linearGradient>
        <clipPath id="clip0_4422_261734">
            <rect width="36" height="24" fill="white" transform="translate(0 6)" />
        </clipPath>
    </defs>
</svg>