<svg width="36" height="36" viewBox="0 0 36 36" fill="none" xmlns="http://www.w3.org/2000/svg">
    <path
        d="M32.4151 9.586L23.4151 0.586C23.0541 0.225 22.5531 0 22.0001 0C20.8961 0 20.0011 0.896 20.0001 2C20.0001 2.552 20.2241 3.053 20.5861 3.415L16.7271 7.274L25.7271 16.274L29.5861 12.415C29.9481 12.776 30.4481 13 31.0001 13C32.1041 13 33.0011 12.104 33.0001 11C33.0001 10.448 32.7761 9.948 32.4151 9.586Z"
        fill="#E1E8ED" />
    <path
        d="M22 0H7C4.791 0 3 1.791 3 4V32C3 34.209 4.791 36 7 36H29C31.209 36 33 34.209 33 32V11H24C23 11 22 10 22 9V0Z"
        fill="#CCD6DD" />
    <path
        d="M22 0H20V9C20 11.209 21.791 13 24 13H33V11H24C23 11 22 10 22 9V0ZM17 8C17 8.552 16.552 9 16 9H8C7.448 9 7 8.552 7 8C7 7.448 7.448 7 8 7H16C16.552 7 17 7.448 17 8ZM17 12C17 12.552 16.552 13 16 13H8C7.448 13 7 12.552 7 12C7 11.448 7.448 11 8 11H16C16.552 11 17 11.448 17 12ZM29 16C29 16.552 28.553 17 28 17H8C7.448 17 7 16.552 7 16C7 15.448 7.448 15 8 15H28C28.553 15 29 15.448 29 16ZM29 20C29 20.553 28.553 21 28 21H8C7.448 21 7 20.553 7 20C7 19.447 7.448 19 8 19H28C28.553 19 29 19.447 29 20ZM29 24C29 24.553 28.553 25 28 25H8C7.448 25 7 24.553 7 24C7 23.447 7.448 23 8 23H28C28.553 23 29 23.447 29 24ZM29 28C29 28.553 28.553 29 28 29H8C7.448 29 7 28.553 7 28C7 27.447 7.448 27 8 27H28C28.553 27 29 27.447 29 28Z"
        fill="#99AAB5" />
</svg>