<svg width="36" height="36" viewBox="0 0 36 36" fill="none" xmlns="http://www.w3.org/2000/svg">
    <g clip-path="url(#clip0_489_14310)">
        <path
            d="M8 4C8 1.791 9.791 2.29126e-06 12 2.09815e-06L32 3.49691e-07C34.209 1.56574e-07 36 1.875 36 8L36 32C36 34.209 34.209 36 32 36L12 36C9.791 36 8 34.209 8 32L8 4Z"
            fill="#CCD6DD" />
        <path
            d="M5 2.36041e-06L32 0C28 3.49691e-07 28 8 28 8C28 10.209 26.209 12 24 12L4 12C1.791 12 -1.74846e-07 10 -3.49691e-07 8C-3.49691e-07 8 -0.250001 2.81938e-06 5 2.36041e-06Z"
            fill="#E1E8ED" />
        <path
            d="M12 29C12 28.448 12.447 28 13 28L31 28C31.552 28 32 28.448 32 29C32 29.552 31.552 30 31 30L13 30C12.447 30 12 29.552 12 29ZM12 25C12 24.448 12.447 24 13 24L31 24C31.552 24 32 24.448 32 25C32 25.552 31.552 26 31 26L13 26C12.447 26 12 25.552 12 25ZM12 21C12 20.448 12.447 20 13 20L31 20C31.552 20 32 20.448 32 21C32 21.552 31.552 22 31 22L13 22C12.447 22 12 21.552 12 21ZM12 17C12 16.447 12.447 16 13 16L31 16C31.552 16 32 16.447 32 17C32 17.553 31.552 18 31 18L13 18C12.447 18 12 17.553 12 17Z"
            fill="#99AAB5" />
    </g>
    <defs>
        <clipPath id="clip0_489_14310">
            <rect width="36" height="36" fill="white" transform="translate(36 36) rotate(180)" />
        </clipPath>
    </defs>
</svg>