<svg width="36" height="36" viewBox="0 0 36 36" fill="none" xmlns="http://www.w3.org/2000/svg">
    <path
        d="M32 7H4C1.791 7 0 8.791 0 11V26C0 28.209 1.791 30 4 30H15.416C15.936 30.596 16.893 31 18 31C19.107 31 20.065 30.596 20.584 30H32C34.209 30 36 28.209 36 26V11C36 8.791 34.209 7 32 7Z"
        fill="#3A9922" />
    <path
        d="M20 27C20 28.104 19.104 29 18 29C16.896 29 16 28.104 16 27V9C16 7.896 16.896 7 18 7C19.104 7 20 7.896 20 9V27Z"
        fill="#292F33" />
    <path
        d="M18 26C18 27.104 17.104 28 16 28H4C2.896 28 2 27.104 2 26V8C2 6.896 2.896 6 4 6H16C17.104 6 18 6.896 18 8V26Z"
        fill="#99AAB5" />
    <path
        d="M18 26C17.001 24.002 14.343 24 14 24C12 24 9 26 6 26C5 26 4 25.104 4 24V8C4 6.896 5 6 6 6C9.255 6 12 4 14 4C17 4 18 5.896 18 7V26Z"
        fill="#E1E8ED" />
    <path
        d="M34 26C34 27.104 33.104 28 32 28H20C18.896 28 18 27.104 18 26V8C18 6.896 18.896 6 20 6H32C33.104 6 34 6.896 34 8V26Z"
        fill="#99AAB5" />
    <path
        d="M18 26C18.999 24.002 21.657 24 22 24C24 24 27 26 30 26C31 26 32 25.104 32 24V8C32 6.896 31 6 30 6C26.744 6 24 4 22 4C19 4 18 5.896 18 7V26Z"
        fill="#CCD6DD" />
</svg>