<svg width="36" height="36" viewBox="0 0 36 36" fill="none" xmlns="http://www.w3.org/2000/svg">
    <rect width="31" height="36" rx="5" fill="#CCD6DD" />
    <rect x="3" y="5" width="13" height="10" rx="2" fill="white" />
    <rect x="3" y="25" width="25" height="6" rx="2" fill="white" />
    <rect x="18" y="5" width="10" height="2" rx="1" fill="#99AAB5" />
    <rect x="18" y="13" width="10" height="2" rx="1" fill="#99AAB5" />
    <rect x="3" y="17" width="25" height="2" rx="1" fill="#99AAB5" />
    <rect x="3" y="21" width="25" height="2" rx="1" fill="#99AAB5" />
    <rect x="18" y="9" width="10" height="2" rx="1" fill="#99AAB5" />
    <path fill-rule="evenodd" clip-rule="evenodd"
        d="M31.0001 24.1937V31C31.0001 31.9601 30.7295 32.857 30.2604 33.6186L28.4411 31.5759L26.5654 34.2199C26.0113 35.0008 24.8043 34.8179 24.5066 33.9079L20.4431 21.4865C20.1267 20.5193 21.1146 19.6394 22.0388 20.0652L31.0001 24.1937Z"
        fill="#66757F" />
    <path fill-rule="evenodd" clip-rule="evenodd"
        d="M24.2126 19.3213C23.3032 18.9295 22.3503 19.7782 22.6346 20.7267L25.4385 30.0793C25.7151 31.002 26.9279 31.2101 27.4963 30.4324L28.9067 28.5026L33.1181 33.2311C33.5463 33.7119 34.2832 33.7545 34.764 33.3263L35.3284 32.8237C35.8091 32.3955 35.8518 31.6586 35.4236 31.1778L31.2119 26.449L33.293 25.2697C34.1311 24.7947 34.0642 23.566 33.1795 23.1848L24.2126 19.3213Z"
        fill="black" />
</svg>