<svg width="36" height="36" viewBox="0 0 36 36" fill="none" xmlns="http://www.w3.org/2000/svg">
    <g clip-path="url(#clip0_488_13712)">
        <path
            d="M36.0021 32.4014C36.0038 32.8737 35.9112 33.3417 35.7296 33.7786C35.5481 34.2154 35.2812 34.6126 34.9441 34.9475C34.6071 35.2823 34.2065 35.5481 33.7654 35.7298C33.3243 35.9115 32.8513 36.0054 32.3734 36.0062H3.63079C3.15326 36.0057 2.68053 35.9121 2.23959 35.731C1.79864 35.5498 1.39814 35.2846 1.06096 34.9504C0.723786 34.6162 0.45655 34.2196 0.274507 33.7833C0.0924644 33.347 -0.000820102 32.8796 5.43434e-06 32.4076V3.60062C-0.000820193 3.12859 0.0924389 2.66103 0.274456 2.22463C0.456473 1.78822 0.723686 1.39152 1.06084 1.05717C1.39798 0.722819 1.79847 0.45737 2.23942 0.275981C2.68037 0.0945921 3.15317 0.000814538 3.63079 0H32.3734C33.3377 0.00219303 34.2616 0.382709 34.942 1.0579C35.6225 1.73309 36.0038 2.64768 36.0021 3.60062V32.4014Z"
            fill="#006699" />
        <path
            d="M11.7112 8.80304C11.7112 10.1253 10.7249 11.1972 9.10008 11.1972C7.56946 11.1972 6.58743 10.1253 6.58743 8.80304C6.58115 7.4497 7.60087 6.41504 9.16709 6.41504C10.7333 6.41504 11.6797 7.4497 11.7112 8.80304ZM6.70888 28.4864V13.0865H11.552V28.4864H6.70888Z"
            fill="white" />
        <path
            d="M14.4519 18.003C14.4519 16.0827 14.387 14.4852 14.3242 13.0905H18.5308L18.7528 15.2322H18.8491C19.4772 14.2245 21.0476 12.749 23.665 12.749C26.8519 12.749 29.241 14.8597 29.241 19.3936V28.4986H24.3937V19.9503C24.3937 17.9679 23.6922 16.6125 21.9396 16.6125C20.6017 16.6125 19.806 17.5271 19.4542 18.4086C19.3302 18.7949 19.2764 19.1998 19.2951 19.6047V28.4862H14.4519V18.003Z"
            fill="white" />
    </g>
    <defs>
        <clipPath id="clip0_488_13712">
            <rect width="36" height="36" fill="white" />
        </clipPath>
    </defs>
</svg>