<svg width="36" height="36" viewBox="0 0 36 36" fill="none" xmlns="http://www.w3.org/2000/svg">
    <path
        d="M36 27C36 29.209 34.209 31 32 31H4C1.791 31 0 29.209 0 27V9C0 6.791 1.791 5 4 5H32C34.209 5 36 6.791 36 9V27Z"
        fill="#CCD6DD" />
    <path
        d="M11.9499 17.636L0.636904 28.949C0.609904 28.977 0.599904 29.012 0.576904 29.04C0.916904 29.61 1.3909 30.083 1.9609 30.424C1.9899 30.401 2.0239 30.391 2.0509 30.364L13.3649 19.05C13.7549 18.659 13.7549 18.027 13.3649 17.636C12.9729 17.245 12.3409 17.245 11.9499 17.636ZM35.4229 29.04C35.4019 29.012 35.3899 28.977 35.3629 28.95L24.0509 17.636C23.6589 17.245 23.0269 17.245 22.6359 17.636C22.2449 18.028 22.2449 18.66 22.6359 19.05L33.9489 30.364C33.9749 30.39 34.0109 30.401 34.0389 30.424C34.6099 30.084 35.0829 29.61 35.4229 29.04Z"
        fill="#99AAB5" />
    <path
        d="M32 5H4C1.791 5 0 6.791 0 9V10.03L14.528 24.526C16.422 26.419 19.516 26.419 21.412 24.526L36 10.009V9C36 6.791 34.209 5 32 5Z"
        fill="#99AAB5" />
    <path
        d="M32 5H4.00003C2.41203 5 1.05103 5.934 0.405029 7.275L15.171 22.042C16.733 23.604 19.267 23.604 20.828 22.042L35.595 7.275C34.949 5.934 33.589 5 32 5Z"
        fill="#E1E8ED" />
    <path
        d="M18.41 7.766C16.184 7.836 14.868 9.264 14.868 10.818C14.868 12.512 16.058 13.366 17.318 13.716L17.612 13.8L17.262 16.46C16.856 16.334 16.478 16.138 16.184 15.942C15.078 15.214 13.958 16.726 15.05 17.622C15.54 18.014 16.198 18.294 16.996 18.434L16.926 18.952C16.87 19.4 17.178 19.68 17.528 19.764C17.948 19.862 18.48 19.68 18.55 19.148L18.634 18.532C20.832 18.378 22.148 17.006 22.148 15.172C22.148 13.548 20.972 12.638 19.474 12.204L19.782 9.838C20.062 9.936 20.314 10.048 20.524 10.16C21.602 10.804 22.526 9.25 21.49 8.522C21.196 8.312 20.706 8.074 20.034 7.92L20.09 7.57C20.146 7.122 19.81 6.828 19.432 6.758C18.998 6.674 18.536 6.856 18.466 7.36L18.41 7.766ZM19.95 15.41C19.95 15.942 19.614 16.376 18.9 16.53L19.194 14.304C19.726 14.556 19.95 14.906 19.95 15.41ZM17.066 10.692C17.066 10.202 17.486 9.81 18.158 9.684L17.878 11.756C17.234 11.504 17.066 11.182 17.066 10.692Z"
        fill="#219A43" />
</svg>