<svg width="36" height="36" viewBox="0 0 36 36" fill="none" xmlns="http://www.w3.org/2000/svg">
    <path fill-rule="evenodd" clip-rule="evenodd"
        d="M36 18.4096C36.0015 17.1746 35.8897 15.9418 35.666 14.7264H18.3625V21.6893H28.248C28.0428 22.7895 27.6123 23.8376 26.9824 24.7703C26.3525 25.7029 25.5363 26.5009 24.5831 27.1159V31.6334H30.5182C33.991 28.4996 35.9948 23.8837 35.9948 18.4063L36 18.4096Z"
        fill="#3E82F1" />
    <path fill-rule="evenodd" clip-rule="evenodd"
        d="M18.3676 36C23.3268 36 27.4849 34.389 30.5234 31.6401L24.5882 27.1225C22.9427 28.2027 20.8386 28.8421 18.3676 28.8421C13.5832 28.8421 9.53413 25.6743 8.09101 21.4196H1.95343V26.0847C3.48234 29.0664 5.82709 31.5727 8.7257 33.3237C11.6243 35.0746 14.9626 36.0012 18.3676 36Z"
        fill="#32A753" />
    <path fill-rule="evenodd" clip-rule="evenodd"
        d="M8.09101 21.4196C7.32273 19.202 7.32277 16.798 8.09105 14.5805V9.91533H1.95347C0.668911 12.4244 0 15.1928 0 18C0 20.8072 0.668871 23.5756 1.95343 26.0847L8.09101 21.4196Z"
        fill="#F9BB00" />
    <path fill-rule="evenodd" clip-rule="evenodd"
        d="M18.3676 7.15794C21.0653 7.15794 23.486 8.06689 25.3894 9.85086L30.6566 4.68718C27.4762 1.78228 23.3182 1.2453e-06 18.3711 1.2453e-06C14.9661 -0.00123996 11.6278 0.92538 8.72918 2.67634C5.83057 4.4273 3.48582 6.93363 1.9569 9.91531L8.09449 14.5804C9.53761 10.3257 13.5866 7.15794 18.3711 7.15794H18.3676Z"
        fill="#E74133" />
</svg>