<svg width="36" height="36" viewBox="0 0 36 36" fill="none" xmlns="http://www.w3.org/2000/svg">
    <g clip-path="url(#clip0_7755_73633)">
        <path d="M22 27H4C1.791 27 0 28.791 0 31V36H26V31C26 28.791 24.209 27 22 27Z" fill="#8CCAF7" />
        <path d="M21 32H22V36H21V32ZM4 32H5V36H4V32Z" fill="#2A6797" />
        <path d="M10 22V28C10 29.657 11.343 31 13 31C14.657 31 16 29.657 16 28V22H10Z" fill="#F7DECE" />
        <path d="M29 36H22L23 19H29V36Z" fill="#8CCAF7" />
        <path
            d="M31.541 15.4433C31.397 14.7503 30.719 14.3043 30.024 14.4463L27.35 15.0003H25C23.896 15.0003 23 15.8963 23 17.0003V19.0003H28C29.079 19.0003 29.953 18.1433 29.992 17.0733L30.347 17.0003H31C31 16.9263 30.972 16.8563 30.955 16.7843C31.399 16.5083 31.653 15.9853 31.541 15.4433Z"
            fill="#EEC2AD" />
        <path
            d="M36 16.0005C36 15.4485 35.553 15.0005 35 15.0005L29 16.0005H24C23.447 16.0005 23 16.4485 23 17.0005V19.0005H29L35 17.0005C35 17.0005 36 16.5535 36 16.0005ZM4 5.93848V17.0005C4 21.9715 8.029 26.0005 13 26.0005C17.971 26.0005 22 21.9715 22 17.0005V6.25048L4 5.93848Z"
            fill="#F7DECE" />
        <path d="M9 22H17C17 22 16 24 13 24C10 24 9 22 9 22Z" fill="#C1694F" />
        <path
            d="M9 16C8.448 16 8 15.552 8 15V14C8 13.448 8.448 13 9 13C9.552 13 10 13.448 10 14V15C10 15.552 9.552 16 9 16ZM17 16C16.448 16 16 15.552 16 15V14C16 13.448 16.448 13 17 13C17.552 13 18 13.448 18 14V15C18 15.552 17.552 16 17 16Z"
            fill="#292F33" />
        <path
            d="M14 19.5H12C11.724 19.5 11.5 19.276 11.5 19C11.5 18.724 11.724 18.5 12 18.5H14C14.276 18.5 14.5 18.724 14.5 19C14.5 19.276 14.276 19.5 14 19.5Z"
            fill="#C1694F" />
        <path
            d="M5.847 13.7145C5.847 15.2945 5.046 16.5755 4.059 16.5755C3.072 16.5755 2.271 15.2945 2.271 13.7145C2.271 12.1345 3.072 10.8535 4.059 10.8535C5.046 10.8535 5.847 12.1345 5.847 13.7145ZM23.729 13.7145C23.729 15.2945 22.929 16.5755 21.941 16.5755C20.953 16.5755 20.153 15.2945 20.153 13.7145C20.153 12.1345 20.953 10.8535 21.941 10.8535C22.929 10.8535 23.729 12.1345 23.729 13.7145Z"
            fill="#F7DECE" />
        <path
            d="M13.0001 0.823242C5.98108 0.823242 2.86108 5.50724 2.86108 9.41124C2.86108 13.3142 4.20408 14.3972 4.42108 13.3142C5.20108 9.41124 7.54108 8.21324 7.54108 8.21324C12.2211 12.1172 11.4411 8.99424 11.4411 8.99424C16.1201 13.6782 13.7811 8.99424 13.7811 8.99424C15.3411 10.5562 20.0201 10.5562 20.0201 10.5562C20.0201 10.5562 20.8001 11.7542 21.5791 13.3152C22.3591 14.8772 23.1391 13.3152 23.1391 9.41224C23.1391 5.50724 19.2391 0.823242 13.0001 0.823242Z"
            fill="#292F33" />
    </g>
    <defs>
        <clipPath id="clip0_7755_73633">
            <rect width="36" height="36" fill="white" />
        </clipPath>
    </defs>
</svg>