<svg width="36" height="36" viewBox="0 0 36 36" fill="none" xmlns="http://www.w3.org/2000/svg">
    <path
        d="M17 27C15.343 27 14 25.657 14 24V20C14 18.343 15.343 17 17 17C17.603 16.994 23 16 23 12C23 10 21 8 18 8C15.559 8 14 10 14 11C14 12.657 12.657 14 11 14C9.343 14 8 12.657 8 11C8 6.122 12.58 2 18 2C26 2 29 7.982 29 13C29 17.145 26.723 20.313 22.587 21.92C21.687 22.271 20.797 22.507 20 22.667V24C20 25.657 18.657 27 17 27Z"
        fill="#BE1931" />
    <path
        d="M17 35C18.6569 35 20 33.6569 20 32C20 30.3431 18.6569 29 17 29C15.3431 29 14 30.3431 14 32C14 33.6569 15.3431 35 17 35Z"
        fill="#BE1931" />
</svg>