<svg width="36" height="36" viewBox="0 0 36 36" fill="none" xmlns="http://www.w3.org/2000/svg">
    <path
        d="M36 32C36 34.209 34.209 36 32 36H4C1.791 36 0 34.209 0 32V4C0 1.791 1.791 0 4 0H32C34.209 0 36 1.791 36 4V32Z"
        fill="#3B88C3" />
    <path
        d="M22.242 22.2418L25.071 25.0708C21.166 28.9758 14.834 28.9748 10.928 25.0698C8.68101 22.8238 7.73401 19.7738 8.07401 16.8448L4.03701 17.2118C3.82201 21.0518 5.16501 24.9638 8.09901 27.8988C13.566 33.3658 22.432 33.3668 27.898 27.8988L30.726 30.7268L31.575 21.3928L22.242 22.2418ZM27.899 8.09976C22.431 2.63276 13.568 2.63276 8.10001 8.09976L5.27201 5.27176L4.42301 14.6058L13.757 13.7568L10.928 10.9278C14.834 7.02276 21.164 7.02276 25.07 10.9278C27.318 13.1748 28.264 16.2248 27.926 19.1538L31.962 18.7878C32.178 14.9468 30.834 11.0348 27.899 8.09976Z"
        fill="white" />
</svg>