<svg width="36" height="36" viewBox="0 0 36 36" fill="none" xmlns="http://www.w3.org/2000/svg">
    <path
        d="M14 19C10.686 19 8 21.687 8 25C8 28.313 10.686 31 14 31C17.314 31 20 28.313 20 25C20 21.687 17.313 19 14 19ZM14 29C11.791 29 10 27.209 10 25C10 22.791 11.791 21 14 21C16.209 21 18 22.791 18 25C18 27.209 16.209 29 14 29Z"
        fill="#3B88C3" />
    <path
        d="M1.783 14.023V14.043C0.782 14.263 0 15.939 0 18C0 20.061 0.782 21.737 1.783 21.956V21.977L30.484 29.949V6.06396L1.783 14.023Z"
        fill="#55ACEE" />
    <path
        d="M31 30C33.7614 30 36 24.6274 36 18C36 11.3726 33.7614 6 31 6C28.2386 6 26 11.3726 26 18C26 24.6274 28.2386 30 31 30Z"
        fill="#226699" />
</svg>