<svg width="36" height="36" viewBox="0 0 36 36" fill="none" xmlns="http://www.w3.org/2000/svg">
    <path
        d="M18 1C27.941 1 36 7.268 36 15C36 19.368 33.426 23.268 29.396 25.835C29.92 28.144 31.141 31.569 34 35C28.242 34.04 24.56 31.239 22.284 28.584C20.908 28.846 19.479 29 18 29C8.059 29 0 22.732 0 15C0 7.268 8.059 1 18 1Z"
        fill="#8CCAF7" />
    <path
        d="M17.5 20.5C16.6715 20.5 16 19.8285 16 19V17C16 16.1715 16.6715 15.5 17.5 15.5C17.8015 15.497 20.5 15 20.5 13C20.5 12 19.5 11 18 11C16.7795 11 16 12 16 12.5C16 13.3285 15.3285 14 14.5 14C13.6715 14 13 13.3285 13 12.5C13 10.061 15.29 8 18 8C22 8 23.5 10.991 23.5 13.5C23.5 15.5725 22.3615 17.1565 20.2935 17.96C19.8435 18.1355 19.3985 18.2535 19 18.3335V19C19 19.8285 18.3285 20.5 17.5 20.5Z"
        fill="white" />
    <path
        d="M17.5 24.5C18.3284 24.5 19 23.8284 19 23C19 22.1716 18.3284 21.5 17.5 21.5C16.6716 21.5 16 22.1716 16 23C16 23.8284 16.6716 24.5 17.5 24.5Z"
        fill="white" />
</svg>