{
  "$schema": "https://turbo.build/schema.json",
  "globalDependencies": ["**/.env.*local"],
  "pipeline": {
    "build": {
      "dependsOn": ["^build"],
      "outputs": ["dist/**", ".next/**"]
    },
    "build:dev": {
      "dependsOn": ["^build:dev"],
      "outputs": ["dist/**", ".next/**"]
    },
    "build:staging": {
      "dependsOn": ["^build:staging"],
      "outputs": ["dist/**", ".next/**"]
    },
    "build:prod": {
      "dependsOn": ["^build:prod"],
      "outputs": ["dist/**", ".next/**"]
    },
    "dev:dashboard": {
      "cache": false
    },
    "dev:web": {
      "cache": false
    },
    "lint": {
      "outputs": []
    },
    "dev": {
      "cache": false
    }
  }
}
