<svg width="18" height="4" viewBox="0 0 18 4" fill="none" xmlns="http://www.w3.org/2000/svg">
<path d="M8.99989 0.125C8.62759 0.125 8.26366 0.234967 7.95411 0.440995C7.64456 0.647022 7.40329 0.939857 7.26082 1.28247C7.11835 1.62508 7.08107 2.00208 7.1537 2.36579C7.22633 2.72951 7.40561 3.0636 7.66886 3.32582C7.93211 3.58805 8.26752 3.76662 8.63266 3.83897C8.9978 3.91132 9.37628 3.87419 9.72023 3.73227C10.0642 3.59036 10.3582 3.35004 10.565 3.04169C10.7718 2.73335 10.8822 2.37084 10.8822 2C10.8822 1.50272 10.6839 1.02581 10.3309 0.674175C9.9779 0.322544 9.49912 0.125 8.99989 0.125ZM2.41165 0.125C2.03936 0.125 1.67542 0.234967 1.36587 0.440995C1.05632 0.647022 0.815054 0.939857 0.672583 1.28247C0.530112 1.62508 0.492836 2.00208 0.565467 2.36579C0.638098 2.72951 0.817374 3.0636 1.08063 3.32582C1.34388 3.58805 1.67928 3.76662 2.04442 3.83897C2.40956 3.91132 2.78804 3.87419 3.132 3.73227C3.47595 3.59036 3.76993 3.35004 3.97677 3.04169C4.18361 2.73335 4.294 2.37084 4.294 2C4.294 1.50272 4.09569 1.02581 3.74268 0.674175C3.38967 0.322544 2.91088 0.125 2.41165 0.125ZM15.5881 0.125C15.2158 0.125 14.8519 0.234967 14.5423 0.440995C14.2328 0.647022 13.9915 0.939857 13.8491 1.28247C13.7066 1.62508 13.6693 2.00208 13.7419 2.36579C13.8146 2.72951 13.9938 3.0636 14.2571 3.32582C14.5203 3.58805 14.8558 3.76662 15.2209 3.83897C15.586 3.91132 15.9645 3.87419 16.3085 3.73227C16.6524 3.59036 16.9464 3.35004 17.1532 3.04169C17.3601 2.73335 17.4705 2.37084 17.4705 2C17.4705 1.50272 17.2722 1.02581 16.9191 0.674175C16.5661 0.322544 16.0874 0.125 15.5881 0.125Z" fill="#83879D"/>
</svg>
