<svg width="12" height="16" viewBox="0 0 12 16" fill="none" xmlns="http://www.w3.org/2000/svg">
<path d="M6 11.5C7.32608 11.5 8.59785 10.9732 9.53553 10.0355C10.4732 9.09785 11 7.82608 11 6.5V1.5C11 1.23478 10.8946 0.98043 10.7071 0.792893C10.5196 0.605357 10.2652 0.5 10 0.5C9.73478 0.5 9.48043 0.605357 9.29289 0.792893C9.10536 0.98043 9 1.23478 9 1.5V6.5C9 7.29565 8.68393 8.05871 8.12132 8.62132C7.55871 9.18393 6.79565 9.5 6 9.5C5.20435 9.5 4.44129 9.18393 3.87868 8.62132C3.31607 8.05871 3 7.29565 3 6.5V1.5C3 1.23478 2.89464 0.98043 2.70711 0.792893C2.51957 0.605357 2.26522 0.5 2 0.5C1.73478 0.5 1.48043 0.605357 1.29289 0.792893C1.10536 0.98043 1 1.23478 1 1.5V6.5C1 7.82608 1.52678 9.09785 2.46447 10.0355C3.40215 10.9732 4.67392 11.5 6 11.5ZM11 13.5H1C0.734784 13.5 0.48043 13.6054 0.292893 13.7929C0.105357 13.9804 0 14.2348 0 14.5C0 14.7652 0.105357 15.0196 0.292893 15.2071C0.48043 15.3946 0.734784 15.5 1 15.5H11C11.2652 15.5 11.5196 15.3946 11.7071 15.2071C11.8946 15.0196 12 14.7652 12 14.5C12 14.2348 11.8946 13.9804 11.7071 13.7929C11.5196 13.6054 11.2652 13.5 11 13.5Z" fill="#83879D"/>
</svg>
