<svg width="17" height="14" viewBox="0 0 17 14" fill="none" xmlns="http://www.w3.org/2000/svg">
<path d="M1 12.1285C1.66667 9.2952 5.3 4.12853 14.5 6.12853" stroke="#83879D" stroke-width="2" stroke-linecap="round"/>
<path d="M10.5 1L15.5 6L10.5 11" stroke="#83879D" stroke-width="2" stroke-linecap="round" stroke-linejoin="round"/>
</svg>
