<svg width="18" height="14" viewBox="0 0 18 14" fill="none" xmlns="http://www.w3.org/2000/svg">
<path d="M2.816 12.744C2.64533 12.9147 2.43733 13 2.192 13C1.94667 13 1.73867 12.9147 1.568 12.744C1.39733 12.5733 1.312 12.3653 1.312 12.12V2.2C1.312 1.95467 1.39733 1.74667 1.568 1.576C1.73867 1.40533 1.94667 1.32 2.192 1.32C2.43733 1.32 2.64533 1.40533 2.816 1.576C2.98667 1.74667 3.072 1.95467 3.072 2.2V5.944C3.072 6.04 3.12 6.088 3.216 6.088H7.888C7.984 6.088 8.032 6.04 8.032 5.944V2.2C8.032 1.95467 8.11733 1.74667 8.288 1.576C8.45867 1.40533 8.66667 1.32 8.912 1.32C9.15733 1.32 9.36533 1.40533 9.536 1.576C9.70667 1.74667 9.792 1.95467 9.792 2.2V12.12C9.792 12.3653 9.70667 12.5733 9.536 12.744C9.36533 12.9147 9.15733 13 8.912 13C8.66667 13 8.45867 12.9147 8.288 12.744C8.11733 12.5733 8.032 12.3653 8.032 12.12V7.608C8.032 7.512 7.984 7.464 7.888 7.464H3.216C3.12 7.464 3.072 7.512 3.072 7.608V12.12C3.072 12.3653 2.98667 12.5733 2.816 12.744Z" fill="#83879D"/>
<path d="M2.816 12.744L2.99278 12.9208H2.99278L2.816 12.744ZM1.568 1.576L1.39122 1.39922L1.39122 1.39922L1.568 1.576ZM2.816 1.576L2.99278 1.39922L2.99278 1.39922L2.816 1.576ZM8.288 1.576L8.11122 1.39922L8.11122 1.39922L8.288 1.576ZM9.536 12.744L9.35922 12.5672L9.536 12.744ZM8.288 12.744L8.11122 12.9208V12.9208L8.288 12.744ZM2.63922 12.5672C2.5163 12.6901 2.37225 12.75 2.192 12.75V13.25C2.50241 13.25 2.77437 13.1392 2.99278 12.9208L2.63922 12.5672ZM2.192 12.75C2.01175 12.75 1.8677 12.6901 1.74478 12.5672L1.39122 12.9208C1.60963 13.1392 1.88159 13.25 2.192 13.25V12.75ZM1.74478 12.5672C1.62185 12.4443 1.562 12.3003 1.562 12.12H1.062C1.062 12.4304 1.17281 12.7024 1.39122 12.9208L1.74478 12.5672ZM1.562 12.12V2.2H1.062V12.12H1.562ZM1.562 2.2C1.562 2.01975 1.62185 1.8757 1.74478 1.75278L1.39122 1.39922C1.17281 1.61763 1.062 1.88959 1.062 2.2H1.562ZM1.74478 1.75278C1.8677 1.62985 2.01175 1.57 2.192 1.57V1.07C1.88159 1.07 1.60963 1.18081 1.39122 1.39922L1.74478 1.75278ZM2.192 1.57C2.37225 1.57 2.5163 1.62985 2.63922 1.75278L2.99278 1.39922C2.77437 1.18081 2.50241 1.07 2.192 1.07V1.57ZM2.63922 1.75278C2.76215 1.8757 2.822 2.01975 2.822 2.2H3.322C3.322 1.88959 3.21119 1.61763 2.99278 1.39922L2.63922 1.75278ZM2.822 2.2V5.944H3.322V2.2H2.822ZM2.822 5.944C2.822 6.03054 2.8438 6.14136 2.93122 6.22878C3.01864 6.3162 3.12946 6.338 3.216 6.338V5.838C3.20654 5.838 3.24536 5.8358 3.28478 5.87522C3.3242 5.91464 3.322 5.95346 3.322 5.944H2.822ZM3.216 6.338H7.888V5.838H3.216V6.338ZM7.888 6.338C7.97454 6.338 8.08536 6.3162 8.17278 6.22878C8.2602 6.14136 8.282 6.03054 8.282 5.944H7.782C7.782 5.95346 7.7798 5.91464 7.81922 5.87522C7.85864 5.8358 7.89746 5.838 7.888 5.838V6.338ZM8.282 5.944V2.2H7.782V5.944H8.282ZM8.282 2.2C8.282 2.01975 8.34185 1.8757 8.46478 1.75278L8.11122 1.39922C7.89281 1.61763 7.782 1.88959 7.782 2.2H8.282ZM8.46478 1.75278C8.5877 1.62985 8.73175 1.57 8.912 1.57V1.07C8.60159 1.07 8.32963 1.18081 8.11122 1.39922L8.46478 1.75278ZM8.912 1.57C9.09226 1.57 9.2363 1.62985 9.35922 1.75278L9.71278 1.39922C9.49437 1.18081 9.22241 1.07 8.912 1.07V1.57ZM9.35922 1.75278C9.48215 1.8757 9.542 2.01975 9.542 2.2H10.042C10.042 1.88959 9.93119 1.61763 9.71278 1.39922L9.35922 1.75278ZM9.542 2.2V12.12H10.042V2.2H9.542ZM9.542 12.12C9.542 12.3003 9.48215 12.4443 9.35922 12.5672L9.71278 12.9208C9.93119 12.7024 10.042 12.4304 10.042 12.12H9.542ZM9.35922 12.5672C9.2363 12.6901 9.09226 12.75 8.912 12.75V13.25C9.22241 13.25 9.49437 13.1392 9.71278 12.9208L9.35922 12.5672ZM8.912 12.75C8.73175 12.75 8.5877 12.6901 8.46478 12.5672L8.11122 12.9208C8.32963 13.1392 8.60159 13.25 8.912 13.25V12.75ZM8.46478 12.5672C8.34185 12.4443 8.282 12.3003 8.282 12.12H7.782C7.782 12.4304 7.89281 12.7024 8.11122 12.9208L8.46478 12.5672ZM8.282 12.12V7.608H7.782V12.12H8.282ZM8.282 7.608C8.282 7.52146 8.2602 7.41064 8.17278 7.32322C8.08536 7.2358 7.97454 7.214 7.888 7.214V7.714C7.89746 7.714 7.85864 7.7162 7.81922 7.67678C7.7798 7.63736 7.782 7.59854 7.782 7.608H8.282ZM7.888 7.214H3.216V7.714H7.888V7.214ZM3.216 7.214C3.12946 7.214 3.01864 7.2358 2.93122 7.32322C2.8438 7.41064 2.822 7.52146 2.822 7.608H3.322C3.322 7.59854 3.3242 7.63736 3.28478 7.67678C3.24536 7.7162 3.20654 7.714 3.216 7.714V7.214ZM2.822 7.608V12.12H3.322V7.608H2.822ZM2.822 12.12C2.822 12.3003 2.76215 12.4443 2.63922 12.5672L2.99278 12.9208C3.21119 12.7024 3.322 12.4304 3.322 12.12H2.822Z" fill="#83879D"/>
<path d="M16.155 6.91L14.335 8.68C14.3283 8.68667 14.325 8.69333 14.325 8.7C14.325 8.70667 14.3283 8.71 14.335 8.71H14.525C15.1717 8.71 15.675 8.88333 16.035 9.23C16.395 9.57 16.575 10.06 16.575 10.7C16.575 11.46 16.3417 12.05 15.875 12.47C15.415 12.89 14.765 13.1 13.925 13.1C13.4517 13.1 12.9817 13.0367 12.515 12.91C12.3683 12.87 12.2483 12.79 12.155 12.67C12.0683 12.5433 12.025 12.4 12.025 12.24C12.025 12.12 12.075 12.0267 12.175 11.96C12.2817 11.8933 12.3917 11.88 12.505 11.92C13.0317 12.1067 13.505 12.2 13.925 12.2C14.4183 12.2 14.7983 12.07 15.065 11.81C15.3383 11.55 15.475 11.18 15.475 10.7C15.475 10.2933 15.3283 9.99333 15.035 9.8C14.7483 9.6 14.2783 9.5 13.625 9.5H13.345C13.2317 9.5 13.1317 9.46 13.045 9.38C12.965 9.29333 12.925 9.19333 12.925 9.08C12.925 8.79333 13.025 8.55667 13.225 8.37L15.065 6.63C15.0717 6.62333 15.075 6.61667 15.075 6.61C15.075 6.60333 15.0717 6.6 15.065 6.6H12.425C12.2983 6.6 12.1917 6.55667 12.105 6.47C12.0183 6.38333 11.975 6.27667 11.975 6.15C11.975 6.02333 12.0183 5.91667 12.105 5.83C12.1917 5.74333 12.2983 5.7 12.425 5.7H16.025C16.1517 5.7 16.2583 5.74333 16.345 5.83C16.4317 5.91667 16.475 6.02333 16.475 6.15C16.475 6.45667 16.3683 6.71 16.155 6.91Z" fill="#83879D"/>
<path d="M16.155 6.91L15.984 6.72758L15.9807 6.73078L16.155 6.91ZM14.335 8.68L14.1607 8.50076L14.1582 8.50322L14.335 8.68ZM16.035 9.23L15.8616 9.41009L15.8633 9.41175L16.035 9.23ZM15.875 12.47L15.7078 12.2842L15.7064 12.2854L15.875 12.47ZM12.515 12.91L12.4492 13.1512L12.4495 13.1513L12.515 12.91ZM12.155 12.67L11.9487 12.8112L11.953 12.8175L11.9577 12.8235L12.155 12.67ZM12.175 11.96L12.0424 11.7479L12.0363 11.752L12.175 11.96ZM12.505 11.92L12.5885 11.6844L12.5882 11.6843L12.505 11.92ZM15.065 11.81L14.8927 11.6288L14.8905 11.631L15.065 11.81ZM15.035 9.8L14.8919 10.0051L14.8974 10.0087L15.035 9.8ZM13.045 9.38L12.8613 9.54957L12.8681 9.55692L12.8754 9.5637L13.045 9.38ZM13.225 8.37L13.3956 8.55277L13.3968 8.55164L13.225 8.37ZM15.065 6.63L15.2368 6.81171L15.2418 6.80678L15.065 6.63ZM12.105 6.47L12.2818 6.29322L12.2818 6.29322L12.105 6.47ZM12.105 5.83L12.2818 6.00678L12.2818 6.00678L12.105 5.83ZM16.345 5.83L16.1682 6.00678L16.1682 6.00678L16.345 5.83ZM15.9807 6.73078L14.1607 8.50078L14.5093 8.85922L16.3293 7.08922L15.9807 6.73078ZM14.1582 8.50322C14.1243 8.53714 14.075 8.60365 14.075 8.7H14.575C14.575 8.78302 14.5324 8.83619 14.5118 8.85678L14.1582 8.50322ZM14.075 8.7C14.075 8.74187 14.0856 8.81919 14.1507 8.88428C14.2158 8.94936 14.2931 8.96 14.335 8.96V8.46C14.3702 8.46 14.4425 8.46897 14.5043 8.53072C14.566 8.59248 14.575 8.6648 14.575 8.7H14.075ZM14.335 8.96H14.525V8.46H14.335V8.96ZM14.525 8.96C15.1267 8.96 15.5607 9.12031 15.8616 9.41008L16.2084 9.04992C15.7893 8.64636 15.2166 8.46 14.525 8.46V8.96ZM15.8633 9.41175C16.1598 9.69171 16.325 10.1076 16.325 10.7H16.825C16.825 10.0124 16.6302 9.44829 16.2067 9.04825L15.8633 9.41175ZM16.325 10.7C16.325 11.4053 16.1108 11.9214 15.7078 12.2842L16.0422 12.6558C16.5725 12.1786 16.825 11.5147 16.825 10.7H16.325ZM15.7064 12.2854C15.3065 12.6505 14.7247 12.85 13.925 12.85V13.35C14.8053 13.35 15.5235 13.1295 16.0436 12.6546L15.7064 12.2854ZM13.925 12.85C13.4743 12.85 13.0263 12.7897 12.5805 12.6687L12.4495 13.1513C12.9371 13.2836 13.4291 13.35 13.925 13.35V12.85ZM12.5808 12.6688C12.4863 12.643 12.4125 12.5938 12.3523 12.5165L11.9577 12.8235C12.0842 12.9862 12.2504 13.097 12.4492 13.1512L12.5808 12.6688ZM12.3613 12.5288C12.3044 12.4456 12.275 12.3519 12.275 12.24H11.775C11.775 12.4481 11.8323 12.6411 11.9487 12.8112L12.3613 12.5288ZM12.275 12.24C12.275 12.2037 12.2831 12.1884 12.3137 12.168L12.0363 11.752C11.8669 11.8649 11.775 12.0363 11.775 12.24H12.275ZM12.3075 12.172C12.3531 12.1435 12.384 12.1424 12.4218 12.1557L12.5882 11.6843C12.3993 11.6176 12.2102 11.6432 12.0425 11.748L12.3075 12.172ZM12.4215 12.1556C12.9666 12.3489 13.4689 12.45 13.925 12.45V11.95C13.5411 11.95 13.0967 11.8645 12.5885 11.6844L12.4215 12.1556ZM13.925 12.45C14.4617 12.45 14.9126 12.3078 15.2395 11.989L14.8905 11.631C14.6841 11.8322 14.375 11.95 13.925 11.95V12.45ZM15.2373 11.9911C15.5729 11.6719 15.725 11.2287 15.725 10.7H15.225C15.225 11.1313 15.1037 11.4281 14.8927 11.6289L15.2373 11.9911ZM15.725 10.7C15.725 10.2247 15.5481 9.83874 15.1726 9.59126L14.8974 10.0087C15.1086 10.1479 15.225 10.362 15.225 10.7H15.725ZM15.178 9.59497C14.8264 9.34961 14.2914 9.25 13.625 9.25V9.75C14.2653 9.75 14.6703 9.85039 14.892 10.005L15.178 9.59497ZM13.625 9.25H13.345V9.75H13.625V9.25ZM13.345 9.25C13.2973 9.25 13.2571 9.23558 13.2146 9.1963L12.8754 9.5637C13.0062 9.68442 13.1661 9.75 13.345 9.75V9.25ZM13.2287 9.21043C13.1894 9.16787 13.175 9.12772 13.175 9.08H12.675C12.675 9.25894 12.7406 9.41879 12.8613 9.54957L13.2287 9.21043ZM13.175 9.08C13.175 8.8589 13.2489 8.68966 13.3956 8.55276L13.0544 8.18724C12.8011 8.42367 12.675 8.72777 12.675 9.08H13.175ZM13.3968 8.55164L15.2368 6.81164L14.8932 6.44836L13.0532 8.18836L13.3968 8.55164ZM15.2418 6.80678C15.2757 6.77286 15.325 6.70635 15.325 6.61H14.825C14.825 6.52698 14.8676 6.47381 14.8882 6.45322L15.2418 6.80678ZM15.325 6.61C15.325 6.56813 15.3144 6.49081 15.2493 6.42572C15.1842 6.36064 15.1069 6.35 15.065 6.35V6.85C15.0298 6.85 14.9575 6.84103 14.8957 6.77928C14.834 6.71752 14.825 6.6452 14.825 6.61H15.325ZM15.065 6.35H12.425V6.85H15.065V6.35ZM12.425 6.35C12.3622 6.35 12.3198 6.33128 12.2818 6.29322L11.9282 6.64678C12.0635 6.78205 12.2345 6.85 12.425 6.85V6.35ZM12.2818 6.29322C12.2437 6.25517 12.225 6.21284 12.225 6.15H11.725C11.725 6.34049 11.7929 6.5115 11.9282 6.64678L12.2818 6.29322ZM12.225 6.15C12.225 6.08716 12.2437 6.04483 12.2818 6.00678L11.9282 5.65322C11.7929 5.7885 11.725 5.95951 11.725 6.15H12.225ZM12.2818 6.00678C12.3198 5.96872 12.3622 5.95 12.425 5.95V5.45C12.2345 5.45 12.0635 5.51795 11.9282 5.65322L12.2818 6.00678ZM12.425 5.95H16.025V5.45H12.425V5.95ZM16.025 5.95C16.0878 5.95 16.1302 5.96872 16.1682 6.00678L16.5218 5.65322C16.3865 5.51795 16.2155 5.45 16.025 5.45V5.95ZM16.1682 6.00678C16.2063 6.04483 16.225 6.08716 16.225 6.15H16.725C16.725 5.95951 16.6571 5.7885 16.5218 5.65322L16.1682 6.00678ZM16.225 6.15C16.225 6.39135 16.1442 6.57741 15.984 6.72762L16.326 7.09238C16.5924 6.84259 16.725 6.52198 16.725 6.15H16.225Z" fill="#83879D"/>
</svg>
