<svg width="20" height="18" viewBox="0 0 20 18" fill="none" xmlns="http://www.w3.org/2000/svg">
<path d="M1.75065 2.58333H18.2507C18.4938 2.58333 18.7269 2.48676 18.8988 2.31485C19.0707 2.14294 19.1673 1.90978 19.1673 1.66667C19.1673 1.42355 19.0707 1.19039 18.8988 1.01849C18.7269 0.846577 18.4938 0.75 18.2507 0.75H1.75065C1.50754 0.75 1.27438 0.846577 1.10247 1.01849C0.930561 1.19039 0.833984 1.42355 0.833984 1.66667C0.833984 1.90978 0.930561 2.14294 1.10247 2.31485C1.27438 2.48676 1.50754 2.58333 1.75065 2.58333ZM12.7507 15.4167H1.75065C1.50754 15.4167 1.27438 15.5132 1.10247 15.6852C0.930561 15.8571 0.833984 16.0902 0.833984 16.3333C0.833984 16.5764 0.930561 16.8096 1.10247 16.9815C1.27438 17.1534 1.50754 17.25 1.75065 17.25H12.7507C12.9938 17.25 13.2269 17.1534 13.3988 16.9815C13.5707 16.8096 13.6673 16.5764 13.6673 16.3333C13.6673 16.0902 13.5707 15.8571 13.3988 15.6852C13.2269 15.5132 12.9938 15.4167 12.7507 15.4167ZM18.2507 8.08333H1.75065C1.50754 8.08333 1.27438 8.17991 1.10247 8.35182C0.930561 8.52373 0.833984 8.75688 0.833984 9C0.833984 9.24312 0.930561 9.47627 1.10247 9.64818C1.27438 9.82009 1.50754 9.91667 1.75065 9.91667H18.2507C18.4938 9.91667 18.7269 9.82009 18.8988 9.64818C19.0707 9.47627 19.1673 9.24312 19.1673 9C19.1673 8.75688 19.0707 8.52373 18.8988 8.35182C18.7269 8.17991 18.4938 8.08333 18.2507 8.08333ZM18.2507 4.41667H1.75065C1.50754 4.41667 1.27438 4.51324 1.10247 4.68515C0.930561 4.85706 0.833984 5.09022 0.833984 5.33333C0.833984 5.57645 0.930561 5.80961 1.10247 5.98151C1.27438 6.15342 1.50754 6.25 1.75065 6.25H18.2507C18.4938 6.25 18.7269 6.15342 18.8988 5.98151C19.0707 5.80961 19.1673 5.57645 19.1673 5.33333C19.1673 5.09022 19.0707 4.85706 18.8988 4.68515C18.7269 4.51324 18.4938 4.41667 18.2507 4.41667ZM18.2507 11.75H1.75065C1.50754 11.75 1.27438 11.8466 1.10247 12.0185C0.930561 12.1904 0.833984 12.4236 0.833984 12.6667C0.833984 12.9098 0.930561 13.1429 1.10247 13.3148C1.27438 13.4868 1.50754 13.5833 1.75065 13.5833H18.2507C18.4938 13.5833 18.7269 13.4868 18.8988 13.3148C19.0707 13.1429 19.1673 12.9098 19.1673 12.6667C19.1673 12.4236 19.0707 12.1904 18.8988 12.0185C18.7269 11.8466 18.4938 11.75 18.2507 11.75Z" fill="#83879D"/>
</svg>
