<svg width="30" height="28" viewBox="0 0 30 28" fill="none" xmlns="http://www.w3.org/2000/svg">
<circle cx="14" cy="14" r="13.45" fill="white" stroke="#5A2CDA" stroke-width="1.1"/>
<path d="M28.6999 5.31995C29.4303 4.54878 29.434 3.34226 28.7083 2.56664C27.9149 1.71862 26.5698 1.7182 25.7759 2.56573L13.8493 15.2973L9.22421 10.3572C8.43203 9.51103 7.08954 9.51083 6.29712 10.3567C5.56944 11.1335 5.57551 12.3436 6.31096 13.113L12.3969 19.4804C13.1871 20.3071 14.5084 20.3041 15.2948 19.4738L28.6999 5.31995Z" fill="#5A2CDA"/>
</svg>
