<svg width="125" height="35" viewBox="0 0 125 35" fill="none" xmlns="http://www.w3.org/2000/svg">
<path d="M18.0818 6.83789V7.86328H9.94702V6.83789H11.7634V4.66016C11.075 4.24512 10.6599 3.61523 10.6599 2.83398C10.6599 1.39355 12.0662 0.446289 13.9998 0.441406C15.9236 0.446289 17.3445 1.39355 17.3494 2.83398C17.3445 3.60059 16.9441 4.2207 16.2751 4.63574V6.83789H18.0818ZM11.8904 2.83398C11.8904 3.70312 12.7253 4.24023 13.9998 4.24023C15.2546 4.24023 16.114 3.70312 16.1189 2.83398C16.114 1.94043 15.2546 1.42285 13.9998 1.42773C12.7253 1.42285 11.8904 1.94043 11.8904 2.83398ZM12.9939 6.83789H15.0154V5.10938C14.698 5.17285 14.3562 5.20703 13.9998 5.20703C13.6433 5.20703 13.3064 5.17285 12.9939 5.11426V6.83789ZM25.7576 0.412109V1.125C25.7625 1.81836 25.7625 2.58496 25.5476 3.60547H26.7244V4.61133H18.5896V3.60547H24.2927C24.4832 2.72168 24.5076 2.0332 24.5173 1.4082H19.5857V0.412109H25.7576ZM19.5564 8.80078V5.54883H25.7283V8.80078H19.5564ZM20.7771 7.80469H24.488V6.52539H20.7771V7.80469ZM34.9177 0.0117188V8.89844H33.7361V0.0117188H34.9177ZM27.0466 6.30078C28.3552 5.49512 28.8435 3.90332 28.8435 2.39453V1.91602H27.3884V0.919922H31.3923V1.91602H30.0447V2.39453C30.0398 3.86914 30.5037 5.36328 31.8025 6.10547L31.0701 7.02344C30.2742 6.55469 29.7566 5.76367 29.4539 4.80664C29.1511 5.8418 28.614 6.7207 27.7986 7.21875L27.0466 6.30078ZM30.7576 4.06445V3.05859H31.9294V0.158203H33.1013V8.48828H31.9294V4.06445H30.7576ZM42.0076 0.509766V1.48633H39.6833V2.13086H41.9197V3.06836H39.6833V3.74707C40.6697 3.7373 41.3972 3.69824 42.2224 3.55664L42.3494 4.5625C41.3093 4.71875 40.4402 4.75293 39.0974 4.75781H38.4919V0.509766H42.0076ZM39.7419 8.80078V5.37305H40.9724V6.10547H44.5857V5.37305H45.8162V8.80078H39.7419ZM40.9724 7.80469H44.5857V7.07227H40.9724V7.80469ZM42.7009 5.00195V0.177734H43.863V2.01367H44.6345V0.0214844H45.8162V5.07031H44.6345V3.0293H43.863V5.00195H42.7009ZM53.6873 8.37109L52.8962 7.58984L55.0056 5.48047H50.0447V4.32812H55.0056L52.8962 2.22852L53.6873 1.44727L57.1541 4.9043L53.6873 8.37109ZM68.033 0.255859V1.18359H66.8708V2.35547H67.9744V3.2832H61.4216V2.35547H62.5154V1.18359H61.363V0.255859H68.033ZM60.6501 4.72852V3.75195H68.7556V4.72852H60.6501ZM61.5876 6.13477V5.23633H67.7693V7.43359H62.8181V7.92188H68.0037V8.83984H61.5974V6.58398H66.5388V6.13477H61.5876ZM63.7654 2.35547H65.6208V1.18359H63.7654V2.35547ZM76.783 0.0117188V8.91797H75.5427V4.23047H74.1072V3.21484H75.5427V0.0117188H76.783ZM69.5857 1.75977V0.753906H73.6091V4.08398H70.8455V5.82227C72.071 5.8125 73.1062 5.76855 74.2537 5.56836L74.3513 6.58398C73.033 6.80371 71.8269 6.85254 70.3376 6.84766H69.6052V3.09766H72.3982V1.75977H69.5857ZM82.613 1.18359C82.6082 2.4873 83.7654 3.87891 85.7771 4.2207L85.2302 5.25586C83.6775 4.94824 82.53 4.07422 81.9539 2.93652C81.3679 4.06445 80.2156 4.94336 78.6775 5.25586L78.1404 4.2207C80.1179 3.86914 81.2751 2.47266 81.2849 1.18359V0.539062H82.613V1.18359ZM77.9353 7.80469V6.7793H86.0701V7.80469H77.9353ZM97.0173 6.83789V7.86328H88.8826V6.83789H90.699V4.66016C90.0105 4.24512 89.5955 3.61523 89.5955 2.83398C89.5955 1.39355 91.0017 0.446289 92.9353 0.441406C94.8591 0.446289 96.28 1.39355 96.2849 2.83398C96.28 3.60059 95.8796 4.2207 95.2107 4.63574V6.83789H97.0173ZM90.8259 2.83398C90.8259 3.70312 91.6609 4.24023 92.9353 4.24023C94.1902 4.24023 95.0496 3.70312 95.0544 2.83398C95.0496 1.94043 94.1902 1.42285 92.9353 1.42773C91.6609 1.42285 90.8259 1.94043 90.8259 2.83398ZM91.9294 6.83789H93.9509V5.10938C93.6335 5.17285 93.2917 5.20703 92.9353 5.20703C92.5789 5.20703 92.2419 5.17285 91.9294 5.11426V6.83789ZM104.693 0.412109V1.125C104.698 1.81836 104.698 2.58496 104.483 3.60547H105.66V4.61133H97.5251V3.60547H103.228C103.419 2.72168 103.443 2.0332 103.453 1.4082H98.5212V0.412109H104.693ZM98.4919 8.80078V5.54883H104.664V8.80078H98.4919ZM99.7126 7.80469H103.424V6.52539H99.7126V7.80469ZM113.853 0.0117188V8.89844H112.672V0.0117188H113.853ZM105.982 6.30078C107.291 5.49512 107.779 3.90332 107.779 2.39453V1.91602H106.324V0.919922H110.328V1.91602H108.98V2.39453C108.975 3.86914 109.439 5.36328 110.738 6.10547L110.006 7.02344C109.21 6.55469 108.692 5.76367 108.389 4.80664C108.087 5.8418 107.55 6.7207 106.734 7.21875L105.982 6.30078ZM109.693 4.06445V3.05859H110.865V0.158203H112.037V8.48828H110.865V4.06445H109.693Z" fill="black"/>
<rect y="16.2706" width="124.367" height="17.7806" rx="2.20682" fill="#6446FF"/>
<path d="M23.8884 21.4126V30.3188H22.6287V21.4126H23.8884ZM16.7107 25.2016C16.7058 23.2631 17.697 22.0376 19.0642 22.0376C20.4021 22.0376 21.3982 23.2631 21.3982 25.2016C21.3982 27.1547 20.4021 28.3754 19.0642 28.3754C17.697 28.3754 16.7058 27.1547 16.7107 25.2016ZM17.9119 25.2016C17.907 26.5249 18.3708 27.2475 19.0642 27.2426C19.738 27.2475 20.1921 26.5249 20.197 25.2016C20.1921 23.8833 19.738 23.1606 19.0642 23.1606C18.3708 23.1606 17.907 23.8833 17.9119 25.2016ZM35.5291 28.2387V29.2641H27.3943V28.2387H29.2107V26.061C28.5222 25.646 28.1072 25.0161 28.1072 24.2348C28.1072 22.7944 29.5134 21.8471 31.447 21.8422C33.3708 21.8471 34.7917 22.7944 34.7966 24.2348C34.7917 25.0014 34.3914 25.6215 33.7224 26.0366V28.2387H35.5291ZM29.3376 24.2348C29.3376 25.104 30.1726 25.6411 31.447 25.6411C32.7019 25.6411 33.5613 25.104 33.5662 24.2348C33.5613 23.3413 32.7019 22.8237 31.447 22.8286C30.1726 22.8237 29.3376 23.3413 29.3376 24.2348ZM30.4412 28.2387H32.4626V26.5102C32.1453 26.5737 31.8035 26.6079 31.447 26.6079C31.0906 26.6079 30.7537 26.5737 30.4412 26.5151V28.2387ZM43.2048 21.8129V22.5258C43.2097 23.2192 43.2097 23.9858 42.9949 25.0063H44.1716V26.0122H36.0369V25.0063H41.74C41.9304 24.1225 41.9548 23.434 41.9646 22.809H37.033V21.8129H43.2048ZM37.0037 30.2016V26.9497H43.1755V30.2016H37.0037ZM38.2244 29.2055H41.9353V27.9262H38.2244V29.2055ZM52.365 21.4126V30.2993H51.1833V21.4126H52.365ZM44.4939 27.7016C45.8025 26.896 46.2908 25.3042 46.2908 23.7954V23.3168H44.8357V22.3208H48.8396V23.3168H47.4919V23.7954C47.4871 25.27 47.9509 26.7641 49.2498 27.5063L48.5173 28.4243C47.7214 27.9555 47.2039 27.1645 46.9011 26.2075C46.5984 27.2426 46.0613 28.1215 45.2458 28.6196L44.4939 27.7016ZM48.2048 25.4653V24.4594H49.3767V21.559H50.5486V29.8891H49.3767V25.4653H48.2048ZM61.4568 28.2876V29.3129H53.322V28.2876H56.7498V26.9497H54.2595V23.9614H59.2888V22.9848H54.2498V21.9887H60.5193V24.9379H55.5095V25.934H60.7244V26.9497H57.99V28.2876H61.4568ZM66.7498 21.7934C67.8826 21.7836 68.7859 22.4331 69.03 23.3852H70.5193V21.4126H71.7595V26.1879H70.5193V24.3813H69.0349C68.8054 25.3579 67.8923 26.0219 66.7498 26.0219C65.3826 26.0219 64.3767 25.1333 64.3865 23.893C64.3767 22.6772 65.3826 21.7836 66.7498 21.7934ZM65.5681 23.893C65.5632 24.5571 66.0515 24.977 66.7498 24.977C67.4236 24.977 67.907 24.5571 67.9119 23.893C67.907 23.229 67.4236 22.8237 66.7498 22.8286C66.0515 22.8237 65.5632 23.229 65.5681 23.893ZM65.8318 30.2016V26.5786H67.0623V27.4379H70.5193V26.5786H71.7595V30.2016H65.8318ZM67.0623 29.1958H70.5193V28.395H67.0623V29.1958ZM80.0212 22.2329V23.2973C80.0164 24.518 80.0164 25.7241 79.699 27.5649L78.4392 27.4575C78.7761 25.7485 78.7761 24.479 78.781 23.2973V23.229H73.7517V22.2329H80.0212ZM72.9119 29.1372V28.1118H81.0173V29.1372H72.9119ZM84.9529 22.3012V25.6704H82.9998V27.184C83.8689 27.1743 84.6843 27.1303 85.6072 26.9594L85.7146 27.9751C84.5476 28.1899 83.5515 28.2094 82.4333 28.2192H81.8083V24.684H83.7517V23.2876H81.7986V22.3012H84.9529ZM85.324 25.4555V24.4497H86.2322V21.5786H87.3943V29.8696H86.2322V25.4555H85.324ZM88.0583 30.2993V21.4126H89.24V30.2993H88.0583ZM97.6384 21.4126V30.3188H96.3787V21.4126H97.6384ZM90.4607 25.2016C90.4558 23.2631 91.447 22.0376 92.8142 22.0376C94.1521 22.0376 95.1482 23.2631 95.1482 25.2016C95.1482 27.1547 94.1521 28.3754 92.8142 28.3754C91.447 28.3754 90.4558 27.1547 90.4607 25.2016ZM91.6619 25.2016C91.657 26.5249 92.1208 27.2475 92.8142 27.2426C93.488 27.2475 93.9421 26.5249 93.947 25.2016C93.9421 23.8833 93.488 23.1606 92.8142 23.1606C92.1208 23.1606 91.657 23.8833 91.6619 25.2016ZM106.086 25.5239V26.52H99.7966V22.1547H106.017V23.1606H101.027V25.5239H106.086ZM98.8396 29.2153V28.1899H106.974V29.2153H98.8396Z" fill="white"/>
</svg>
