<svg width="37" height="32" viewBox="0 0 37 32" fill="none" xmlns="http://www.w3.org/2000/svg">
<rect x="3.12744" width="30.7451" height="17.7806" rx="0.976147" fill="#6446FF"/>
<rect x="5.37073" y="7.09036" width="4.76048" height="3.59992" rx="0.976147" fill="#FFCF55"/>
<path d="M4.96484 23.4988C4.95508 26.2429 4.29102 28.5232 0.970703 30.1882L0.287109 29.2507C1.77148 28.5134 2.65527 27.6882 3.1582 26.7019L0.53125 26.9461L0.375 25.8816L3.53418 25.6912C3.62695 25.3152 3.69043 24.9148 3.71973 24.4949H0.84375V23.4988H4.96484ZM6.08789 31.5164V22.6492H7.33789V26.0574H8.59766V27.0828H7.33789V31.5164H6.08789ZM16.2148 26.7605V27.7566H9.92578V23.3914H16.1465V24.3972H11.1562V26.7605H16.2148ZM8.96875 30.4519V29.4265H17.1035V30.4519H8.96875ZM28.041 26.7117V27.7273H19.916V26.7117H28.041ZM20.8438 29.8953C20.8438 28.8504 22.0156 28.2595 23.959 28.2644C25.8877 28.2595 27.0449 28.8504 27.0547 29.8953C27.0449 30.9451 25.8877 31.5408 23.959 31.5359C22.0156 31.5408 20.8438 30.9451 20.8438 29.8953ZM20.9023 26.0867V22.8836H27.0645V23.8894H22.1426V25.1004H27.1133V26.0867H20.9023ZM22.1133 29.8953C22.1084 30.364 22.7285 30.5886 23.959 30.5886C25.165 30.5886 25.7998 30.364 25.8047 29.8953C25.7998 29.4461 25.165 29.2117 23.959 29.2117C22.7285 29.2117 22.1084 29.4461 22.1133 29.8953ZM36.6836 27.4148V28.4109H28.5488V27.4148H31.9961V26.7703H29.5645V24.3289H34.4473V23.782H29.5449V22.8152H35.6973V25.2273H30.8047V25.8132H35.8633V26.7703H33.2363V27.4148H36.6836ZM29.457 29.8953V28.9187H35.7461V31.4968H34.4863V29.8953H29.457Z" fill="black"/>
</svg>
