<svg width="58" height="32" viewBox="0 0 58 32" fill="none" xmlns="http://www.w3.org/2000/svg">
<path d="M46.1798 8.88942C46.1798 7.23279 47.3507 5.84938 48.9108 5.51718C49.1853 5.45907 49.3816 5.21882 49.3816 4.93867V0.59153C49.3816 0.26454 49.1167 0 48.7892 0H9.21077C8.88329 0 8.61835 0.26454 8.61835 0.59153V4.93953C8.61835 5.21969 8.81553 5.45994 9.08916 5.51805C10.6493 5.85025 11.8202 7.23279 11.8202 8.89029C11.8202 10.5478 10.6493 11.9303 9.08916 12.2625C8.81466 12.3206 8.61835 12.5609 8.61835 12.8411V17.1891C8.61835 17.516 8.88329 17.7806 9.21077 17.7806H48.7892C49.1167 17.7806 49.3816 17.516 49.3816 17.1891V12.8411C49.3816 12.5609 49.1844 12.3206 48.9108 12.2625C47.3507 11.9303 46.1798 10.5478 46.1798 8.89029V8.88942Z" fill="#6446FF"/>
<path d="M21.4953 8.54585C22.0619 8.54585 22.5212 8.08682 22.5212 7.52059C22.5212 6.95435 22.0619 6.49533 21.4953 6.49533C20.9288 6.49533 20.4695 6.95435 20.4695 7.52059C20.4695 8.08682 20.9288 8.54585 21.4953 8.54585Z" fill="white"/>
<path d="M22.5198 9.86068C22.4924 9.31905 22.0442 8.88837 21.4953 8.88837C21.1425 8.88837 20.8311 9.06653 20.6466 9.33792C20.5349 9.50205 20.4697 9.70024 20.4697 9.91363C20.4697 10.467 20.9085 10.9177 21.4573 10.9377C21.4279 11.0607 21.382 11.1774 21.3221 11.2853C21.9991 11.1944 22.5212 10.615 22.5212 9.91363C22.5212 9.8959 22.5205 9.87841 22.5198 9.86091V9.86068Z" fill="white"/>
<path d="M23.5546 7.32539H24.6823L25.1127 8.9733L25.616 7.31319H26.5679L27.0771 8.9855L27.5196 7.32539H28.629L27.6166 10.6274H26.6223L26.0888 8.92497L25.5432 10.6274H24.5551L23.5549 7.32539H23.5546Z" fill="white"/>
<path d="M29.0109 7.3254H30.1687V7.98581C30.2616 7.76368 30.3889 7.58597 30.5506 7.45269C30.7123 7.31942 30.9304 7.25888 31.2054 7.27085L31.2073 8.25306H31.1103C30.8072 8.25306 30.5727 8.57141 30.4113 8.74911C30.2496 8.92682 30.1687 9.20558 30.1687 9.58516V10.6031H29.0109V7.3254Z" fill="white"/>
<path d="M33.0864 10.67C32.737 10.67 32.4648 10.5874 32.2697 10.4217C32.0746 10.2561 31.9772 9.97739 31.9772 9.58561V8.25259H31.5891V7.32562H31.9772V6.49533H33.135V7.32539H33.899V8.25236H33.135V9.36117C33.135 9.47834 33.1613 9.56213 33.2138 9.61254C33.2663 9.66318 33.3451 9.68827 33.4501 9.68827C33.5268 9.68827 33.6016 9.67814 33.6744 9.65789C33.7472 9.63763 33.8179 9.61139 33.8866 9.57916V10.482C33.7815 10.5386 33.6622 10.5839 33.5289 10.6182C33.3955 10.6525 33.2479 10.6698 33.086 10.6698L33.0864 10.67Z" fill="white"/>
<path d="M34.2808 7.32539H35.4386V7.78577C35.4905 7.71717 35.5485 7.65042 35.6123 7.58574C35.6761 7.52105 35.748 7.46466 35.8279 7.41609C35.9078 7.36752 35.9956 7.32816 36.0914 7.298C36.1872 7.26762 36.2929 7.25266 36.4088 7.25266C36.7623 7.25266 37.0375 7.35969 37.2347 7.57377C37.4316 7.78784 37.5304 8.08271 37.5304 8.45838V10.6033H36.3726V8.82806C36.3726 8.64621 36.3307 8.50902 36.2468 8.41603C36.163 8.32326 36.0534 8.27676 35.9177 8.27676C35.782 8.27676 35.6634 8.32326 35.5736 8.41603C35.4838 8.50902 35.4391 8.64621 35.4391 8.82806V10.6033H34.2813V7.32539H34.2808Z" fill="white"/>
<path d="M7.85748 23.1472V23.948C7.8526 24.8709 7.8526 25.9011 7.55475 27.3367H8.75592V28.3425H5.32819V31.5164H4.07819V28.3425H0.650452V27.3367H6.33405C6.44147 26.8631 6.51471 26.4285 6.56354 26.0281L1.461 26.282L1.31451 25.2175L6.64655 25.0711C6.66119 24.739 6.66119 24.4314 6.66608 24.1336H1.59772V23.1472H7.85748ZM16.6758 22.9715V23.9773H15.5137V25.5105H16.6172V26.4773H13.961V27.3074H17.3985V28.284H9.29303V27.3074H12.711V26.4773H10.0645V25.5105H11.1583V23.9773H10.0059V22.9715H16.6758ZM10.2696 31.3797V28.8601H11.5196V30.3836H16.4805V31.3797H10.2696ZM12.4083 25.5105H14.2637V23.9773H12.4083V25.5105ZM28.3653 26.7117V27.7273H20.2403V26.7117H28.3653ZM21.168 29.8953C21.168 28.8504 22.3399 28.2595 24.2833 28.2644C26.212 28.2595 27.3692 28.8504 27.379 29.8953C27.3692 30.9451 26.212 31.5408 24.2833 31.5359C22.3399 31.5408 21.168 30.9451 21.168 29.8953ZM21.2266 26.0867V22.8836H27.3887V23.8894H22.4669V25.1004H27.4376V26.0867H21.2266ZM22.4376 29.8953C22.4327 30.364 23.0528 30.5886 24.2833 30.5886C25.4893 30.5886 26.1241 30.364 26.129 29.8953C26.1241 29.4461 25.4893 29.2117 24.2833 29.2117C23.0528 29.2117 22.4327 29.4461 22.4376 29.8953ZM37.0079 27.4148V28.4109H28.8731V27.4148H32.3204V26.7703H29.8887V24.3289H34.7715V23.782H29.8692V22.8152H36.0215V25.2273H31.129V25.8132H36.1876V26.7703H33.5606V27.4148H37.0079ZM29.7813 29.8953V28.9187H36.0704V31.4968H34.8106V29.8953H29.7813ZM44.5372 22.6492V26.1257H45.8458V27.1511H44.5372V31.5359H43.3067V22.6492H44.5372ZM37.4766 24.9734V23.9773H39.4883V22.7859H40.7383V23.9773H42.7012V24.9734H37.4766ZM37.838 27.5906C37.8331 26.3504 38.7999 25.4666 40.1133 25.4715C41.4073 25.4666 42.379 26.3504 42.379 27.5906C42.379 28.8308 41.4073 29.7048 40.1133 29.7097C38.7999 29.7048 37.8331 28.8308 37.838 27.5906ZM39.0294 27.5906C39.0294 28.2791 39.4835 28.6892 40.1133 28.6843C40.7335 28.6892 41.1876 28.2791 41.1876 27.5906C41.1876 26.907 40.7335 26.4871 40.1133 26.4773C39.4835 26.4871 39.0294 26.907 39.0294 27.5906ZM53.6387 22.6492V31.5359H52.379V22.6492H53.6387ZM46.1973 29.0164C48.4922 27.9324 49.503 26.5261 49.7032 24.5535H46.6758V23.5769H50.9727C50.9678 26.2722 50.0255 28.5134 46.8516 30.0125L46.1973 29.0164ZM56.8321 23.5672L56.7051 28.5183H55.4551L55.3282 23.5672H56.8321ZM55.2696 29.905C55.2598 29.4558 55.6309 29.0896 56.0899 29.0945C56.5245 29.0896 56.9005 29.4558 56.9005 29.905C56.9005 30.3591 56.5245 30.7254 56.0899 30.7254C55.6309 30.7254 55.2598 30.3591 55.2696 29.905Z" fill="black"/>
</svg>
