<svg width="20" height="21" viewBox="0 0 20 21" fill="none" xmlns="http://www.w3.org/2000/svg">
<path d="M0 16.9167C0 18.2052 0.995 19.25 2.22222 19.25H15.5556C16.7828 19.25 17.7778 18.2052 17.7778 16.9167V7C17.7778 5.71142 16.7828 4.66667 15.5556 4.66667H10.5556C8.57667 4.66667 8.88889 1.75 5.86778 1.75H2.22222C0.995 1.75 0 2.79475 0 4.08333V16.9167Z" fill="#226699"/>
<path d="M16.6667 5.83325H13.0211C10 5.83325 10.3122 8.74992 8.33333 8.74992H3.33333C2.10611 8.74992 1.11111 9.79467 1.11111 11.0833V16.9166C1.11111 17.2392 0.862222 17.4999 0.555556 17.4999C0.248889 17.4999 0 17.2392 0 16.9166C0 18.2052 0.995 19.2499 2.22222 19.2499H16.6667C17.8939 19.2499 18.8889 18.2052 18.8889 16.9166V8.16659C18.8889 6.878 17.8939 5.83325 16.6667 5.83325Z" fill="#55ACEE"/>
</svg>
