<svg width="20" height="20" viewBox="0 0 20 20" fill="none" xmlns="http://www.w3.org/2000/svg">
<g clip-path="url(#clip0_11760_112184)">
<path d="M2.77783 12.1528C2.77783 12.1528 3.66061 15.3345 3.88894 16.8651C4.14672 18.5934 5.87283 19.9601 10.0001 19.9601C14.1273 19.9601 15.8534 18.5928 16.1112 16.8651C16.3395 15.3345 17.2223 12.1528 17.2223 12.1528H2.77783Z" fill="#BBDDF5"/>
<path d="M2.82996 12.2051C2.96884 12.8823 3.21551 13.3129 3.57662 13.0906C3.93773 12.8684 4.49329 12.9834 4.32329 13.4379C4.16718 13.8545 4.86162 14.0456 5.15662 13.8023C5.4394 13.5695 6.02051 13.3129 6.07662 13.8367C6.12884 14.3229 6.72551 14.4534 6.99662 14.0973C7.2744 13.7329 8.03829 13.8784 8.17718 14.3229C8.31607 14.7673 9.06273 14.7051 9.27107 14.3923C9.46829 14.0962 9.66718 13.9006 9.99996 13.9006V13.889C10.3333 13.889 10.5316 14.0962 10.7288 14.3923C10.9372 14.7045 11.6838 14.7673 11.8227 14.3229C11.9616 13.8784 12.7255 13.7329 13.0033 14.0973C13.275 14.4534 13.8711 14.3229 13.9233 13.8367C13.9794 13.3129 14.5605 13.569 14.8433 13.8023C15.1383 14.0456 15.8327 13.8545 15.6766 13.4379C15.5061 12.9834 16.0622 12.8684 16.4233 13.0906C16.7844 13.3129 17.0311 12.8823 17.17 12.2051H2.82996Z" fill="#662113"/>
<path d="M18.3333 10.5384C18.3333 7.80558 14.5939 5.59058 9.98167 5.59058C5.36889 5.59058 1.63 7.80558 1.63 10.5384C1.63 12.7434 6.63 13.8889 9.98167 13.8889C13.3333 13.8889 18.3333 12.7778 18.3333 10.5384Z" fill="#C1694F"/>
<path d="M10 19.7222C9.84668 19.7222 9.72223 19.5978 9.72223 19.4445V14.6411C9.72223 14.4878 9.84668 14.3633 10 14.3633C10.1533 14.3633 10.2778 14.4878 10.2778 14.6411V19.4445C10.2778 19.5978 10.1533 19.7222 10 19.7222ZM6.27834 19.0178C6.14057 19.0178 6.02112 18.9156 6.00279 18.7756L5.43001 14.3411C5.41057 14.1889 5.51779 14.0495 5.67001 14.0295C5.82112 14.0067 5.96112 14.1172 5.98112 14.2694L6.5539 18.7039C6.57334 18.8561 6.46612 18.9956 6.3139 19.0156C6.30223 19.0172 6.29001 19.0178 6.27834 19.0178ZM8.04445 19.56C7.90168 19.56 7.78001 19.4506 7.76779 19.305L7.37445 14.5711C7.36168 14.4189 7.47557 14.2839 7.62834 14.2717C7.78556 14.2594 7.91557 14.3728 7.92834 14.5256L8.32168 19.2595C8.33445 19.4117 8.22057 19.5467 8.06779 19.5589L8.04445 19.56ZM4.7339 17.8706C4.63668 17.8706 4.55001 17.8022 4.53001 17.7033L3.69668 13.5711C3.6739 13.4583 3.74668 13.3489 3.85945 13.3261C3.96945 13.2994 4.08168 13.3761 4.10501 13.4889L4.93834 17.6211C4.96112 17.7339 4.88834 17.8433 4.77557 17.8661C4.76112 17.8695 4.74723 17.8706 4.7339 17.8706ZM13.6783 18.955C13.665 18.955 13.6517 18.9539 13.6383 18.9522C13.4867 18.9306 13.3811 18.7895 13.4028 18.6378L14.0306 14.2661C14.0522 14.1139 14.195 14.0128 14.345 14.0306C14.4967 14.0522 14.6022 14.1933 14.5806 14.345L13.9528 18.7167C13.9328 18.855 13.8139 18.955 13.6783 18.955ZM11.9883 19.56L11.965 19.5589C11.8122 19.5467 11.6983 19.4117 11.7111 19.2595L12.1045 14.5256C12.1167 14.3722 12.2667 14.2622 12.4039 14.2717C12.5567 14.2839 12.6706 14.4189 12.6578 14.5711L12.2645 19.305C12.2528 19.4506 12.1311 19.56 11.9883 19.56ZM15.3122 17.8933C15.2995 17.8933 15.2861 17.8922 15.2733 17.8895C15.16 17.8678 15.0861 17.7589 15.1078 17.6461L15.9067 13.4911C15.9283 13.3783 16.0406 13.3039 16.15 13.3256C16.2633 13.3472 16.3372 13.4561 16.3156 13.5689L15.5167 17.7239C15.4978 17.8239 15.4106 17.8933 15.3122 17.8933Z" fill="#88C9F9"/>
<path d="M9.39551 -0.00610352C9.39551 -0.00610352 9.9994 0.629452 10.6038 0.64223C11.8638 0.669452 13.0233 1.37279 13.0233 2.59001C13.0233 2.59001 15.9461 2.59001 16.0472 5.18667C16.0472 5.18667 17.5222 5.21167 17.8599 7.78223C18.1122 9.70223 16.1722 12.3528 9.99995 12.3256C4.55828 12.3017 1.7744 10.3678 2.13995 7.78334C2.49217 5.29445 4.55884 5.18723 4.55884 5.18723C4.55884 5.18723 4.20551 1.94112 8.18606 1.94167C8.18606 1.94167 8.5894 0.643341 9.39551 -0.00610352Z" fill="#FFE8B6"/>
<path d="M9.95005 5.83547C11.5812 5.21991 13.0739 4.10491 13.0239 2.59047C13.0239 2.1138 12.8423 1.71936 12.5506 1.40991C12.9078 2.96991 10.5223 4.74325 7.8845 5.02436C4.58394 5.37602 4.96172 3.4288 4.96172 3.4288L4.95783 3.43269C4.46728 4.28602 4.5595 5.18769 4.5595 5.18769C5.06228 6.51158 7.65728 6.70102 9.95005 5.83547Z" fill="#FFCC4D"/>
<path d="M16.0472 5.18734C16.0439 5.1079 16.0306 5.03845 16.0222 4.96401C15.9578 4.5879 15.7706 4.12734 15.5922 3.77623C15.4867 3.62901 15.37 3.49901 15.2422 3.38623C15.8583 5.84512 12.1517 8.80234 8.61444 9.48734C4.00389 10.3796 2.14 7.78456 2.14 7.78456C1.95 9.12623 2.61666 10.2896 4.05611 11.1046C9.73777 13.4207 16.0967 7.71845 16.0472 5.18734Z" fill="#FFCC4D"/>
<path d="M4.82718 7.88933L4.17107 8.78599C3.99051 9.03266 3.64107 9.08655 3.3944 8.90599C3.14774 8.72544 3.09385 8.37599 3.2744 8.12933L3.93051 7.23266C4.11107 6.98599 4.46051 6.9321 4.70718 7.11266C4.95385 7.29322 5.00774 7.64266 4.82718 7.88933Z" fill="#DD2E44"/>
<path d="M8.29727 4.54838L7.2106 4.3156C6.91171 4.25171 6.71949 3.95449 6.78393 3.65616C6.84782 3.35727 7.14505 3.16505 7.44338 3.22949L8.53005 3.46227C8.82893 3.52616 9.02116 3.82338 8.95671 4.12171C8.89282 4.4206 8.59616 4.61282 8.29727 4.54838Z" fill="#55ACEE"/>
<path d="M9.1283 7.87383L9.85775 8.71217C10.0583 8.94272 10.0339 9.2955 9.8033 9.49606C9.57275 9.69661 9.21997 9.67217 9.01942 9.44161L8.28997 8.60328C8.08942 8.37272 8.11386 8.01995 8.34442 7.81939C8.57497 7.61883 8.92775 7.64328 9.1283 7.87383Z" fill="#77B255"/>
<path d="M13.54 6.38824L12.5006 6.78102C12.2145 6.8888 11.8922 6.74324 11.7845 6.45769C11.6767 6.17158 11.8222 5.84935 12.1078 5.74158L13.1472 5.3488C13.4334 5.24102 13.7556 5.38658 13.8634 5.67213C13.9717 5.95769 13.8261 6.27991 13.54 6.38824Z" fill="#F4900C"/>
<path d="M16.8699 7.806L16.3144 8.76822C16.1616 9.03267 15.8199 9.12433 15.5555 8.97156C15.2911 8.81878 15.1994 8.47711 15.3522 8.21267L15.9077 7.25044C16.0605 6.986 16.4022 6.89433 16.6666 7.04711C16.9311 7.19989 17.0227 7.541 16.8699 7.806Z" fill="#AA8DD8"/>
</g>
<defs>
<clipPath id="clip0_11760_112184">
<rect width="20" height="20" fill="white"/>
</clipPath>
</defs>
</svg>
