<svg width="20" height="20" viewBox="0 0 20 20" fill="none" xmlns="http://www.w3.org/2000/svg">
<g clip-path="url(#clip0_11760_112213)">
<path d="M17.5211 11.9844C18.0367 12.5622 18.3333 13.206 18.3333 13.8888C18.3333 16.3433 14.6028 18.3333 9.99999 18.3333C5.39776 18.3333 1.66665 16.3433 1.66665 13.8888C1.66665 13.206 1.96388 12.5622 2.47888 11.9844C1.27721 12.8233 0.555542 13.866 0.555542 14.9999C0.555542 17.7616 4.78388 19.9999 9.99999 19.9999C15.2161 19.9999 19.4444 17.7616 19.4444 14.9999C19.4444 13.866 18.7228 12.8233 17.5211 11.9844Z" fill="#DD2E44"/>
<path d="M5.00053 15.2779C4.69497 15.2779 4.40053 15.109 4.25442 14.8173C4.04886 14.4056 4.21553 13.9051 4.6272 13.699C4.69386 13.6645 6.38886 12.759 6.38886 10.5556C6.38886 9.37398 5.7422 8.53675 5.05775 7.65064C4.34664 6.73009 3.61108 5.77787 3.61108 4.44453C3.61108 1.9062 4.91108 0.57731 4.96608 0.521755C5.29164 0.196199 5.81886 0.196199 6.14442 0.521755C6.46831 0.845088 6.46997 1.36842 6.15053 1.69398C6.10331 1.74453 5.27775 2.64564 5.27775 4.44453C5.27775 5.20898 5.78719 5.86898 6.37664 6.63231C7.12497 7.60009 8.05553 8.80509 8.05553 10.5556C8.05553 13.8106 5.48219 15.1351 5.37275 15.1901C5.25331 15.2495 5.12608 15.2779 5.00053 15.2779Z" fill="#DD2E44"/>
<path d="M8.88944 15.2779C8.58389 15.2779 8.28944 15.109 8.14333 14.8173C7.93778 14.4056 8.10444 13.9051 8.51611 13.699C8.58278 13.6645 10.2778 12.759 10.2778 10.5556C10.2778 9.37398 9.63111 8.53675 8.94667 7.65064C8.23556 6.73009 7.5 5.77787 7.5 4.44453C7.5 1.9062 8.8 0.57731 8.855 0.521755C9.18056 0.196199 9.70778 0.196199 10.0333 0.521755C10.3572 0.845088 10.3589 1.36842 10.0394 1.69398C9.99222 1.74453 9.16667 2.64564 9.16667 4.44453C9.16667 5.20898 9.67611 5.86898 10.2656 6.63231C11.0133 7.60009 11.9444 8.80509 11.9444 10.5556C11.9444 13.8106 9.37111 15.1351 9.26167 15.1901C9.14222 15.2495 9.015 15.2779 8.88944 15.2779Z" fill="#DD2E44"/>
<path d="M12.7784 15.2779C12.4728 15.2779 12.1784 15.109 12.0322 14.8173C11.8267 14.4056 11.9934 13.9051 12.405 13.699C12.4717 13.6645 14.1667 12.759 14.1667 10.5556C14.1667 9.37398 13.52 8.53675 12.8356 7.65064C12.1245 6.73009 11.3889 5.77787 11.3889 4.44453C11.3889 1.9062 12.6889 0.57731 12.7445 0.521755C13.07 0.196199 13.5972 0.196199 13.9228 0.521755C14.2461 0.845088 14.2484 1.36842 13.9289 1.69398C13.8811 1.74453 13.0556 2.64564 13.0556 4.44453C13.0556 5.20898 13.565 5.86898 14.155 6.63231C14.9022 7.60009 15.8334 8.80509 15.8334 10.5556C15.8334 13.8106 13.26 15.1351 13.1506 15.1901C13.0306 15.2495 12.9039 15.2779 12.7784 15.2779Z" fill="#DD2E44"/>
</g>
<defs>
<clipPath id="clip0_11760_112213">
<rect width="20" height="20" fill="white"/>
</clipPath>
</defs>
</svg>
