<svg width="20" height="20" viewBox="0 0 20 20" fill="none" xmlns="http://www.w3.org/2000/svg">
<path d="M20 15.0001C20 16.2273 19.005 17.2223 17.7778 17.2223H2.22222C0.995 17.2223 0 16.2273 0 15.0001V5.00005C0 3.77283 0.995 2.77783 2.22222 2.77783H17.7778C19.005 2.77783 20 3.77283 20 5.00005V15.0001Z" fill="#CCD6DD"/>
<path d="M6.63889 9.79768L0.35389 16.0827C0.33889 16.0982 0.333334 16.1177 0.320557 16.1332C0.509446 16.4499 0.772779 16.7127 1.08945 16.9021C1.10556 16.8893 1.12445 16.8838 1.13945 16.8688L7.425 10.5832C7.64167 10.366 7.64167 10.0149 7.425 9.79768C7.20722 9.58046 6.85611 9.58046 6.63889 9.79768ZM19.6794 16.1332C19.6678 16.1177 19.6611 16.0982 19.6461 16.0832L13.3617 9.79768C13.1439 9.58046 12.7928 9.58046 12.5756 9.79768C12.3583 10.0149 12.3583 10.366 12.5756 10.5832L18.8606 16.8688C18.875 16.8832 18.895 16.8893 18.9106 16.9021C19.2278 16.7132 19.4906 16.4499 19.6794 16.1332Z" fill="#99AAB5"/>
<path d="M17.7778 2.77783H2.22222C0.995 2.77783 0 3.77283 0 5.00005V5.57228L8.07111 13.6256C9.12333 14.6773 10.8422 14.6773 11.8956 13.6256L20 5.56061V5.00005C20 3.77283 19.005 2.77783 17.7778 2.77783Z" fill="#99AAB5"/>
<path d="M17.7778 2.77783H2.2222C1.33998 2.77783 0.583864 3.29672 0.224976 4.04172L8.42831 12.2456C9.29609 13.1134 10.7039 13.1134 11.5711 12.2456L19.775 4.04172C19.4161 3.29672 18.6605 2.77783 17.7778 2.77783Z" fill="#E1E8ED"/>
<path d="M8.33337 5.14989C8.33337 4.74434 8.53615 4.44434 8.88893 4.44434H10.9C11.3662 4.44434 11.5523 4.71656 11.5523 4.99989C11.5523 5.27545 11.3584 5.55545 10.9773 5.55545H9.47282V6.66656H10.88C11.2778 6.66656 11.4717 6.93822 11.4717 7.22211C11.4717 7.49767 11.2684 7.77767 10.88 7.77767H9.47282V8.88878H11.0506C11.4389 8.88878 11.6267 9.16045 11.6267 9.44434C11.6267 9.71989 11.4306 9.99989 11.0506 9.99989H8.95837C8.60115 9.99989 8.33337 9.70489 8.33337 9.33989V5.14989Z" fill="#66757F"/>
</svg>
