<svg width="20" height="20" viewBox="0 0 20 20" fill="none" xmlns="http://www.w3.org/2000/svg">
<g clip-path="url(#clip0_11760_112206)">
<path d="M1.11111 6.11108C0 6.11108 0 7.2222 0 7.2222V18.8889C0 18.8889 0 20 1.11111 20H18.8889C20 20 20 18.8889 20 18.8889V7.2222C20 7.2222 20 6.11108 18.8889 6.11108H1.11111Z" fill="#5C913B"/>
<path d="M1.11111 3.33325C0 3.33325 0 4.44436 0 4.44436V15.5555C0 15.5555 0 16.6666 1.11111 16.6666H18.8889C20 16.6666 20 15.5555 20 15.5555V4.44436C20 4.44436 20 3.33325 18.8889 3.33325H1.11111Z" fill="#A7D28B"/>
<path d="M13.8889 13.6111C15.8833 13.6111 17.5001 11.9944 17.5001 10C17.5001 8.00567 15.8833 6.38892 13.8889 6.38892C11.8946 6.38892 10.2778 8.00567 10.2778 10C10.2778 11.9944 11.8946 13.6111 13.8889 13.6111Z" fill="#77B255"/>
<path d="M18.3334 15.8334H1.66671C1.20726 15.8334 0.833374 15.4595 0.833374 15.0001V5.00008C0.833374 4.54064 1.20726 4.16675 1.66671 4.16675H18.3334C18.7928 4.16675 19.1667 4.54064 19.1667 5.00008V15.0001C19.1667 15.4595 18.7928 15.8334 18.3334 15.8334ZM1.66671 4.7223C1.51393 4.7223 1.38893 4.84675 1.38893 5.00008V15.0001C1.38893 15.1529 1.51393 15.2779 1.66671 15.2779H18.3334C18.4862 15.2779 18.6112 15.1529 18.6112 15.0001V5.00008C18.6112 4.84675 18.4862 4.7223 18.3334 4.7223H1.66671Z" fill="#5C913B"/>
<path d="M7.77783 3.33325H12.2223V16.701H7.77783V3.33325Z" fill="#FFE8B6"/>
<path d="M7.77783 16.6667H12.2223V20.0001H7.77783V16.6667Z" fill="#FFAC33"/>
<path d="M6.56109 11.1238C6.56109 9.46881 3.50943 9.57659 3.50943 8.57715C3.50943 8.09326 3.9722 7.85714 4.50887 7.85714C5.41165 7.85714 5.5722 8.43715 5.98109 8.43715C6.27054 8.43715 6.40998 8.25492 6.40998 8.05048C6.40998 7.57492 5.68998 7.21603 4.99943 7.09159V6.63326C4.99943 6.34714 4.76776 6.11548 4.48165 6.11548C4.19554 6.11548 3.96387 6.3477 3.96387 6.63326V7.10715C3.21165 7.27937 2.56331 7.80159 2.56331 8.65215C2.56331 10.2421 5.61498 10.1777 5.61498 11.2955C5.61498 11.6816 5.19609 12.0683 4.50831 12.0683C3.47665 12.0683 3.13276 11.3699 2.71443 11.3699C2.50998 11.3699 2.32776 11.5416 2.32776 11.8005C2.32776 12.2121 3.01665 12.7066 3.96498 12.8455L3.96443 12.8477V13.3666C3.96443 13.6521 4.19665 13.8844 4.48276 13.8844C4.76831 13.8838 4.99998 13.6516 4.99998 13.3666V12.8477C4.99998 12.8421 4.9972 12.8371 4.99665 12.8321C5.84943 12.6727 6.56109 12.1177 6.56109 11.1238Z" fill="#5C913B"/>
</g>
<defs>
<clipPath id="clip0_11760_112206">
<rect width="20" height="20" fill="white"/>
</clipPath>
</defs>
</svg>
