<svg width="20" height="20" viewBox="0 0 20 20" fill="none" xmlns="http://www.w3.org/2000/svg">
<g clip-path="url(#clip0_11760_112209)">
<path d="M15.5556 17.7778C15.5556 19.005 14.5606 20 13.3333 20H2.22222C0.995 20 0 18.9583 0 15.5556V2.22222C0 0.995 0.995 0 2.22222 0H13.3333C14.5606 0 15.5556 0.995 15.5556 2.22222V17.7778Z" fill="#CCD6DD"/>
<path d="M17.2222 19.9999H2.22217C4.44439 19.9999 4.44439 15.5555 4.44439 15.5555C4.44439 14.3283 5.43939 13.3333 6.66661 13.3333H17.7777C19.0049 13.3333 19.9999 14.4444 19.9999 15.5555C19.9999 15.5555 20.1388 19.9999 17.2222 19.9999Z" fill="#E1E8ED"/>
<path d="M13.3333 3.88881C13.3333 4.19547 13.0849 4.44436 12.7777 4.44436H2.77772C2.47106 4.44436 2.22217 4.19547 2.22217 3.88881C2.22217 3.58214 2.47106 3.33325 2.77772 3.33325H12.7777C13.0849 3.33325 13.3333 3.58214 13.3333 3.88881ZM13.3333 6.11103C13.3333 6.4177 13.0849 6.66658 12.7777 6.66658H2.77772C2.47106 6.66658 2.22217 6.4177 2.22217 6.11103C2.22217 5.80436 2.47106 5.55547 2.77772 5.55547H12.7777C13.0849 5.55547 13.3333 5.80436 13.3333 6.11103ZM13.3333 8.33325C13.3333 8.63992 13.0849 8.88881 12.7777 8.88881H2.77772C2.47106 8.88881 2.22217 8.63992 2.22217 8.33325C2.22217 8.02659 2.47106 7.7777 2.77772 7.7777H12.7777C13.0849 7.7777 13.3333 8.02659 13.3333 8.33325ZM13.3333 10.5555C13.3333 10.8627 13.0849 11.111 12.7777 11.111H2.77772C2.47106 11.111 2.22217 10.8627 2.22217 10.5555C2.22217 10.2483 2.47106 9.99992 2.77772 9.99992H12.7777C13.0849 9.99992 13.3333 10.2483 13.3333 10.5555Z" fill="#99AAB5"/>
</g>
<defs>
<clipPath id="clip0_11760_112209">
<rect width="20" height="20" fill="white"/>
</clipPath>
</defs>
</svg>
