<svg width="20" height="20" viewBox="0 0 20 20" fill="none" xmlns="http://www.w3.org/2000/svg">
<g clip-path="url(#clip0_11760_112160)">
<path d="M19.4444 10C19.4444 6.11005 18.3333 2.77782 15.5556 1.11116C12.7778 -0.555509 10 0.675603 10 0.675603V0.694492L9.99944 0.675603C9.99944 0.675603 7.22222 -0.555509 4.44444 1.11116C1.66667 2.77782 0.555556 6.11005 0.555556 10C0.555556 13.8906 0 20 0 20H20C20 20 19.4444 13.89 19.4444 10Z" fill="#E6E7E8"/>
<path d="M14.4444 15.5557H5.5555C3.71495 15.5557 2.22217 17.0479 2.22217 18.889V20.0001H17.7777V18.889C17.7777 17.0479 16.2861 15.5557 14.4444 15.5557Z" fill="white"/>
<path d="M7.57783 15.6144C7.57783 16.1111 8.88894 16.7216 10 16.7216C11.1112 16.7216 12.4217 16.1111 12.4217 15.6149V13.4944H7.57727V15.6144H7.57783Z" fill="#FFDC5D"/>
<path d="M7.57331 14.4294C8.24887 15.1928 9.08664 15.3994 9.99775 15.3994C10.9083 15.3994 11.7455 15.1922 12.4216 14.4294V12.49H7.57275V14.4294H7.57331Z" fill="#F9CA55"/>
<path d="M11.7511 1.83334C10.6817 1.48723 8.48666 1.57778 7.85777 2.39556C6.22222 2.42723 4.47833 4.02445 4.22666 5.97501C3.97777 7.90556 4.35722 8.68278 4.55499 10.1339C4.77888 11.7783 5.70333 12.3045 6.44222 12.5245C7.50555 13.9295 8.6361 13.8695 10.5344 13.8695C14.2411 13.8695 15.685 11.3928 15.8411 7.18056C15.935 4.63334 14.44 2.70334 11.7511 1.83334Z" fill="#FFAC33"/>
<path d="M14.1928 7.35787C13.8339 6.86121 13.375 6.46121 12.3683 6.32009C12.7461 6.49287 13.1078 7.09065 13.155 7.42121C13.2022 7.75176 13.2495 8.01898 12.9506 7.68843C11.7533 6.36509 10.4495 6.88621 9.15779 6.07787C8.25556 5.51343 7.98056 4.88843 7.98056 4.88843C7.98056 4.88843 7.87056 5.72176 6.50223 6.57121C6.10557 6.81732 5.63223 7.36565 5.37001 8.17565C5.18112 8.75787 5.24001 9.27676 5.24001 10.1634C5.24001 12.7523 7.3739 14.929 10.0056 14.929C12.6372 14.929 14.7711 12.7329 14.7711 10.1634C14.77 8.55287 14.6017 7.92398 14.1928 7.35787Z" fill="#FFDC5D"/>
<path d="M10.0744 13.6984C8.5444 13.6984 8.0744 13.3067 7.99607 13.2273C7.85385 13.0851 7.85385 12.8545 7.99607 12.7123C8.13385 12.5745 8.35496 12.5706 8.49718 12.6995C8.52607 12.7201 8.89774 12.9701 10.0744 12.9701C11.2966 12.9701 11.65 12.7006 11.6533 12.6978C11.7955 12.5562 12.0183 12.5628 12.1605 12.7062C12.3027 12.8484 12.295 13.0856 12.1527 13.2278C12.0738 13.3067 11.6044 13.6984 10.0744 13.6984ZM10.5338 11.4873H9.47496C9.32885 11.4873 9.20996 11.3689 9.20996 11.2223C9.20996 11.0756 9.32829 10.9573 9.47496 10.9573H10.5338C10.68 10.9573 10.7988 11.0756 10.7988 11.2223C10.7988 11.3689 10.6805 11.4873 10.5338 11.4873Z" fill="#C1694F"/>
<path d="M7.88613 9.63399C7.59391 9.63399 7.35669 9.39676 7.35669 9.10454V8.5751C7.35669 8.28288 7.59391 8.04565 7.88613 8.04565C8.17836 8.04565 8.41558 8.28288 8.41558 8.5751V9.10454C8.41558 9.39676 8.17891 9.63399 7.88613 9.63399ZM12.1228 9.63399C11.8306 9.63399 11.5934 9.39676 11.5934 9.10454V8.5751C11.5934 8.28288 11.8306 8.04565 12.1228 8.04565C12.415 8.04565 12.6522 8.28288 12.6522 8.5751V9.10454C12.6522 9.39676 12.415 9.63399 12.1228 9.63399Z" fill="#662113"/>
<path d="M5.47058 3.52058C6.58891 3.74558 8.19947 3.88891 10 3.88891C11.8028 3.88891 13.4156 3.74558 14.5345 3.52002C14.2239 3.18614 13.8595 2.88614 13.4467 2.6228C12.55 2.7178 11.3417 2.7778 10 2.7778C8.76114 2.7778 7.63003 2.72725 6.7578 2.64447C6.29447 2.83891 5.85336 3.13947 5.47058 3.52058Z" fill="white"/>
</g>
<defs>
<clipPath id="clip0_11760_112160">
<rect width="20" height="20" fill="white"/>
</clipPath>
</defs>
</svg>
