<svg width="20" height="20" viewBox="0 0 20 20" fill="none" xmlns="http://www.w3.org/2000/svg">
<g clip-path="url(#clip0_11760_112154)">
<path d="M20 10C20 15.5228 15.5228 20 10 20C4.47722 20 0 15.5228 0 10C0 4.47722 4.47722 0 10 0C15.5228 0 20 4.47722 20 10Z" fill="#FFCC4D"/>
<path d="M10 11.6667C7.98725 11.6667 6.65169 11.4323 5.00003 11.1111C4.6228 11.0384 3.88892 11.1111 3.88892 12.2223C3.88892 14.4445 6.44169 17.2222 10 17.2222C13.5578 17.2222 16.1111 14.4445 16.1111 12.2223C16.1111 11.1111 15.3772 11.0378 15 11.1111C13.3484 11.4323 12.0128 11.6667 10 11.6667Z" fill="#664500"/>
<path d="M5 12.2222C5 12.2222 6.66667 12.7777 10 12.7777C13.3333 12.7777 15 12.2222 15 12.2222C15 12.2222 13.8889 14.4444 10 14.4444C6.11111 14.4444 5 12.2222 5 12.2222Z" fill="white"/>
<path d="M8.71222 2.45168L6.18889 2.89668L4.88889 0.533905C4.74555 0.27335 4.45111 0.133905 4.16 0.185016C3.86722 0.236683 3.63944 0.468905 3.59389 0.762239L3.18 3.42724L0.656663 3.87224C0.359441 3.92446 0.129997 4.16391 0.089441 4.46335C0.0488854 4.76279 0.206663 5.05391 0.479997 5.18391L2.74111 6.25724L2.32555 8.93057C2.27944 9.22835 2.43055 9.52168 2.69944 9.65779C2.79889 9.70779 2.90555 9.73168 3.01166 9.73168C3.19333 9.73168 3.37277 9.66057 3.50666 9.52502L5.45777 7.54668L7.96777 8.73835C8.24 8.86724 8.56444 8.80668 8.77111 8.58724C8.97777 8.36779 9.01888 8.04057 8.87388 7.77668L7.56944 5.40557L9.32778 3.62335C9.54 3.40835 9.58833 3.08057 9.44833 2.81279C9.30722 2.54502 9.00777 2.40002 8.71222 2.45168ZM11.2878 2.45168L13.8111 2.89668L15.1111 0.533905C15.2544 0.27335 15.5489 0.133905 15.84 0.185016C16.1322 0.236683 16.36 0.468905 16.4056 0.762239L16.8194 3.42724L19.3428 3.87224C19.6406 3.92446 19.87 4.16335 19.91 4.46279C19.95 4.76224 19.7928 5.05335 19.5194 5.18335L17.2583 6.25668L17.6739 8.93002C17.72 9.22779 17.5689 9.52113 17.3 9.65724C17.2006 9.70724 17.0939 9.73113 16.9878 9.73113C16.8061 9.73113 16.6267 9.66002 16.4928 9.52446L14.5417 7.54613L12.0317 8.73779C11.7594 8.86668 11.435 8.80613 11.2283 8.58668C11.0217 8.36724 10.9806 8.04002 11.1256 7.77613L12.43 5.40557L10.6717 3.62335C10.4594 3.40835 10.4111 3.08057 10.5511 2.81279C10.6928 2.54502 10.9922 2.40002 11.2878 2.45168Z" fill="#E95F28"/>
</g>
<defs>
<clipPath id="clip0_11760_112154">
<rect width="20" height="20" fill="white"/>
</clipPath>
</defs>
</svg>
