<svg width="20" height="20" viewBox="0 0 20 20" fill="none" xmlns="http://www.w3.org/2000/svg">
<g clip-path="url(#clip0_11760_112175)">
<path d="M16.0361 3.96339C20.1255 8.05172 21.2305 13.5767 18.5044 16.3017C15.7783 19.0278 10.2544 17.9228 6.16554 13.8345C6.02665 13.6956 5.89998 13.5512 5.76776 13.4089L8.22165 10.9551C11.4016 14.1351 15.4528 15.2406 17.2694 13.4228C19.0866 11.6056 17.9816 7.5545 14.8022 4.3745L14.8144 4.38617L14.8028 4.37394C11.1689 0.739498 6.19665 -0.181057 3.69832 2.31728C2.48998 3.52561 2.08887 5.31339 2.39943 7.24672C1.92276 4.97839 2.31609 2.87672 3.69832 1.49505C6.42387 -1.2305 11.9478 -0.125502 16.0361 3.96339Z" fill="#FDD888"/>
<path d="M10.7795 18.8888C10.6395 18.8888 10.5 18.846 10.38 18.7605L7.56002 16.7377L4.74002 18.7605C4.49947 18.9327 4.17725 18.9327 3.93836 18.7577C3.69947 18.5844 3.59891 18.2777 3.68836 17.9971L4.74058 14.6027L1.94558 12.6332C1.7078 12.4582 1.60947 12.1505 1.70002 11.8693C1.79169 11.5893 2.05225 11.3988 2.34725 11.3966L5.76225 11.3899L6.91058 8.08046C7.00391 7.80046 7.26558 7.61157 7.56058 7.61157C7.85558 7.61157 8.11725 7.80046 8.21058 8.08046L9.24725 11.3899L12.7734 11.3966C13.0689 11.3988 13.33 11.5893 13.4206 11.8693C13.5117 12.1505 13.4128 12.4582 13.175 12.6332L10.38 14.6027L11.4317 17.9971C11.5217 18.2777 11.42 18.5849 11.1822 18.7577C11.0617 18.8455 10.9206 18.8888 10.7795 18.8888Z" fill="#FFAC33"/>
</g>
<defs>
<clipPath id="clip0_11760_112175">
<rect width="20" height="20" fill="white"/>
</clipPath>
</defs>
</svg>
