<svg width="20" height="20" viewBox="0 0 20 20" fill="none" xmlns="http://www.w3.org/2000/svg">
<g clip-path="url(#clip0_11760_112183)">
<path d="M17.2222 3.17676H13.8889V5.39898H16.1111C16.1111 5.39898 17.2222 5.39898 17.2222 6.51009V13.1768C17.2222 14.2879 16.1111 14.2879 16.1111 14.2879H13.8889V16.5101H17.2222C18.4478 16.5101 19.4445 15.5134 19.4445 14.2879V5.39898C19.4445 4.17342 18.4478 3.17676 17.2222 3.17676Z" fill="#FFAC33"/>
<path d="M15 3.33325H1.66663V17.7777C1.66663 19.0049 2.66163 19.9999 3.88885 19.9999H12.7777C14.005 19.9999 15 19.0049 15 17.7777V3.33325Z" fill="#FFCC4D"/>
<path d="M4.72218 17.7778C4.41551 17.7778 4.16663 17.5295 4.16663 17.2223V8.33339C4.16663 8.02672 4.41551 7.77783 4.72218 7.77783C5.02885 7.77783 5.27774 8.02672 5.27774 8.33339V17.2223C5.27774 17.5295 5.02885 17.7778 4.72218 17.7778ZM8.33329 17.7778C8.02663 17.7778 7.77774 17.5295 7.77774 17.2223V8.33339C7.77774 8.02672 8.02663 7.77783 8.33329 7.77783C8.63996 7.77783 8.88885 8.02672 8.88885 8.33339V17.2223C8.88885 17.5295 8.63996 17.7778 8.33329 17.7778ZM11.9444 17.7778C11.6372 17.7778 11.3888 17.5295 11.3888 17.2223V8.33339C11.3888 8.02672 11.6372 7.77783 11.9444 7.77783C12.2516 7.77783 12.5 8.02672 12.5 8.33339V17.2223C12.5 17.5295 12.2516 17.7778 11.9444 17.7778Z" fill="#F4900C"/>
<path d="M1.66663 2.77783V6.91394C1.9944 7.10505 2.37107 7.22228 2.77774 7.22228C3.70774 7.22228 4.50218 6.6495 4.83385 5.83839C5.02829 6.00617 5.27885 6.11117 5.55551 6.11117C5.93163 6.11117 6.26274 5.92339 6.46385 5.63728C6.85829 6.2545 7.54607 6.66672 8.33329 6.66672C9.05607 6.66672 9.69163 6.31617 10.0977 5.78172C10.3 6.29894 10.8 6.66672 11.3888 6.66672C11.9161 6.66672 12.3694 6.3695 12.6044 5.93672L12.6861 5.73617C12.9622 5.88672 13.2744 5.98005 13.6111 5.98005C14.1561 5.98005 14.6472 5.7545 15 5.39339V2.77783H1.66663Z" fill="#FFAC33"/>
<path d="M13.3333 0H2.22221C1.30165 0 0.555542 0.746111 0.555542 1.66667V3.88889C0.555542 5.11611 1.55054 6.11111 2.77776 6.11111C3.70776 6.11111 4.50221 5.53833 4.83388 4.72722C5.02832 4.895 5.27888 5 5.55554 5C5.93165 5 6.26276 4.81222 6.46388 4.52611C6.85832 5.14333 7.5461 5.55556 8.33332 5.55556C9.0561 5.55556 9.69165 5.205 10.0978 4.67056C10.3 5.18778 10.8 5.55556 11.3889 5.55556C11.9161 5.55556 12.3694 5.25833 12.6044 4.82556C12.8255 4.93389 13.0705 5 13.3333 5C14.2539 5 15 4.25389 15 3.33333V1.66667C15 0.746111 14.2539 0 13.3333 0Z" fill="#EEEEEE"/>
</g>
<defs>
<clipPath id="clip0_11760_112183">
<rect width="20" height="20" fill="white"/>
</clipPath>
</defs>
</svg>
