<svg width="20" height="20" viewBox="0 0 20 20" fill="none" xmlns="http://www.w3.org/2000/svg">
<path d="M8.33337 15V18.3333C8.33337 18.3333 8.33337 20 10 20C11.6667 20 11.6667 18.3333 11.6667 18.3333V15H8.33337Z" fill="#DD2E44"/>
<path d="M8.33337 18.3333L8.33393 18.3539C8.91226 18.3344 9.45393 18.2017 9.79615 17.6394C9.89115 17.4833 10.1089 17.4833 10.2045 17.6394C10.5467 18.2011 11.0884 18.3344 11.6667 18.3539V15H8.33337V18.3333Z" fill="#BE1931"/>
<path d="M17.7522 12.0106C17.7522 15.4973 14.9744 15.4973 14.9744 15.4973H4.97443C4.97443 15.4973 2.19666 15.4973 2.19666 12.0106C2.19666 8.27508 4.97443 1.66675 9.97443 1.66675C14.9744 1.66675 17.7522 8.83064 17.7522 12.0106Z" fill="#D99E82"/>
<path d="M10 11.1111C6.11112 11.1111 4.44446 13.0705 4.44446 14.6639C4.44446 16.3511 5.81224 17.7194 7.50001 17.7194C8.39168 17.7194 9.19001 17.3505 9.74946 16.1822C9.85224 15.9678 10.1472 15.9678 10.25 16.1822C10.8095 17.3505 11.6083 17.7194 12.4995 17.7194C14.1872 17.7194 15.555 16.3511 15.555 14.6639C15.5556 13.0705 13.8889 11.1111 10 11.1111Z" fill="#F4C7B5"/>
<path d="M8.33331 12.7194C7.77775 13.2749 9.44442 14.9416 9.99997 14.9416C10.5555 14.9416 12.2222 13.2749 11.6666 12.7194C11.1111 12.1638 8.88886 12.1638 8.33331 12.7194ZM7.2222 10.5555C6.61108 10.5555 6.11108 10.0555 6.11108 9.44439V8.33328C6.11108 7.72217 6.61108 7.22217 7.2222 7.22217C7.83331 7.22217 8.33331 7.72217 8.33331 8.33328V9.44439C8.33331 10.0555 7.83331 10.5555 7.2222 10.5555ZM12.7778 10.5555C12.1666 10.5555 11.6666 10.0555 11.6666 9.44439V8.33328C11.6666 7.72217 12.1666 7.22217 12.7778 7.22217C13.3889 7.22217 13.8889 7.72217 13.8889 8.33328V9.44439C13.8889 10.0555 13.3889 10.5555 12.7778 10.5555Z" fill="#292F33"/>
<path d="M8.33336 2.00445C7.74502 1.22167 6.48947 0.489449 1.57114 2.33334C-0.731087 3.19667 0.393357 9.89112 2.18614 10.325C2.80058 10.325 4.64502 10.325 4.64502 5.40723C4.64502 5.285 4.64391 5.17223 4.64225 5.06C5.75002 3.49889 6.94447 2.69834 8.33336 2.00445ZM18.4289 2.33334C13.5106 0.489449 12.255 1.22167 11.6667 2.00445C13.0556 2.69889 14.25 3.49945 15.3578 5.06056C15.3561 5.17223 15.355 5.28501 15.355 5.40778C15.355 10.3256 17.1989 10.3256 17.8139 10.3256C19.6067 9.89112 20.7311 3.19667 18.4289 2.33334Z" fill="#662113"/>
<path d="M13.0556 14.4445C13.209 14.4445 13.3334 14.3201 13.3334 14.1667C13.3334 14.0133 13.209 13.8889 13.0556 13.8889C12.9022 13.8889 12.7778 14.0133 12.7778 14.1667C12.7778 14.3201 12.9022 14.4445 13.0556 14.4445Z" fill="#D99E82"/>
<path d="M6.38886 14.4445C6.54227 14.4445 6.66664 14.3201 6.66664 14.1667C6.66664 14.0133 6.54227 13.8889 6.38886 13.8889C6.23545 13.8889 6.11108 14.0133 6.11108 14.1667C6.11108 14.3201 6.23545 14.4445 6.38886 14.4445Z" fill="#D99E82"/>
<path d="M14.1667 15.5556C14.3201 15.5556 14.4445 15.4312 14.4445 15.2778C14.4445 15.1244 14.3201 15 14.1667 15C14.0133 15 13.8889 15.1244 13.8889 15.2778C13.8889 15.4312 14.0133 15.5556 14.1667 15.5556Z" fill="#D99E82"/>
<path d="M5.83332 15.5556C5.98673 15.5556 6.1111 15.4312 6.1111 15.2778C6.1111 15.1244 5.98673 15 5.83332 15C5.67991 15 5.55554 15.1244 5.55554 15.2778C5.55554 15.4312 5.67991 15.5556 5.83332 15.5556Z" fill="#D99E82"/>
<path d="M12.7777 16.1111C13.0845 16.1111 13.3333 15.8624 13.3333 15.5556C13.3333 15.2487 13.0845 15 12.7777 15C12.4709 15 12.2222 15.2487 12.2222 15.5556C12.2222 15.8624 12.4709 16.1111 12.7777 16.1111Z" fill="#D99E82"/>
<path d="M7.22218 16.1111C7.52901 16.1111 7.77774 15.8624 7.77774 15.5556C7.77774 15.2487 7.52901 15 7.22218 15C6.91536 15 6.66663 15.2487 6.66663 15.5556C6.66663 15.8624 6.91536 16.1111 7.22218 16.1111Z" fill="#D99E82"/>
<path d="M5.4906 4.01773C5.34671 3.64384 5.13838 3.24162 4.83727 2.9405C4.62004 2.72328 4.26893 2.72328 4.05171 2.9405C3.83449 3.15773 3.83449 3.50884 4.05171 3.72606C4.36838 4.04273 4.64393 4.8005 4.64504 5.02939C4.7256 4.80495 5.11116 4.3905 5.4906 4.01773ZM14.5 4.01773C14.6439 3.64439 14.8523 3.24162 15.1534 2.9405C15.3706 2.72328 15.7217 2.72328 15.9389 2.9405C16.1562 3.15773 16.1562 3.50884 15.9389 3.72606C15.6223 4.04273 15.3467 4.8005 15.3456 5.02939C15.265 4.80495 14.8795 4.3905 14.5 4.01773Z" fill="#380F09"/>
</svg>
