<svg width="20" height="20" viewBox="0 0 20 20" fill="none" xmlns="http://www.w3.org/2000/svg">
<path d="M6.11114 20C6.11114 20 3.88892 20 3.88892 17.7778V2.22222C3.88892 2.22222 3.88892 0 6.11114 0H13.8889C13.8889 0 16.1111 0 16.1111 2.22222V17.7778C16.1111 17.7778 16.1111 20 13.8889 20H6.11114Z" fill="#31373D"/>
<path d="M5 2.77783H15V17.2223H5V2.77783Z" fill="#55ACEE"/>
</svg>
