<svg width="20" height="21" viewBox="0 0 20 21" fill="none" xmlns="http://www.w3.org/2000/svg">
<g clip-path="url(#clip0_11760_112202)">
<path d="M13.1394 13.59L7.05664 7.20312L12.2711 2.64087L17.485 8.11545L13.1394 13.59Z" fill="#BE1931"/>
<path d="M19.2222 8.11545C18.2627 9.12404 16.7066 9.12404 15.7472 8.11545L12.2711 4.46612C11.3105 3.4587 11.3105 1.82362 12.2711 0.815621C13.23 -0.191796 14.7866 -0.191796 15.7472 0.815621L19.2222 4.46612C20.1822 5.47354 20.1822 7.10804 19.2222 8.11545Z" fill="#DD2E44"/>
<path d="M7.77779 10.3967C7.77779 10.3967 -0.329428 20.4336 0.104461 20.8909C0.538906 21.3476 10.0984 12.8333 10.0984 12.8333L7.77779 10.3967Z" fill="#99AAB5"/>
<path d="M14.0083 16.3282C13.0494 17.3368 11.4928 17.3368 10.5317 16.3282L4.44944 9.94068C3.49 8.93268 3.49 7.29935 4.44944 6.29135C5.40944 5.28277 6.96611 5.28277 7.92611 6.29135L14.0083 12.6783C14.9683 13.6868 14.9683 15.3196 14.0083 16.3282Z" fill="#DD2E44"/>
</g>
<defs>
<clipPath id="clip0_11760_112202">
<rect width="20" height="21" fill="white"/>
</clipPath>
</defs>
</svg>
