<svg width="20" height="20" viewBox="0 0 20 20" fill="none" xmlns="http://www.w3.org/2000/svg">
<g clip-path="url(#clip0_11760_112180)">
<path d="M17.9711 7.77729C17.9711 7.77729 19.885 2.88173 18.8883 1.11173C18.5528 0.515621 14.4439 2.22173 12.9311 4.13507C12.9311 4.13507 11.4945 3.65729 10 3.65729C8.50556 3.65729 7.0689 4.13507 7.0689 4.13507C5.55612 2.22173 1.44723 0.515621 1.11168 1.11173C0.115009 2.88173 2.0289 7.77729 2.0289 7.77729C1.53056 8.73395 1.3439 10.1912 1.16501 11.7551C0.968343 13.4695 1.35945 14.8362 1.53057 15.1378C1.72501 15.4806 2.71001 16.5851 4.02168 17.5301C6.01445 18.9651 9.00334 19.444 10 19.444C10.9967 19.444 13.9856 18.9656 15.9783 17.5301C17.29 16.5851 18.275 15.4806 18.4695 15.1378C18.6406 14.8362 19.0317 13.4695 18.8356 11.7551C18.6556 10.1917 18.4695 8.73395 17.9711 7.77729Z" fill="#FFCC4D"/>
<path d="M1.31059 1.65053C1.4217 1.31776 4.2817 2.85776 4.9317 4.65276C4.9317 4.65276 2.81614 6.11053 2.41614 7.22165C2.41614 7.22165 0.755031 3.3172 1.31059 1.65053Z" fill="#F18F26"/>
<path d="M3.32227 4.03394C3.32227 3.24838 6.35393 5.55227 5.79838 6.10783C5.24282 6.66338 5.10115 6.50783 4.5456 7.06338C3.99004 7.61894 3.32227 4.58949 3.32227 4.03394Z" fill="#FFCC4D"/>
<path d="M18.6895 1.65053C18.5784 1.31776 15.7184 2.85776 15.0684 4.65276C15.0684 4.65276 17.1839 6.11053 17.5839 7.22165C17.5839 7.22165 19.245 3.3172 18.6895 1.65053Z" fill="#F18F26"/>
<path d="M16.6778 4.03394C16.6778 3.24838 13.6461 5.55227 14.2017 6.10783C14.7572 6.66338 14.8989 6.50783 15.4544 7.06338C16.01 7.61894 16.6778 4.58949 16.6778 4.03394Z" fill="#FFCC4D"/>
<path d="M7.77837 11.1118C7.77837 11.7257 7.2806 12.2223 6.66726 12.2223C6.05393 12.2223 5.55615 11.7257 5.55615 11.1118C5.55615 10.4984 6.05393 10.0012 6.66726 10.0012C7.2806 10.0012 7.77837 10.499 7.77837 11.1118ZM14.4439 11.1118C14.4439 11.7257 13.9462 12.2223 13.3328 12.2223C12.7189 12.2223 12.2217 11.7257 12.2217 11.1118C12.2217 10.4984 12.7189 10.0012 13.3328 10.0012C13.9467 10.0012 14.4439 10.499 14.4439 11.1118Z" fill="#292F33"/>
<path d="M1.2228 16.9212C1.14058 16.9212 1.05947 16.8851 1.00447 16.8156C0.90947 16.6951 0.930026 16.5206 1.05058 16.4256C1.14058 16.3551 3.28391 14.6923 6.96614 14.9784C7.11891 14.9901 7.23336 15.1234 7.22169 15.2762C7.21003 15.429 7.07891 15.5545 6.92336 15.5318C3.46058 15.2684 1.41503 16.8462 1.39503 16.8623C1.34336 16.9012 1.2828 16.9212 1.2228 16.9212ZM6.14947 14.3306C6.12225 14.3306 6.09391 14.3268 6.06669 14.3184C3.40558 13.4868 1.2128 14.1256 1.19058 14.1318C1.04336 14.1768 0.888915 14.0929 0.84447 13.9456C0.800582 13.7984 0.883915 13.644 1.03058 13.6001C1.12669 13.5712 3.41169 12.9073 6.23169 13.7879C6.37836 13.834 6.46003 13.9895 6.41391 14.1362C6.37725 14.2545 6.2678 14.3306 6.14947 14.3306ZM18.7772 16.9212C18.8595 16.9212 18.9406 16.8851 18.9956 16.8156C19.0906 16.6951 19.07 16.5206 18.9495 16.4256C18.8595 16.3551 16.7161 14.6923 13.0339 14.9784C12.8811 14.9901 12.7667 15.1234 12.7784 15.2762C12.7906 15.429 12.9211 15.5545 13.0767 15.5318C16.5395 15.2684 18.585 16.8462 18.605 16.8623C18.6567 16.9012 18.7172 16.9212 18.7772 16.9212ZM13.8506 14.3306C13.8778 14.3306 13.9061 14.3268 13.9334 14.3184C16.5945 13.4868 18.7872 14.1256 18.8095 14.1318C18.9567 14.1768 19.1111 14.0929 19.1556 13.9456C19.1995 13.7984 19.1161 13.644 18.9695 13.6001C18.8734 13.5712 16.5884 12.9073 13.7684 13.7879C13.6217 13.834 13.54 13.9895 13.5861 14.1362C13.6228 14.2545 13.7322 14.3306 13.8506 14.3306Z" fill="#FEE7B8"/>
<path d="M13.7423 17.1656C13.6884 17.0223 13.5289 16.9479 13.385 17.0023C13.0784 17.1168 12.7873 17.1751 12.5189 17.1751C11.8789 17.1751 11.6517 17.0051 11.3895 16.809C11.1389 16.6212 10.8584 16.4118 10.2839 16.3629V15.0634C10.2839 14.9101 10.1595 14.7856 10.0061 14.7856C9.85282 14.7856 9.72837 14.9101 9.72837 15.0634V16.3818C9.27837 16.4456 8.98059 16.6256 8.71948 16.7945C8.40393 16.9984 8.13115 17.1751 7.56226 17.1751C7.29448 17.1751 7.00337 17.1173 6.69671 17.0023C6.55337 16.9495 6.39282 17.0218 6.33948 17.1656C6.28559 17.3095 6.35893 17.4695 6.50226 17.5234C6.87115 17.6606 7.22782 17.7306 7.56171 17.7306C8.29448 17.7306 8.68059 17.4812 9.02115 17.2612C9.31226 17.0729 9.56559 16.9106 10.0478 16.9084C10.5989 16.9129 10.8023 17.0629 11.0561 17.2534C11.355 17.4773 11.6934 17.7306 12.5189 17.7306C12.8528 17.7306 13.21 17.6606 13.5789 17.5234C13.7228 17.4695 13.7962 17.3095 13.7423 17.1656Z" fill="#67757F"/>
<path d="M10.7778 13.7817H9.22228C8.86673 13.7817 8.57617 14.0723 8.57617 14.4278C8.57617 14.7828 8.86673 15.074 9.22228 15.074H9.35395V15.2656C9.35395 15.6206 9.64451 15.9117 10.0001 15.9117C10.3556 15.9117 10.6462 15.6212 10.6462 15.2656V15.074H10.7778C11.1328 15.074 11.424 14.7834 11.424 14.4278C11.424 14.0723 11.1328 13.7817 10.7778 13.7817Z" fill="#E75A70"/>
<path d="M10.0122 9.53009C9.85884 9.53009 9.7344 9.40565 9.7344 9.25231V4.65009C9.7344 4.49676 9.85884 4.37231 10.0122 4.37231C10.1655 4.37231 10.29 4.49676 10.29 4.65009V9.25231C10.29 9.4062 10.1661 9.53009 10.0122 9.53009ZM11.6666 8.6512C11.5133 8.6512 11.3888 8.52676 11.3888 8.37343C11.3888 6.77231 12.0733 5.47898 12.1027 5.42454C12.175 5.28898 12.3444 5.23898 12.4788 5.3112C12.6138 5.38343 12.6644 5.55176 12.5922 5.68731C12.5855 5.69898 11.9444 6.91676 11.9444 8.37343C11.9444 8.52676 11.82 8.6512 11.6666 8.6512ZM8.33329 8.6512C8.17995 8.6512 8.05551 8.52676 8.05551 8.37343C8.05551 6.9162 7.41384 5.69898 7.40718 5.68731C7.33495 5.55176 7.38606 5.38398 7.52106 5.3112C7.65551 5.23843 7.82384 5.28954 7.89662 5.42454C7.92606 5.47898 8.61051 6.77231 8.61051 8.37343C8.61106 8.52676 8.48662 8.6512 8.33329 8.6512Z" fill="#F18F26"/>
</g>
<defs>
<clipPath id="clip0_11760_112180">
<rect width="20" height="20" fill="white"/>
</clipPath>
</defs>
</svg>
