<svg width="20" height="20" viewBox="0 0 20 20" fill="none" xmlns="http://www.w3.org/2000/svg">
<g clip-path="url(#clip0_11760_112186)">
<path d="M13.3333 3.88892C11.6666 3.88892 11.6666 4.44447 9.99996 4.44447C8.33329 4.44447 8.33329 3.88892 6.66663 3.88892C4.4444 3.88892 1.66663 5.00003 1.66663 8.88892C1.66663 15 4.99996 20 7.22218 20C8.88885 20 8.88885 19.4445 9.99996 19.4445C11.1111 19.4445 11.1111 20 12.7777 20C15 20 18.3333 15 18.3333 8.88892C18.3333 4.99947 15.5555 3.88892 13.3333 3.88892Z" fill="#DD2E44"/>
<path d="M10.5555 3.88897C10.5555 3.88897 12.2222 1.66675 15 1.66675C17.2222 1.66675 18.3333 2.77786 18.3333 2.77786C18.3333 2.77786 16.1111 4.44453 14.4444 4.44453C12.7778 4.44453 10.5555 3.88897 10.5555 3.88897Z" fill="#77B255"/>
<path d="M10 5.55545C9.69335 5.55545 9.44446 5.30656 9.44446 4.99989C9.44446 3.08823 10.1111 1.32489 11.2739 0.162673C11.4911 -0.0545497 11.8422 -0.0545497 12.0595 0.162673C12.2767 0.379895 12.2767 0.731561 12.0595 0.948228C11.1033 1.90378 10.5556 3.38045 10.5556 4.99989C10.5556 5.30656 10.3067 5.55545 10 5.55545Z" fill="#662113"/>
</g>
<defs>
<clipPath id="clip0_11760_112186">
<rect width="20" height="20" fill="white"/>
</clipPath>
</defs>
</svg>
