<svg width="20" height="21" viewBox="0 0 20 21" fill="none" xmlns="http://www.w3.org/2000/svg">
<path d="M20 8.75C20 10.0386 19.005 11.0833 17.7778 11.0833H2.22222C0.995 11.0833 0 10.0386 0 8.75V4.08333C0 2.79475 0.995 1.75 2.22222 1.75H17.7778C19.005 1.75 20 2.79475 20 4.08333V8.75Z" fill="#FFCC4D"/>
<path d="M3.33333 1.75H2.22222C0.995 1.75 0 2.79475 0 4.08333V5.25L3.33333 1.75ZM6.66667 1.75L0 8.75C0 9.54333 0.378889 10.2422 0.955556 10.6633L9.44444 1.75H6.66667ZM3.88889 11.0833H6.66667L15.5556 1.75H12.7778L3.88889 11.0833ZM12.7778 11.0833L19.94 3.563C19.7839 2.8455 19.3144 2.25633 18.6889 1.96L10 11.0833H12.7778ZM20 8.75V7L16.1111 11.0833H17.7778C19.005 11.0833 20 10.0386 20 8.75Z" fill="#292F33"/>
<path d="M2.22217 11.0833H4.99995V19.2499H2.22217V11.0833ZM14.9999 11.0833H17.7777V19.2499H14.9999V11.0833Z" fill="#99AAB5"/>
</svg>
