<svg width="20" height="20" viewBox="0 0 20 20" fill="none" xmlns="http://www.w3.org/2000/svg">
<g clip-path="url(#clip0_11760_112187)">
<path d="M14.4445 14.5349L14.4539 14.9994H3.33337V19.9999H16.6667V14.536L14.4445 14.5349Z" fill="#FA743E"/>
<path d="M7.70117 14.9996C7.70117 14.9996 8.17339 16.1457 9.67339 16.1457C11.1734 16.1457 11.5901 14.9996 11.5901 14.9996L11.5767 12.8329L7.70117 12.7773V14.9996Z" fill="#FFDC5D"/>
<path d="M7.71167 13.9049C8.29945 14.5755 8.85 14.7438 9.64334 14.7438C10.4356 14.7438 10.9911 14.5749 11.5794 13.9049V11.9521H7.71223V13.9049H7.71167Z" fill="#F9CA55"/>
<path d="M11.4395 3.01054C10.5139 2.7111 8.33556 2.79277 7.79112 3.50054C6.37556 3.52777 4.71445 4.80721 4.49667 6.49555C4.28112 8.16666 4.76112 8.94221 4.93223 10.1989C5.12556 11.6222 5.92612 12.0778 6.56612 12.2683C7.48667 13.4844 8.46501 13.4322 10.1078 13.4322C13.3161 13.4322 14.8439 11.2855 14.9795 7.63943C15.0606 5.43388 13.7667 3.76388 11.4395 3.01054Z" fill="#FFAC33"/>
<path d="M13.2745 7.79494C12.9639 7.36494 12.5667 7.01883 11.695 6.8966C12.0217 7.0466 12.335 7.56383 12.3756 7.84938C12.4167 8.13549 12.4573 8.3666 12.1984 8.08105C11.1623 6.93549 10.0339 7.3866 8.91559 6.68716C8.13448 6.19827 7.8967 5.65771 7.8967 5.65771C7.8967 5.65771 7.80115 6.37938 6.61726 7.11438C6.27393 7.32771 5.86448 7.80216 5.63726 8.50272C5.47393 9.0066 5.52448 9.45549 5.52448 10.2233C5.52448 12.4644 7.37115 14.3483 9.64948 14.3483C11.9278 14.3483 13.7745 12.4477 13.7745 10.2233C13.7745 8.82994 13.6284 8.28494 13.2745 7.79494Z" fill="#FFDC5D"/>
<path d="M9.64394 13.0922C8.31283 13.0922 7.90394 12.7477 7.83505 12.6783C7.71172 12.5533 7.71172 12.3505 7.83505 12.2255C7.95505 12.1044 8.14728 12.1016 8.27172 12.2144C8.29672 12.2322 8.62005 12.4522 9.64394 12.4522C10.7078 12.4522 11.0139 12.2155 11.0173 12.2127C11.1412 12.0888 11.3356 12.0944 11.4595 12.2205C11.5834 12.3455 11.5762 12.5538 11.4523 12.6783C11.3839 12.7477 10.9756 13.0922 9.64394 13.0922ZM10.1078 11.3694H9.19117C9.0645 11.3694 8.96228 11.2672 8.96228 11.1405C8.96228 11.0138 9.0645 10.9116 9.19117 10.9116H10.1078C10.2345 10.9116 10.3367 11.0138 10.3367 11.1405C10.3367 11.2672 10.2345 11.3694 10.1078 11.3694Z" fill="#C1694F"/>
<path d="M7.81612 9.76562C7.56279 9.76562 7.35779 9.56063 7.35779 9.30729V8.84896C7.35779 8.59563 7.56279 8.39062 7.81612 8.39062C8.06945 8.39062 8.27445 8.59563 8.27445 8.84896V9.30729C8.27445 9.56007 8.0689 9.76562 7.81612 9.76562ZM11.4828 9.76562C11.2295 9.76562 11.0245 9.56063 11.0245 9.30729V8.84896C11.0245 8.59563 11.2295 8.39062 11.4828 8.39062C11.7361 8.39062 11.9411 8.59563 11.9411 8.84896V9.30729C11.9411 9.56007 11.7356 9.76562 11.4828 9.76562Z" fill="#662113"/>
<path d="M3.27496 7.89176C3.27496 7.89176 1.14496 8.66398 0.933851 11.3479C0.933851 11.3479 -0.399482 8.67176 0.643851 5.70954L3.27496 7.89176ZM11.1394 3.32065C11.1394 3.32065 9.60718 1.6512 7.04885 2.48898C7.04885 2.48898 9.00552 0.228424 12.1416 0.0517578L11.1394 3.32065ZM16.2616 9.0762C16.2616 9.0762 17.3572 7.09231 15.7489 4.93342C15.7489 4.93342 18.5144 6.07009 19.6794 8.98676L16.2616 9.0762Z" fill="#D1D3D4"/>
<path d="M2.55724 8.04783C3.63112 8.04783 4.50168 7.17727 4.50168 6.10338C4.50168 5.02949 3.63112 4.15894 2.55724 4.15894C1.48335 4.15894 0.612793 5.02949 0.612793 6.10338C0.612793 7.17727 1.48335 8.04783 2.55724 8.04783Z" fill="#5C913B"/>
<path d="M12.5089 3.88889C13.5828 3.88889 14.4533 3.01833 14.4533 1.94444C14.4533 0.870557 13.5828 0 12.5089 0C11.435 0 10.5645 0.870557 10.5645 1.94444C10.5645 3.01833 11.435 3.88889 12.5089 3.88889Z" fill="#BE1931"/>
<path d="M17.9978 11.8633C19.0717 11.8633 19.9422 10.9927 19.9422 9.91881C19.9422 8.84492 19.0717 7.97437 17.9978 7.97437C16.9239 7.97437 16.0533 8.84492 16.0533 9.91881C16.0533 10.9927 16.9239 11.8633 17.9978 11.8633Z" fill="#3B88C3"/>
<path d="M18.1367 13.049C18.075 12.7501 17.7844 12.5579 17.4872 12.619L16.3444 12.8584H15.3394C14.8672 12.8584 14.485 13.2445 14.485 13.7223V14.5845H16.6222C17.0833 14.5845 17.4572 14.2145 17.4733 13.7534L17.625 13.7218H17.9044C17.9044 13.689 17.8922 13.659 17.885 13.6279C18.075 13.5084 18.1833 13.2829 18.1367 13.049Z" fill="#F9CA55"/>
<path d="M20.0417 13.2895C20.0417 13.0512 19.8506 12.8584 19.6139 12.8584L17.0495 13.2895H14.9122C14.6756 13.2895 14.4845 13.4834 14.4845 13.7217L14.4445 14.5834L15.3395 14.5845H17.0495L19.6139 13.7217C19.6145 13.7217 20.0417 13.5284 20.0417 13.2895Z" fill="#FFDC5D"/>
<path d="M1.90555 15.131C1.96667 14.8321 2.25722 14.6399 2.55444 14.701L3.69778 14.9405H4.70222C5.17444 14.9405 5.55722 15.3266 5.55722 15.8044V16.6666H3.41944C2.95833 16.6666 2.58444 16.2966 2.56833 15.8355L2.41667 15.8038H2.13722C2.13722 15.771 2.14944 15.741 2.15722 15.7099C1.96667 15.5905 1.85833 15.3649 1.90555 15.131Z" fill="#F9CA55"/>
<path d="M0 15.3718C0 15.1335 0.191111 14.9407 0.427222 14.9407L2.99222 15.3718H5.12944C5.36556 15.3718 5.55667 15.5657 5.55667 15.804V16.6668H2.99222L0.427222 15.804C0.427222 15.804 0 15.6107 0 15.3718Z" fill="#FFDC5D"/>
<path d="M5.55554 16.6667H6.1111V20H5.55554V16.6667ZM13.8889 15H14.4444V20H13.8889V15Z" fill="#DD551F"/>
</g>
<defs>
<clipPath id="clip0_11760_112187">
<rect width="20" height="20" fill="white"/>
</clipPath>
</defs>
</svg>
