<svg width="20" height="20" viewBox="0 0 20 20" fill="none" xmlns="http://www.w3.org/2000/svg">
<path d="M11.6205 12.501C10.1172 12.3171 9.45662 11.4721 8.13551 9.78489C9.82385 8.46489 10.6683 7.80433 12.1722 7.98767C13.6777 8.17211 15.0888 9.10767 15.6572 10.7038C14.7222 12.1166 13.1255 12.6832 11.6205 12.501ZM8.30996 17.3977C6.89385 17.2938 6.23607 16.5349 4.92218 15.0154C6.44162 13.7021 7.20107 13.0449 8.61773 13.1466C10.035 13.2493 11.4005 14.0599 12.0055 15.5282C11.195 16.8938 9.72773 17.4993 8.30996 17.3977ZM4.8544 8.67155C5.59773 9.57767 5.51607 10.4032 5.35329 12.0538C3.70329 11.8904 2.87773 11.8093 2.13385 10.9032C1.38996 9.99544 1.09996 8.71711 1.63496 7.521C2.91329 7.22989 4.11051 7.76489 4.8544 8.67155ZM16.5855 5.64489C15.2327 6.21155 14.2744 5.81933 12.3561 5.03544C13.14 3.11711 13.5327 2.15767 14.8833 1.58933C16.2355 1.02211 17.8711 1.13044 19.1122 2.19822C19.0044 3.83378 17.9361 5.07655 16.5855 5.64489ZM9.50162 3.671C9.98718 5.26489 9.43273 6.30544 8.3244 8.38655C6.24385 7.27767 5.20273 6.72322 4.71662 5.12878C4.22996 3.53322 4.54162 1.69544 5.89329 0.412109C7.73107 0.723776 9.01496 2.07489 9.50162 3.671Z" fill="#77B255"/>
<path d="M4.71671 5.12894C5.1956 6.70005 6.21782 7.26394 8.23782 8.34061V8.33783C8.19893 6.93727 6.71949 2.29561 5.86727 0.441162C4.54005 1.72338 4.23338 3.54505 4.71671 5.12894ZM1.61005 7.5895C1.1156 8.76616 1.40393 10.0128 2.13393 10.9034C2.87838 11.8101 3.70393 11.8906 5.35338 12.0539C4.79949 10.9778 2.62505 8.50505 1.61005 7.5895Z" fill="#A6D388"/>
<path d="M12.1723 7.98778C10.7484 7.81445 9.90726 8.40445 8.39003 9.58723C9.36003 9.64556 13.2711 10.0011 15.6456 10.7189C15.6489 10.7133 15.6539 10.7094 15.6573 10.7039C15.0889 9.10778 13.6778 8.17223 12.1723 7.98778ZM12.0034 15.5239C11.3973 14.0589 10.0339 13.2494 8.61781 13.1467C7.22892 13.0472 6.46781 13.6806 5.00781 14.9422C6.54503 14.7728 9.39948 14.4589 12.0034 15.5239Z" fill="#5C913B"/>
<path d="M12.4561 5.07599C14.3044 5.83099 15.2577 6.20043 16.5849 5.64488C17.9288 5.07932 18.9916 3.84543 19.1083 2.22266C16.9294 2.64543 13.3355 4.52821 12.4561 5.07599Z" fill="#A6D388"/>
<path d="M2.63941 19.4782C2.31497 19.4277 1.88219 19.0166 1.93219 18.6916C2.23553 16.7127 3.51997 11.9316 12.0977 4.93877C12.3522 4.73044 12.64 4.57266 12.8555 4.821C13.0727 5.06933 12.8266 5.34877 12.5789 5.56488C5.19664 11.9927 3.95997 17.0838 3.67719 18.9343C3.62664 19.2593 2.96441 19.5271 2.63941 19.4782Z" fill="#A06253"/>
</svg>
