<svg width="21" height="21" viewBox="0 0 21 21" fill="none" xmlns="http://www.w3.org/2000/svg">
<g clip-path="url(#clip0_11760_112674)">
<path d="M10.5 0.583252C4.70108 0.583252 0 4.23959 0 8.74992C0 11.2979 1.5015 13.5729 3.85233 15.0703C3.54667 16.4173 2.83442 18.4152 1.16667 20.4166C4.5255 19.8566 6.67275 18.2227 8.001 16.6739C8.80367 16.8268 9.63725 16.9166 10.5 16.9166C16.2989 16.9166 21 13.2603 21 8.74992C21 4.23959 16.2989 0.583252 10.5 0.583252Z" fill="#BDDDF4"/>
<path d="M10.5 9.91659C11.1444 9.91659 11.6667 9.39425 11.6667 8.74992C11.6667 8.10559 11.1444 7.58325 10.5 7.58325C9.85571 7.58325 9.33337 8.10559 9.33337 8.74992C9.33337 9.39425 9.85571 9.91659 10.5 9.91659Z" fill="#2A6797"/>
<path d="M15.1667 9.91659C15.811 9.91659 16.3333 9.39425 16.3333 8.74992C16.3333 8.10559 15.811 7.58325 15.1667 7.58325C14.5223 7.58325 14 8.10559 14 8.74992C14 9.39425 14.5223 9.91659 15.1667 9.91659Z" fill="#2A6797"/>
<path d="M5.83329 9.91659C6.47763 9.91659 6.99996 9.39425 6.99996 8.74992C6.99996 8.10559 6.47763 7.58325 5.83329 7.58325C5.18896 7.58325 4.66663 8.10559 4.66663 8.74992C4.66663 9.39425 5.18896 9.91659 5.83329 9.91659Z" fill="#2A6797"/>
</g>
<defs>
<clipPath id="clip0_11760_112674">
<rect width="21" height="21" fill="white"/>
</clipPath>
</defs>
</svg>
