<svg width="20" height="20" viewBox="0 0 20 20" fill="none" xmlns="http://www.w3.org/2000/svg">
<g clip-path="url(#clip0_11760_112177)">
<path d="M10 20C15.5228 20 20 15.5228 20 10C20 4.47715 15.5228 0 10 0C4.47715 0 0 4.47715 0 10C0 15.5228 4.47715 20 10 20Z" fill="#88C9F9"/>
<path d="M1.56222 14.0973C1.52778 13.5418 1.52778 13.4379 1.52778 12.7779C1.52778 12.1179 1.84 12.2223 2.15278 11.9101C2.46556 11.5979 2.39611 11.5629 2.91667 11.2206C3.43722 10.8784 3.16 10.4868 3.125 10.2784C3.09 10.0701 2.77778 10.2434 2.25667 10.3123C1.73556 10.3812 1.91 10.139 1.59722 10.0001C1.28444 9.8612 1.14611 9.65287 0.937222 9.02787C0.728333 8.40287 0.693889 8.22898 0.763889 7.70843C0.833889 7.18787 1.07667 7.67343 1.11111 8.22898C1.14556 8.78454 1.63222 8.5762 1.63222 8.92343C1.63222 9.27065 2.32667 9.65231 2.5 9.75676C2.67333 9.8612 3.16 9.23565 3.33333 9.06231C3.50667 8.88898 3.71556 8.64565 3.78444 8.50676C3.85333 8.36787 4.72222 8.26343 4.89556 8.26343C5.06889 8.26343 5.48556 8.78454 5.48556 9.02731C5.48556 9.27009 5.69389 9.93009 5.86778 10.3118C6.04167 10.6934 6.42333 10.7629 6.77056 11.0406C7.11778 11.3184 7.29167 11.0751 7.29167 11.0751C7.29167 11.0751 7.15278 10.4851 7.15278 9.99843C7.15278 9.51176 7.56944 9.09565 7.56944 9.09565C7.56944 9.09565 8.22944 9.58176 8.26389 9.72065C8.29833 9.85954 8.81944 10.3456 8.85389 10.5884C8.88833 10.8312 9.16611 11.144 9.67778 11.2134C10.1894 11.2829 9.82611 10.6234 9.99944 10.1718C10.1728 9.72009 10.4161 9.65065 10.7283 9.58176C11.0406 9.51287 11.2839 9.23454 11.4922 8.95676C11.7006 8.67898 12.0822 8.29676 12.0478 7.98454C12.0133 7.67231 11.9089 7.46343 11.77 7.08176C11.6311 6.70009 12.1867 6.56065 12.43 6.10954C12.6733 5.65843 12.43 6.10954 12.9856 5.97065C13.5411 5.83176 13.2978 5.83176 13.4022 5.62343C13.5067 5.41509 13.5756 5.20676 13.4717 4.82454C13.3678 4.44232 12.9856 4.82454 12.6039 4.82454C12.2222 4.82454 12.7433 4.30565 12.7778 3.88898C12.8122 3.47232 13.2989 3.57676 13.6456 3.54176C13.9922 3.50676 14.0967 3.99287 14.2011 4.09732C14.3056 4.20176 15.3817 3.40287 15.6594 3.02065C15.9372 2.63843 15.4167 2.74343 15.5556 2.58231C15.6944 2.4212 14.7222 2.38843 14.34 2.32676C13.9578 2.26509 12.9861 2.22232 12.6044 1.98676C12.2228 1.7512 10.7644 1.92898 10.3822 2.11843C10 2.30787 9.75722 2.10232 9.58333 1.84065C9.40944 1.57898 8.68056 1.71009 8.47222 1.56287C8.26389 1.41565 8.05556 1.80565 7.77778 1.91009C7.5 2.01454 7.39556 2.04898 7.04889 1.84065C6.70222 1.63232 7.15278 1.38898 6.66667 1.21565C6.34111 1.09954 5.95111 1.16732 5.34444 1.15398C2.16778 2.82898 0 6.15954 0 10.0001C0 11.9001 0.539445 13.6695 1.45944 15.1818C1.63056 14.894 1.58778 14.5056 1.56222 14.0973ZM9.61778 13.4379C9.86111 13.4723 10.5556 13.4379 10 12.9868C9.44444 12.5356 9.13222 12.8823 9.20111 12.3618C9.27 11.8412 8.85389 11.8406 8.85389 11.8406C8.85389 12.2229 8.57611 12.6395 8.85389 13.0212C9.13167 13.4029 9.375 13.4029 9.61778 13.4379Z" fill="#5C913B"/>
<path d="M13.16 7.63887C12.6045 7.18776 13.0211 7.32665 13.0906 6.80553C13.16 6.28442 12.7434 6.28442 12.7434 6.28442C12.7434 6.66665 12.4656 7.08331 12.7434 7.46498C13.0211 7.84665 12.1878 8.15942 12.4311 8.19387C12.6745 8.22831 13.7156 8.08998 13.16 7.63887ZM11.0045 13.0555C11.3489 13.4378 11.2156 13.0555 11.6667 12.8822C12.1178 12.7089 11.2845 12.3266 11.0067 12.1183C10.7289 11.91 10.4528 11.9022 10.21 12.3616C9.93447 12.8822 10.66 12.6733 11.0045 13.0555ZM15.0695 13.75C14.8961 13.5416 14.5139 13.4378 14.0972 13.4472C13.6806 13.4572 13.715 12.9861 13.2984 13.0205C12.8817 13.055 12.5839 12.7405 12.3956 12.6433C11.9861 12.4322 12.2567 12.9161 12.3956 13.4466C12.5345 13.9772 13.0556 13.5755 13.5411 13.8533C14.0267 14.1311 14.0622 13.7489 14.5134 13.8878C14.9645 14.0266 15.1384 14.3389 15.5711 14.3044C16.0039 14.27 15.2434 13.9583 15.0695 13.75ZM14.1667 15.2778C13.9934 14.9305 13.4856 14.6178 13.2772 14.4416C13.0689 14.2655 12.7428 14.2061 12.465 14.3083C12.1872 14.4105 12.0139 14.3083 11.875 14.0333C11.7361 13.7583 11.4928 13.8544 11.285 13.8889C11.0772 13.9233 10.2434 14.2711 9.75724 14.5139C9.27113 14.7566 9.05002 14.9678 8.73113 15.2778C8.23224 15.7633 8.50724 15.4511 8.73113 15.7639C8.95502 16.0761 8.48558 17.0483 8.45113 17.6039C8.41669 18.1594 9.34113 17.4305 9.68835 17.3605C10.0356 17.2905 9.93335 17.0828 10.2111 16.8744C10.4889 16.6661 10.6695 16.6172 10.9745 16.895C11.2795 17.1728 11.6789 17.43 11.6789 17.7422C11.6789 18.0544 12.7784 18.5755 13.195 18.3672C13.6117 18.1589 13.855 17.7422 14.2367 17.395C14.6184 17.0478 14.48 16.3883 14.5839 15.9716C14.6878 15.555 14.34 15.625 14.1667 15.2778Z" fill="#5C913B"/>
</g>
<defs>
<clipPath id="clip0_11760_112177">
<rect width="20" height="20" fill="white"/>
</clipPath>
</defs>
</svg>
