<svg width="20" height="20" viewBox="0 0 20 20" fill="none" xmlns="http://www.w3.org/2000/svg">
<g clip-path="url(#clip0_11760_112179)">
<path d="M3.88888 6.66667C5.72982 6.66667 7.22221 5.17428 7.22221 3.33333C7.22221 1.49238 5.72982 0 3.88888 0C2.04793 0 0.555542 1.49238 0.555542 3.33333C0.555542 5.17428 2.04793 6.66667 3.88888 6.66667Z" fill="#C1694F"/>
<path d="M16.1112 6.66667C17.9521 6.66667 19.4445 5.17428 19.4445 3.33333C19.4445 1.49238 17.9521 0 16.1112 0C14.2702 0 12.7778 1.49238 12.7778 3.33333C12.7778 5.17428 14.2702 6.66667 16.1112 6.66667Z" fill="#C1694F"/>
<path d="M3.88885 5.55553C5.11615 5.55553 6.11107 4.56061 6.11107 3.33331C6.11107 2.10601 5.11615 1.11108 3.88885 1.11108C2.66155 1.11108 1.66663 2.10601 1.66663 3.33331C1.66663 4.56061 2.66155 5.55553 3.88885 5.55553Z" fill="#E6AAAA"/>
<path d="M16.1111 5.55553C17.3384 5.55553 18.3334 4.56061 18.3334 3.33331C18.3334 2.10601 17.3384 1.11108 16.1111 1.11108C14.8838 1.11108 13.8889 2.10601 13.8889 3.33331C13.8889 4.56061 14.8838 5.55553 16.1111 5.55553Z" fill="#E6AAAA"/>
<path d="M19.4444 12.2222C19.4444 12.2222 18.7178 0 9.99999 0C1.28221 0 0.555542 12.2222 0.555542 12.2222C0.555542 15.4844 3.05499 17.9572 7.34221 18.6722C7.95054 19.4778 8.91332 20 9.99999 20C11.0867 20 12.0489 19.4778 12.6578 18.6722C16.945 17.9572 19.4444 15.4844 19.4444 12.2222Z" fill="#C1694F"/>
<path d="M10.0001 18.8888C11.2274 18.8888 12.2223 17.8939 12.2223 16.6666C12.2223 15.4393 11.2274 14.4443 10.0001 14.4443C8.77275 14.4443 7.77783 15.4393 7.77783 16.6666C7.77783 17.8939 8.77275 18.8888 10.0001 18.8888Z" fill="#DD2E44"/>
<path d="M10 11.1111C10 11.1111 3.88892 13.1594 3.88892 15C3.88892 16.8405 5.38169 18.3333 7.22225 18.3333C8.38225 18.3333 9.4028 17.7405 10 16.8416C10.5967 17.7405 11.6178 18.3333 12.7778 18.3333C14.6184 18.3333 16.1111 16.8405 16.1111 15C16.1111 13.1594 10 11.1111 10 11.1111Z" fill="#D99E82"/>
<path d="M6.11108 9.44436C6.11108 9.44436 6.11108 8.33325 7.2222 8.33325C8.33331 8.33325 8.33331 9.44436 8.33331 9.44436V10.5555C8.33331 10.5555 8.33331 11.6666 7.2222 11.6666C6.11108 11.6666 6.11108 10.5555 6.11108 10.5555V9.44436ZM11.6666 9.44436C11.6666 9.44436 11.6666 8.33325 12.7778 8.33325C13.8889 8.33325 13.8889 9.44436 13.8889 9.44436V10.5555C13.8889 10.5555 13.8889 11.6666 12.7778 11.6666C11.6666 11.6666 11.6666 10.5555 11.6666 10.5555V9.44436ZM7.29164 13.8888C6.38942 14.4444 9.0972 16.111 9.99997 16.111C10.9028 16.111 13.6105 14.4444 12.7078 13.8888C11.805 13.3333 8.19442 13.3333 7.29164 13.8888Z" fill="#272B2B"/>
</g>
<defs>
<clipPath id="clip0_11760_112179">
<rect width="20" height="20" fill="white"/>
</clipPath>
</defs>
</svg>
