<svg width="20" height="20" viewBox="0 0 20 20" fill="none" xmlns="http://www.w3.org/2000/svg">
<path d="M5.19113 8.16783H4.08002C3.92669 8.16783 3.80225 8.04339 3.80225 7.89006V4.00117C3.80225 3.84783 3.92669 3.72339 4.08002 3.72339H5.19113C5.34447 3.72339 5.46891 3.84783 5.46891 4.00117V7.89006C5.46891 8.04339 5.34447 8.16783 5.19113 8.16783Z" fill="#A0041E"/>
<path d="M2.77783 8.88897L10.0001 1.66675L17.2223 8.88897V18.3334H2.77783V8.88897Z" fill="#FFE8B6"/>
<path d="M10 8.88892H10.5556V17.7778H10V8.88892Z" fill="#FFCC4D"/>
<path d="M17.2222 9.44456C17.08 9.44456 16.9377 9.39011 16.8294 9.28178L9.99996 2.45233L3.17052 9.28178C2.9533 9.499 2.60218 9.499 2.38496 9.28178C2.16774 9.06456 2.16774 8.71345 2.38496 8.49622L9.60718 1.274C9.82441 1.05678 10.1755 1.05678 10.3927 1.274L17.615 8.49622C17.8322 8.71345 17.8322 9.06456 17.615 9.28178C17.5066 9.39011 17.3644 9.44456 17.2222 9.44456Z" fill="#66757F"/>
<path d="M10 9.44453C9.85781 9.44453 9.71559 9.39009 9.60725 9.28175C9.39003 9.06453 9.39003 8.71342 9.60725 8.4962L13.2184 4.88508C13.4356 4.66786 13.7867 4.66786 14.0039 4.88508C14.2211 5.10231 14.2211 5.45342 14.0039 5.67064L10.3928 9.28175C10.2845 9.39009 10.1423 9.44453 10 9.44453Z" fill="#66757F"/>
<path d="M5.55554 14.4443H7.77776V17.7777H5.55554V14.4443Z" fill="#C1694F"/>
<path d="M5.55554 9.44434H7.77776V11.6666H5.55554V9.44434ZM12.5 9.44434H14.7222V11.6666H12.5V9.44434ZM12.5 14.4443H14.7222V16.6666H12.5V14.4443Z" fill="#55ACEE"/>
<path d="M18.6111 18.6112C18.6111 19.0712 18.2378 19.4445 17.7778 19.4445H2.22225C1.76225 19.4445 1.38892 19.0712 1.38892 18.6112C1.38892 18.1512 1.76225 17.7778 2.22225 17.7778H17.7778C18.2378 17.7778 18.6111 18.1512 18.6111 18.6112Z" fill="#5C913B"/>
</svg>
