<svg width="20" height="21" viewBox="0 0 20 21" fill="none" xmlns="http://www.w3.org/2000/svg">
<g clip-path="url(#clip0_11760_112203)">
<path d="M19.4444 15.1667C19.4444 16.4552 18.4494 17.5 17.2222 17.5H2.77776C1.55054 17.5 0.555542 16.4552 0.555542 15.1667V3.68258C0.555542 2.394 3.77276 0 4.99999 0H16.4583C18.1772 0 19.4444 1.34867 19.4444 3.13542V15.1667Z" fill="#F4900C"/>
<path d="M18.3333 17.5C18.3333 18.7886 17.3383 19.8334 16.1111 19.8334H3.88885C2.66163 19.8334 1.66663 18.7886 1.66663 17.5V3.50004C1.66663 1.09729 1.65496 1.16671 4.4444 1.16671H16.1111C17.3383 1.16671 18.3333 2.21146 18.3333 3.50004V17.5Z" fill="#CCD6DD"/>
<path d="M17.2222 18.0833C17.2222 19.0498 16.4761 19.8333 15.5555 19.8333H2.22221C1.30165 19.8333 0.555542 19.0498 0.555542 18.0833V4.08325C0.555542 3.11667 1.30165 2.33325 2.22221 2.33325H15.5555C16.4761 2.33325 17.2222 3.11667 17.2222 4.08325V18.0833Z" fill="#E1E8ED"/>
<path d="M17.2222 18.6667C17.2222 19.9552 16.2272 21 15 21H3.33331C2.10608 21 1.11108 19.9552 1.11108 18.6667V5.83333C1.11108 4.54475 2.10608 3.5 3.33331 3.5H15C16.2272 3.5 17.2222 4.54475 17.2222 5.83333V18.6667Z" fill="#F4900C"/>
<path d="M16.1111 18.6667C16.1111 19.9553 15.1161 21.0001 13.8889 21.0001H3.33331C2.10608 21.0001 1.11108 19.9553 1.11108 18.6667V7.00008C1.11108 5.7115 2.10608 4.66675 3.33331 4.66675H14.075C15.3022 4.66675 16.1111 5.51608 16.1111 6.80466V18.6667Z" fill="#FFAC33"/>
<path d="M3.33332 3.5C2.39554 3.5 2.37165 2.37883 2.77776 1.89583C3.23999 1.34692 3.95832 1.16667 5.24332 1.16667H6.1111V0H4.60054C2.39554 0 0.555542 1.45833 0.555542 3.13542V18.6667C0.555542 19.9552 1.55054 21 2.77776 21H3.88888V3.5H3.33332Z" fill="#F4900C"/>
</g>
<defs>
<clipPath id="clip0_11760_112203">
<rect width="20" height="21" fill="white"/>
</clipPath>
</defs>
</svg>
