<svg width="20" height="20" viewBox="0 0 20 20" fill="none" xmlns="http://www.w3.org/2000/svg">
<g clip-path="url(#clip0_11760_112167)">
<path d="M20 10C20 15.5228 15.5228 20 10 20C4.47722 20 0 15.5228 0 10C0 4.47722 4.47722 0 10 0C15.5228 0 20 4.47722 20 10Z" fill="#FFCC4D"/>
<path d="M9.99998 12.1384C8.35221 12.1384 7.25832 11.9462 5.90609 11.6834C5.59665 11.6245 4.99609 11.6834 4.99609 12.5934C4.99609 14.4129 7.08665 16.6873 9.99998 16.6873C12.9133 16.6873 15.0039 14.4129 15.0039 12.5934C15.0039 11.6834 14.4028 11.624 14.0939 11.6834C12.7416 11.9462 11.6483 12.1384 9.99998 12.1384Z" fill="#664500"/>
<path d="M9.25005 1.82285C8.77283 0.472297 7.29227 -0.236592 5.94116 0.239519C5.12116 0.528408 4.5406 1.19007 4.31449 1.96396C3.65283 1.50341 2.78616 1.35285 1.96727 1.64174C0.617271 2.11841 -0.0927289 3.60007 0.384493 4.95063C0.452271 5.14174 0.542271 5.31896 0.646716 5.48285C1.7306 7.47285 4.86227 8.87174 6.75838 8.88896C8.22338 7.68507 9.78394 4.63063 9.37949 2.40174C9.35838 2.20841 9.31672 2.01396 9.25005 1.82285ZM10.75 1.82285C11.2273 0.472297 12.7084 -0.236592 14.0589 0.239519C14.8789 0.528408 15.4595 1.19007 15.6862 1.96396C16.3478 1.50341 17.2145 1.35285 18.0334 1.64174C19.3834 2.11841 20.0928 3.60007 19.6167 4.95063C19.5484 5.14174 19.4589 5.31896 19.3539 5.48285C18.2701 7.47285 15.1384 8.87174 13.2417 8.88896C11.7767 7.68507 10.2167 4.63063 10.6212 2.40174C10.6417 2.20841 10.6834 2.01396 10.75 1.82285Z" fill="#DD2E44"/>
</g>
<defs>
<clipPath id="clip0_11760_112167">
<rect width="20" height="20" fill="white"/>
</clipPath>
</defs>
</svg>
