<svg width="20" height="20" viewBox="0 0 20 20" fill="none" xmlns="http://www.w3.org/2000/svg">
<g clip-path="url(#clip0_11760_112155)">
<path d="M10 0C4.47778 0 0 4.47778 0 10C0 13.3617 1.66444 16.3289 4.20778 18.1417C4.26556 14.565 2.965 10.5556 0.78 10.5556C0.522222 10.5556 0.313333 10.5922 0.139444 10.6572C0.307778 10.2367 0.672778 10 1.35556 10C3.72778 10 5.05889 14.7256 4.74 18.4933C6.27 19.4428 8.06778 20 10 20C11.9328 20 13.7311 19.4422 15.2611 18.4928C14.9406 14.7111 16.2711 10 18.645 10C19.33 10 19.6961 10.2367 19.8628 10.6572C19.6883 10.5922 19.4789 10.5556 19.22 10.5556C17.0322 10.5556 15.7322 14.555 15.7922 18.1417C18.3361 16.3289 20 13.3617 20 10C20 4.47778 15.5228 0 10 0Z" fill="#FFCC4D"/>
<path d="M10 0C4.47778 0 0 4.47778 0 10C0 10.6622 0.0683333 11.3089 0.191111 11.9356C0.321111 11.4561 0.524444 10.9961 0.778889 10.5556C0.521667 10.5556 0.313333 10.5922 0.14 10.6572C0.286667 10.2911 0.596667 10.075 1.12222 10.0228C2.78444 7.70111 6.13167 6.11111 10 6.11111C13.8689 6.11111 17.2156 7.70056 18.8778 10.0222C19.4056 10.0744 19.7167 10.29 19.8622 10.6572C19.6889 10.5922 19.4794 10.5556 19.2217 10.5556C19.4761 10.9961 19.6789 11.4561 19.8094 11.9356C19.9322 11.3089 20 10.6622 20 10C20 4.47778 15.5228 0 10 0Z" fill="#BDDDF4"/>
<path d="M4.08161 6.61655C3.55605 8.38099 4.14105 10.1127 5.38883 10.4843C6.63661 10.8566 8.07439 9.72766 8.59939 7.96322C9.12494 6.19933 8.5405 4.46711 7.29328 4.09544C6.0455 3.72377 4.60772 4.85266 4.08161 6.61655ZM15.9177 6.61655C16.4433 8.38099 15.8583 10.1127 14.6111 10.4843C13.3633 10.8566 11.9255 9.72766 11.4005 7.96322C10.8749 6.19933 11.4599 4.46711 12.7066 4.09544C13.9538 3.72377 15.3916 4.85266 15.9177 6.61655Z" fill="#F5F8FA"/>
<path d="M9.99995 10C8.46828 10 7.22217 11.2461 7.22217 12.7778V16.1111C7.22217 17.6428 8.46828 18.8889 9.99995 18.8889C11.5316 18.8889 12.7777 17.6428 12.7777 16.1111V12.7778C12.7777 11.2461 11.5316 10 9.99995 10Z" fill="#664500"/>
<path d="M0.780008 10.5556C0.52223 10.5556 0.313341 10.5923 0.139452 10.6573C0.179452 10.5578 0.23223 10.4706 0.295563 10.3928C-0.738881 11.6656 1.58279 15.8556 0.454452 20H4.04334C4.70445 16.1334 3.35723 10.5556 0.780008 10.5556ZM19.8628 10.6573C19.6883 10.5923 19.4789 10.5556 19.22 10.5556C16.6417 10.5556 15.295 16.1123 15.9572 20H19.5461C18.4872 16.0862 20.4661 12.1728 19.8628 10.6573Z" fill="#FCAB40"/>
</g>
<defs>
<clipPath id="clip0_11760_112155">
<rect width="20" height="20" fill="white"/>
</clipPath>
</defs>
</svg>
