<svg width="20" height="20" viewBox="0 0 20 20" fill="none" xmlns="http://www.w3.org/2000/svg">
<g clip-path="url(#clip0_11760_112194)">
<path d="M18.8889 7.22222C18.8889 7.83556 18.3911 8.33333 17.7778 8.33333H14.4444C13.8311 8.33333 13.3333 7.83556 13.3333 7.22222V6.11111C13.3333 5.49778 13.8311 5 14.4444 5H17.7778C18.3911 5 18.8889 5.49778 18.8889 6.11111V7.22222ZM6.66664 7.22222C6.66664 7.83556 6.16886 8.33333 5.55553 8.33333H2.2222C1.60886 8.33333 1.11108 7.83556 1.11108 7.22222V6.11111C1.11108 5.49778 1.60886 5 2.2222 5H5.55553C6.16886 5 6.66664 5.49778 6.66664 6.11111V7.22222Z" fill="#DAC8B1"/>
<path d="M20 18.8889C20 19.5022 19.5022 20 18.8889 20H1.11111C0.497778 20 0 19.5022 0 18.8889V7.2222C0 6.60886 0.497778 6.11108 1.11111 6.11108H18.8889C19.5022 6.11108 20 6.60886 20 7.2222V18.8889Z" fill="#F1DCC1"/>
<path d="M12.2222 5.00008V3.88897C12.2222 3.47897 11.9977 3.12453 11.6666 2.93175V2.77786C11.6666 2.16453 11.1688 1.66675 10.5555 1.66675H9.44439C8.83106 1.66675 8.33328 2.16453 8.33328 2.77786V2.93175C8.00272 3.12453 7.77772 3.47897 7.77772 3.88897V5.00008H7.22217V20.0001H12.7777V5.00008H12.2222Z" fill="#DAC8B1"/>
<path d="M7.77783 3.88892H8.88894V5.00003H7.77783V3.88892ZM11.1112 3.88892H12.2223V5.00003H11.1112V3.88892ZM9.4445 3.88892H10.5556V5.00003H9.4445V3.88892Z" fill="#55ACEE"/>
<path d="M8.33337 8.33325H9.44449V16.111H8.33337V8.33325ZM10.5556 8.33325H11.6667V16.111H10.5556V8.33325Z" fill="#3B88C3"/>
<path d="M13.3333 9.44434H14.4444V16.111H13.3333V9.44434ZM15.5555 9.44434H16.6666V16.111H15.5555V9.44434ZM17.7778 9.44434H18.8889V16.111H17.7778V9.44434ZM1.11108 9.44434H2.2222V16.111H1.11108V9.44434ZM3.33331 9.44434H4.44442V16.111H3.33331V9.44434ZM5.55553 9.44434H6.66664V16.111H5.55553V9.44434ZM1.11108 16.6666H2.2222V17.7777H1.11108V16.6666ZM3.33331 16.6666H4.44442V17.7777H3.33331V16.6666ZM5.55553 16.6666H6.66664V17.7777H5.55553V16.6666Z" fill="#55ACEE"/>
<path d="M8.33337 16.6667H9.44449V17.7779H8.33337V16.6667ZM10.5556 16.6667H11.6667V17.7779H10.5556V16.6667Z" fill="#3B88C3"/>
<path d="M13.3334 16.6667H14.4445V17.7779H13.3334V16.6667ZM15.5556 16.6667H16.6667V17.7779H15.5556V16.6667ZM17.7778 16.6667H18.8889V17.7779H17.7778V16.6667Z" fill="#55ACEE"/>
<path d="M1.11108 18.3333H2.2222V19.9999H1.11108V18.3333ZM3.33331 18.3333H4.44442V19.9999H3.33331V18.3333ZM5.55553 18.3333H6.66664V19.9999H5.55553V18.3333ZM8.33331 18.3333H9.44442V19.9999H8.33331V18.3333ZM10.5555 18.3333H11.6666V19.9999H10.5555V18.3333ZM13.3333 18.3333H14.4444V19.9999H13.3333V18.3333ZM15.5555 18.3333H16.6666V19.9999H15.5555V18.3333ZM17.7778 18.3333H18.8889V19.9999H17.7778V18.3333Z" fill="#66757F"/>
</g>
<defs>
<clipPath id="clip0_11760_112194">
<rect width="20" height="20" fill="white"/>
</clipPath>
</defs>
</svg>
