<svg width="20" height="20" viewBox="0 0 20 20" fill="none" xmlns="http://www.w3.org/2000/svg">
<path d="M7.22222 18.8889C7.22222 18.8889 7.22222 20 6.11111 20C5 20 5 18.8889 5 18.8889V1.11111C5 1.11111 5 0 6.11111 0C7.22222 0 7.22222 1.11111 7.22222 1.11111V18.8889Z" fill="#66757F"/>
<path d="M6.11108 2.22215C6.11108 0.999924 7.01997 0.416591 8.13108 0.926035L17.4239 5.18548C18.535 5.69492 18.535 6.52826 17.4239 7.03715L8.13108 11.2966C7.01997 11.8055 6.11108 11.2221 6.11108 9.99992V2.22215Z" fill="#DD2E44"/>
</svg>
