<svg width="63" height="66" viewBox="0 0 63 66" fill="none" xmlns="http://www.w3.org/2000/svg">
<g filter="url(#filter0_d_484_6569)">
<mask id="path-1-inside-1_484_6569" fill="white">
<path fill-rule="evenodd" clip-rule="evenodd" d="M14.7824 10.6822C14.0031 10.2888 13.1293 11.0129 13.3709 11.8517L24.0902 49.0693C24.3175 49.8586 25.3467 50.0524 25.8455 49.3999L32.6785 40.463L46.2782 56.8777C46.6306 57.303 47.261 57.3621 47.6863 57.0097L52.7688 52.7988C53.1941 52.4464 53.2532 51.816 52.9009 51.3908L39.3005 34.9752L49.3563 29.921C50.0902 29.5522 50.0911 28.5049 49.3579 28.1348L14.7824 10.6822Z"/>
</mask>
<path fill-rule="evenodd" clip-rule="evenodd" d="M14.7824 10.6822C14.0031 10.2888 13.1293 11.0129 13.3709 11.8517L24.0902 49.0693C24.3175 49.8586 25.3467 50.0524 25.8455 49.3999L32.6785 40.463L46.2782 56.8777C46.6306 57.303 47.261 57.3621 47.6863 57.0097L52.7688 52.7988C53.1941 52.4464 53.2532 51.816 52.9009 51.3908L39.3005 34.9752L49.3563 29.921C50.0902 29.5522 50.0911 28.5049 49.3579 28.1348L14.7824 10.6822Z" fill="#0A153A"/>
<path d="M13.3709 11.8517L14.3318 11.5749L14.3318 11.5749L13.3709 11.8517ZM14.7824 10.6822L15.233 9.78948L15.233 9.78948L14.7824 10.6822ZM24.0902 49.0693L25.0511 48.7926L25.0511 48.7926L24.0902 49.0693ZM25.8455 49.3999L26.64 50.0073L25.8455 49.3999ZM32.6785 40.463L33.4486 39.825L32.6471 38.8576L31.8841 39.8556L32.6785 40.463ZM46.2782 56.8777L47.0483 56.2397L46.2782 56.8777ZM39.3005 34.9752L38.8514 34.0817L37.729 34.6459L38.5304 35.6132L39.3005 34.9752ZM49.3563 29.9211L48.9073 29.0276L48.9073 29.0276L49.3563 29.9211ZM49.3579 28.1348L49.8085 27.2421L49.3579 28.1348ZM14.3318 11.5749L14.3318 11.5749L15.233 9.78948C13.6745 9.00277 11.9267 10.4508 12.4099 12.1285L14.3318 11.5749ZM25.0511 48.7926L14.3318 11.5749L12.4099 12.1285L23.1293 49.3461L25.0511 48.7926ZM25.0511 48.7926L25.0511 48.7926L23.1293 49.3461C23.5839 50.9246 25.6422 51.3123 26.64 50.0073L25.0511 48.7926ZM31.8841 39.8556L25.0511 48.7926L26.64 50.0073L33.4729 41.0703L31.8841 39.8556ZM47.0483 56.2397L33.4486 39.825L31.9085 41.1009L45.5082 57.5157L47.0483 56.2397ZM47.0483 56.2397L47.0483 56.2397L45.5082 57.5157C46.2129 58.3662 47.4737 58.4845 48.3243 57.7798L47.0483 56.2397ZM52.1308 52.0288L47.0483 56.2397L48.3243 57.7798L53.4068 53.5688L52.1308 52.0288ZM52.1308 52.0288L52.1308 52.0288L53.4068 53.5688C54.2574 52.8641 54.3756 51.6033 53.6709 50.7528L52.1308 52.0288ZM38.5304 35.6132L52.1308 52.0288L53.6709 50.7528L40.0705 34.3372L38.5304 35.6132ZM48.9073 29.0276L38.8514 34.0817L39.7495 35.8687L49.8054 30.8145L48.9073 29.0276ZM48.9073 29.0276L48.9073 29.0276L49.8054 30.8145C51.2731 30.0769 51.2749 27.9823 49.8085 27.2421L48.9073 29.0276ZM14.3318 11.5749L48.9073 29.0276L49.8085 27.2421L15.233 9.78948L14.3318 11.5749Z" fill="white" mask="url(#path-1-inside-1_484_6569)"/>
</g>
<defs>
<filter id="filter0_d_484_6569" x="9.33008" y="10.5721" width="47.8008" height="54.6676" filterUnits="userSpaceOnUse" color-interpolation-filters="sRGB">
<feFlood flood-opacity="0" result="BackgroundImageFix"/>
<feColorMatrix in="SourceAlpha" type="matrix" values="0 0 0 0 0 0 0 0 0 0 0 0 0 0 0 0 0 0 127 0" result="hardAlpha"/>
<feOffset dy="4"/>
<feGaussianBlur stdDeviation="2"/>
<feComposite in2="hardAlpha" operator="out"/>
<feColorMatrix type="matrix" values="0 0 0 0 0 0 0 0 0 0 0 0 0 0 0 0 0 0 0.25 0"/>
<feBlend mode="normal" in2="BackgroundImageFix" result="effect1_dropShadow_484_6569"/>
<feBlend mode="normal" in="SourceGraphic" in2="effect1_dropShadow_484_6569" result="shape"/>
</filter>
</defs>
</svg>
