<svg width="28" height="28" viewBox="0 0 28 28" fill="none" xmlns="http://www.w3.org/2000/svg">
<path d="M18.9862 14.9856L8.60424 0H0V28H9.01383V13.0144L19.3958 28H28V0H18.9862V14.9856Z" fill="white"/>
</svg>
