<svg width="30" height="30" viewBox="0 0 30 30" fill="none" xmlns="http://www.w3.org/2000/svg">
<path d="M21.2516 13.7502H6.76408L9.63908 10.8877C9.75563 10.7712 9.84808 10.6328 9.91115 10.4805C9.97423 10.3283 10.0067 10.1651 10.0067 10.0002C10.0067 9.83541 9.97423 9.6722 9.91115 9.51992C9.84808 9.36764 9.75563 9.22928 9.63908 9.11273C9.52253 8.99618 9.38417 8.90373 9.23189 8.84066C9.07961 8.77758 8.9164 8.74512 8.75158 8.74512C8.58676 8.74512 8.42355 8.77758 8.27127 8.84066C8.11899 8.90373 7.98063 8.99618 7.86408 9.11273L2.86408 14.1127C2.75028 14.2316 2.66107 14.3718 2.60158 14.5252C2.47656 14.8296 2.47656 15.1709 2.60158 15.4752C2.66107 15.6287 2.75028 15.7689 2.86408 15.8877L7.86408 20.8877C7.98028 21.0049 8.11853 21.0979 8.27086 21.1613C8.42318 21.2248 8.58657 21.2575 8.75158 21.2575C8.91659 21.2575 9.07998 21.2248 9.2323 21.1613C9.38462 21.0979 9.52288 21.0049 9.63908 20.8877C9.75624 20.7715 9.84923 20.6333 9.91269 20.481C9.97615 20.3286 10.0088 20.1652 10.0088 20.0002C10.0088 19.8352 9.97615 19.6718 9.91269 19.5195C9.84923 19.3672 9.75624 19.2289 9.63908 19.1127L6.76408 16.2502H21.2516C21.5831 16.2502 21.901 16.1185 22.1355 15.8841C22.3699 15.6497 22.5016 15.3318 22.5016 15.0002C22.5016 14.6687 22.3699 14.3508 22.1355 14.1163C21.901 13.8819 21.5831 13.7502 21.2516 13.7502Z" fill="#3B3F4E"/>
</svg>
