<svg width="20" height="20" viewBox="0 0 20 20" fill="none" xmlns="http://www.w3.org/2000/svg">
<path d="M16.6667 10.9833V9.16667C16.6667 7.39856 15.9644 5.70286 14.7141 4.45262C13.4639 3.20238 11.7682 2.5 10.0001 2.5C8.23197 2.5 6.53628 3.20238 5.28604 4.45262C4.03579 5.70286 3.33341 7.39856 3.33341 9.16667V10.9833C2.84712 11.1553 2.42591 11.4734 2.12753 11.8941C1.82915 12.3148 1.6682 12.8175 1.66675 13.3333V15C1.66675 15.663 1.93014 16.2989 2.39898 16.7678C2.86782 17.2366 3.50371 17.5 4.16675 17.5H6.66675C6.88776 17.5 7.09972 17.4122 7.256 17.2559C7.41228 17.0996 7.50008 16.8877 7.50008 16.6667V11.6667C7.50008 11.4457 7.41228 11.2337 7.256 11.0774C7.09972 10.9211 6.88776 10.8333 6.66675 10.8333H5.00008V9.16667C5.00008 7.84058 5.52687 6.56881 6.46455 5.63113C7.40223 4.69345 8.674 4.16667 10.0001 4.16667C11.3262 4.16667 12.5979 4.69345 13.5356 5.63113C14.4733 6.56881 15.0001 7.84058 15.0001 9.16667V10.8333H13.3334C13.1124 10.8333 12.9004 10.9211 12.7442 11.0774C12.5879 11.2337 12.5001 11.4457 12.5001 11.6667V16.6667C12.5001 16.8877 12.5879 17.0996 12.7442 17.2559C12.9004 17.4122 13.1124 17.5 13.3334 17.5H15.8334C16.4965 17.5 17.1323 17.2366 17.6012 16.7678C18.07 16.2989 18.3334 15.663 18.3334 15V13.3333C18.332 12.8175 18.171 12.3148 17.8726 11.8941C17.5743 11.4734 17.153 11.1553 16.6667 10.9833ZM5.83341 12.5V15.8333H4.16675C3.94573 15.8333 3.73377 15.7455 3.57749 15.5893C3.42121 15.433 3.33341 15.221 3.33341 15V13.3333C3.33341 13.1123 3.42121 12.9004 3.57749 12.7441C3.73377 12.5878 3.94573 12.5 4.16675 12.5H5.83341ZM16.6667 15C16.6667 15.221 16.579 15.433 16.4227 15.5893C16.2664 15.7455 16.0544 15.8333 15.8334 15.8333H14.1667V12.5H15.8334C16.0544 12.5 16.2664 12.5878 16.4227 12.7441C16.579 12.9004 16.6667 13.1123 16.6667 13.3333V15Z" fill="#717488"/>
</svg>
