<svg width="18" height="13" viewBox="0 0 18 13" fill="none" xmlns="http://www.w3.org/2000/svg">
<path d="M10.6888 1.75203C10.2832 1.35123 10.2832 0.701402 10.6888 0.300601C11.0943 -0.1002 11.7518 -0.1002 12.1574 0.300601L17.6958 5.77428C18.1014 6.17509 18.1014 6.82491 17.6958 7.22571L12.1574 12.6994C11.7518 13.1002 11.0943 13.1002 10.6888 12.6994C10.2832 12.2986 10.2832 11.6488 10.6888 11.248L14.4545 7.52632H1.03846C0.464936 7.52632 0 7.06682 0 6.5C0 5.93318 0.464936 5.47368 1.03846 5.47368H14.4545L10.6888 1.75203Z" fill="white"/>
</svg>
