<svg width="14" height="13" viewBox="0 0 14 13" fill="none" xmlns="http://www.w3.org/2000/svg">
<path d="M12.9458 6.5348C11.6332 3.71315 9.16407 1.9624 6.5 1.9624C3.83593 1.9624 1.36679 3.71315 0.0542462 6.5348C0.0184675 6.6107 0 6.69263 0 6.77545C0 6.85827 0.0184675 6.9402 0.0542462 7.0161C1.36679 9.83775 3.83593 11.5885 6.5 11.5885C9.16407 11.5885 11.6332 9.83775 12.9458 7.0161C12.9815 6.9402 13 6.85827 13 6.77545C13 6.69263 12.9815 6.6107 12.9458 6.5348ZM6.5 10.3852C4.44022 10.3852 2.4909 9.0075 1.36679 6.77545C2.4909 4.5434 4.44022 3.16566 6.5 3.16566C8.55978 3.16566 10.5091 4.5434 11.6332 6.77545C10.5091 9.0075 8.55978 10.3852 6.5 10.3852ZM6.5 4.36893C5.98595 4.36893 5.48344 4.51007 5.05602 4.7745C4.6286 5.03893 4.29547 5.41478 4.09875 5.85451C3.90203 6.29425 3.85056 6.77812 3.95085 7.24494C4.05113 7.71176 4.29867 8.14056 4.66216 8.47712C5.02565 8.81368 5.48877 9.04288 5.99294 9.13573C6.49712 9.22859 7.01971 9.18093 7.49463 8.99879C7.96955 8.81664 8.37548 8.50819 8.66107 8.11244C8.94666 7.71669 9.09909 7.25142 9.09909 6.77545C9.09909 6.1372 8.82526 5.52509 8.33784 5.07378C7.85041 4.62247 7.18932 4.36893 6.5 4.36893ZM6.5 7.97871C6.24297 7.97871 5.99172 7.90814 5.77801 7.77593C5.5643 7.64371 5.39773 7.45579 5.29938 7.23592C5.20102 7.01605 5.17528 6.77412 5.22542 6.54071C5.27557 6.3073 5.39934 6.09289 5.58108 5.92462C5.76283 5.75634 5.99438 5.64174 6.24647 5.59531C6.49856 5.54888 6.75985 5.57271 6.99732 5.66378C7.23478 5.75485 7.43774 5.90908 7.58053 6.10695C7.72333 6.30483 7.79955 6.53747 7.79955 6.77545C7.79955 7.09457 7.66263 7.40063 7.41892 7.62628C7.17521 7.85194 6.84466 7.97871 6.5 7.97871Z" fill="#505467"/>
<path d="M0.88304 12.1977L1.22274 11.8308L0.883041 12.1977C1.31833 12.6008 2.00931 12.6008 2.4446 12.1977L2.1049 11.8308L2.4446 12.1977L13.0773 2.35285C13.5346 1.9294 13.5346 1.22573 13.0773 0.802282C12.642 0.399239 11.951 0.39924 11.5157 0.802281L0.88304 10.6472C0.425705 11.0706 0.425705 11.7743 0.88304 12.1977Z" fill="#505467" stroke="white" stroke-linecap="round"/>
</svg>