<svg width="28" height="28" viewBox="0 0 28 28" fill="none" xmlns="http://www.w3.org/2000/svg">
<path d="M14.0004 2.3335C9.70477 2.3335 6.22266 5.81561 6.22266 10.1113V17.8891H9.33377V10.1113C9.33377 7.5345 11.4229 5.44461 14.0004 5.44461C16.578 5.44461 18.6671 7.5345 18.6671 10.1113V17.8891H21.7782V10.1113C21.7782 5.81561 18.2961 2.3335 14.0004 2.3335Z" fill="#AAB8C2"/>
<path d="M24.1109 24.8888C24.1109 26.6069 22.7179 27.9999 20.9998 27.9999H6.99978C5.28167 27.9999 3.88867 26.6069 3.88867 24.8888V15.5554C3.88867 13.8373 5.28167 12.4443 6.99978 12.4443H20.9998C22.7179 12.4443 24.1109 13.8373 24.1109 15.5554V24.8888Z" fill="#FFAC33"/>
</svg>
