<svg width="17" height="10" viewBox="0 0 17 10" fill="none" xmlns="http://www.w3.org/2000/svg">
<path d="M1 2.47338V8.5C1 8.77614 1.22386 9 1.5 9H15.5C15.7761 9 16 8.77614 16 8.5V2.47338C16 1.99561 15.3941 1.78998 15.1033 2.16907L12.6467 5.37167C12.4466 5.63259 12.0534 5.63259 11.8533 5.37167L8.89673 1.51722C8.69659 1.2563 8.30341 1.2563 8.10327 1.51722L5.14673 5.37167C4.94659 5.63259 4.55341 5.63259 4.35327 5.37167L1.89673 2.16907C1.60595 1.78998 1 1.99561 1 2.47338Z" fill="#FFCF24" stroke="#FFCF24" stroke-width="1.5"/>
</svg>
