<svg width="18" height="18" viewBox="0 0 18 18" fill="none" xmlns="http://www.w3.org/2000/svg">
<path d="M9 1.5C7.51664 1.5 6.0666 1.93987 4.83323 2.76398C3.59986 3.58809 2.63856 4.75943 2.07091 6.12987C1.50325 7.50032 1.35472 9.00832 1.64411 10.4632C1.9335 11.918 2.64781 13.2544 3.6967 14.3033C4.7456 15.3522 6.08197 16.0665 7.53683 16.3559C8.99168 16.6453 10.4997 16.4968 11.8701 15.9291C13.2406 15.3614 14.4119 14.4001 15.236 13.1668C16.0601 11.9334 16.5 10.4834 16.5 9C16.5 8.01509 16.306 7.03982 15.9291 6.12987C15.5522 5.21993 14.9997 4.39314 14.3033 3.6967C13.6069 3.00026 12.7801 2.44781 11.8701 2.0709C10.9602 1.69399 9.98492 1.5 9 1.5ZM9 15C7.81332 15 6.65328 14.6481 5.66658 13.9888C4.67989 13.3295 3.91085 12.3925 3.45673 11.2961C3.0026 10.1997 2.88378 8.99334 3.11529 7.82946C3.3468 6.66557 3.91825 5.59647 4.75736 4.75736C5.59648 3.91824 6.66558 3.3468 7.82946 3.11529C8.99335 2.88378 10.1997 3.0026 11.2961 3.45672C12.3925 3.91085 13.3295 4.67988 13.9888 5.66658C14.6481 6.65327 15 7.81331 15 9C15 10.5913 14.3679 12.1174 13.2426 13.2426C12.1174 14.3679 10.5913 15 9 15ZM13.215 6.8475C12.7858 6.44024 12.2167 6.21321 11.625 6.21321C11.0333 6.21321 10.4642 6.44024 10.035 6.8475C9.91213 6.99098 9.84793 7.17553 9.85522 7.36429C9.86251 7.55305 9.94076 7.7321 10.0743 7.86567C10.2079 7.99924 10.387 8.07749 10.5757 8.08478C10.7645 8.09207 10.949 8.02787 11.0925 7.905C11.1622 7.8347 11.2452 7.77891 11.3366 7.74083C11.428 7.70275 11.526 7.68315 11.625 7.68315C11.724 7.68315 11.822 7.70275 11.9134 7.74083C12.0048 7.77891 12.0878 7.8347 12.1575 7.905C12.298 8.04469 12.4881 8.12309 12.6863 8.12309C12.8844 8.12309 13.0745 8.04469 13.215 7.905C13.3547 7.76448 13.4331 7.57439 13.4331 7.37625C13.4331 7.17811 13.3547 6.98802 13.215 6.8475ZM6.75 8.25C6.89834 8.25 7.04334 8.20601 7.16668 8.1236C7.29002 8.04119 7.38615 7.92406 7.44291 7.78701C7.49968 7.64997 7.51453 7.49917 7.48559 7.35368C7.45665 7.2082 7.38522 7.07456 7.28033 6.96967C7.17544 6.86478 7.04181 6.79335 6.89632 6.76441C6.75084 6.73547 6.60004 6.75032 6.46299 6.80709C6.32595 6.86386 6.20881 6.95999 6.1264 7.08332C6.04399 7.20666 6 7.35166 6 7.5C6 7.69891 6.07902 7.88968 6.21967 8.03033C6.36033 8.17098 6.55109 8.25 6.75 8.25ZM11.25 9.75H6.75C6.55109 9.75 6.36033 9.82902 6.21967 9.96967C6.07902 10.1103 6 10.3011 6 10.5C6 10.6989 6.07902 10.8897 6.21967 11.0303C6.36033 11.171 6.55109 11.25 6.75 11.25C6.75 11.8467 6.98706 12.419 7.40901 12.841C7.83097 13.2629 8.40327 13.5 9 13.5C9.59674 13.5 10.169 13.2629 10.591 12.841C11.013 12.419 11.25 11.8467 11.25 11.25C11.4489 11.25 11.6397 11.171 11.7803 11.0303C11.921 10.8897 12 10.6989 12 10.5C12 10.3011 11.921 10.1103 11.7803 9.96967C11.6397 9.82902 11.4489 9.75 11.25 9.75ZM9 12C8.80109 12 8.61033 11.921 8.46967 11.7803C8.32902 11.6397 8.25 11.4489 8.25 11.25H9.75C9.75 11.4489 9.67099 11.6397 9.53033 11.7803C9.38968 11.921 9.19892 12 9 12Z" fill="#717488"/>
</svg>
