<svg width="13" height="11" viewBox="0 0 13 11" fill="none" xmlns="http://www.w3.org/2000/svg">
<path d="M12.9458 5.5348C11.6332 2.71315 9.16407 0.962402 6.5 0.962402C3.83593 0.962402 1.36679 2.71315 0.0542462 5.5348C0.0184675 5.6107 0 5.69263 0 5.77545C0 5.85827 0.0184675 5.9402 0.0542462 6.0161C1.36679 8.83775 3.83593 10.5885 6.5 10.5885C9.16407 10.5885 11.6332 8.83775 12.9458 6.0161C12.9815 5.9402 13 5.85827 13 5.77545C13 5.69263 12.9815 5.6107 12.9458 5.5348ZM6.5 9.38523C4.44022 9.38523 2.4909 8.0075 1.36679 5.77545C2.4909 3.5434 4.44022 2.16566 6.5 2.16566C8.55978 2.16566 10.5091 3.5434 11.6332 5.77545C10.5091 8.0075 8.55978 9.38523 6.5 9.38523ZM6.5 3.36893C5.98595 3.36893 5.48344 3.51007 5.05602 3.7745C4.6286 4.03893 4.29547 4.41478 4.09875 4.85451C3.90203 5.29425 3.85056 5.77812 3.95085 6.24494C4.05113 6.71176 4.29867 7.14056 4.66216 7.47712C5.02565 7.81368 5.48877 8.04288 5.99294 8.13573C6.49712 8.22859 7.01971 8.18093 7.49463 7.99879C7.96955 7.81664 8.37548 7.50819 8.66107 7.11244C8.94666 6.71669 9.09909 6.25142 9.09909 5.77545C9.09909 5.1372 8.82526 4.52509 8.33784 4.07378C7.85041 3.62247 7.18932 3.36893 6.5 3.36893ZM6.5 6.97871C6.24297 6.97871 5.99172 6.90814 5.77801 6.77593C5.5643 6.64371 5.39773 6.45579 5.29938 6.23592C5.20102 6.01605 5.17528 5.77412 5.22542 5.54071C5.27557 5.3073 5.39934 5.09289 5.58108 4.92462C5.76283 4.75634 5.99438 4.64174 6.24647 4.59531C6.49856 4.54888 6.75985 4.57271 6.99732 4.66378C7.23478 4.75485 7.43774 4.90908 7.58053 5.10695C7.72333 5.30483 7.79955 5.53747 7.79955 5.77545C7.79955 6.09457 7.66263 6.40063 7.41892 6.62628C7.17521 6.85194 6.84466 6.97871 6.5 6.97871Z" fill="#505467"/>
</svg>
