<svg width="13" height="13" viewBox="0 0 13 13" fill="none" xmlns="http://www.w3.org/2000/svg">
<path d="M12.9134 0.671342C12.8035 0.406758 12.5932 0.196503 12.3287 0.0866247C12.1985 0.0311405 12.0587 0.00171083 11.9172 0H1.08909C0.80191 0 0.526493 0.114082 0.323426 0.317148C0.12036 0.520214 0.0062785 0.795631 0.0062785 1.08281C0.0062785 1.36999 0.12036 1.64541 0.323426 1.84847C0.526493 2.05154 0.80191 2.16562 1.08909 2.16562H9.30762L0.320293 11.1421C0.218803 11.2428 0.138249 11.3625 0.0832759 11.4945C0.028303 11.6264 0 11.768 0 11.9109C0 12.0539 0.028303 12.1954 0.0832759 12.3273C0.138249 12.4593 0.218803 12.579 0.320293 12.6797C0.420955 12.7812 0.540715 12.8618 0.672665 12.9167C0.804615 12.9717 0.946145 13 1.08909 13C1.23203 13 1.37356 12.9717 1.50551 12.9167C1.63746 12.8618 1.75722 12.7812 1.85788 12.6797L10.8344 3.69238V11.9109C10.8344 12.1981 10.9485 12.4735 11.1515 12.6766C11.3546 12.8796 11.63 12.9937 11.9172 12.9937C12.2044 12.9937 12.4798 12.8796 12.6829 12.6766C12.8859 12.4735 13 12.1981 13 11.9109V1.08281C12.9983 0.941311 12.9689 0.80152 12.9134 0.671342Z" fill="#505467"/>
</svg>
