<svg width="16" height="16" viewBox="0 0 16 16" fill="none" xmlns="http://www.w3.org/2000/svg">
<path d="M5.135 2H6.71C6.90891 2 7.09968 1.92098 7.24033 1.78033C7.38098 1.63968 7.46 1.44891 7.46 1.25C7.46 1.05109 7.38098 0.860322 7.24033 0.71967C7.09968 0.579018 6.90891 0.5 6.71 0.5H5.135C4.93609 0.5 4.74532 0.579018 4.60467 0.71967C4.46402 0.860322 4.385 1.05109 4.385 1.25C4.385 1.44891 4.46402 1.63968 4.60467 1.78033C4.74532 1.92098 4.93609 2 5.135 2ZM1.25 7.46C1.44891 7.46 1.63968 7.38098 1.78033 7.24033C1.92098 7.09968 2 6.90891 2 6.71V5.135C2 4.93609 1.92098 4.74532 1.78033 4.60467C1.63968 4.46402 1.44891 4.385 1.25 4.385C1.05109 4.385 0.860322 4.46402 0.71967 4.60467C0.579018 4.74532 0.5 4.93609 0.5 5.135V6.71C0.5 6.90891 0.579018 7.09968 0.71967 7.24033C0.860322 7.38098 1.05109 7.46 1.25 7.46ZM9.845 2C9.845 2.19891 9.92402 2.38968 10.0647 2.53033C10.2053 2.67098 10.3961 2.75 10.595 2.75C10.7939 2.75 10.9847 2.67098 11.1253 2.53033C11.266 2.38968 11.345 2.19891 11.345 2V1.25C11.345 1.05109 11.266 0.860322 11.1253 0.71967C10.9847 0.579018 10.7939 0.5 10.595 0.5H9.845C9.64609 0.5 9.45532 0.579018 9.31467 0.71967C9.17402 0.860322 9.095 1.05109 9.095 1.25C9.095 1.44891 9.17402 1.63968 9.31467 1.78033C9.45532 1.92098 9.64609 2 9.845 2V2ZM14.75 4.655H11.345C11.345 4.45609 11.266 4.26532 11.1253 4.12467C10.9847 3.98402 10.7939 3.905 10.595 3.905C10.3961 3.905 10.2053 3.98402 10.0647 4.12467C9.92402 4.26532 9.845 4.45609 9.845 4.655H5.405C5.20609 4.655 5.01532 4.73402 4.87467 4.87467C4.73402 5.01532 4.655 5.20609 4.655 5.405V9.845C4.45609 9.845 4.26532 9.92402 4.12467 10.0647C3.98402 10.2053 3.905 10.3961 3.905 10.595C3.905 10.7939 3.98402 10.9847 4.12467 11.1253C4.26532 11.266 4.45609 11.345 4.655 11.345V14.75C4.655 14.9489 4.73402 15.1397 4.87467 15.2803C5.01532 15.421 5.20609 15.5 5.405 15.5H14.75C14.9489 15.5 15.1397 15.421 15.2803 15.2803C15.421 15.1397 15.5 14.9489 15.5 14.75V5.405C15.5 5.20609 15.421 5.01532 15.2803 4.87467C15.1397 4.73402 14.9489 4.655 14.75 4.655V4.655ZM14 14H6.155V10.6025V6.155H14V14ZM2 0.5H1.25C1.05109 0.5 0.860322 0.579018 0.71967 0.71967C0.579018 0.860322 0.5 1.05109 0.5 1.25V2C0.5 2.19891 0.579018 2.38968 0.71967 2.53033C0.860322 2.67098 1.05109 2.75 1.25 2.75C1.44891 2.75 1.63968 2.67098 1.78033 2.53033C1.92098 2.38968 2 2.19891 2 2C2.19891 2 2.38968 1.92098 2.53033 1.78033C2.67098 1.63968 2.75 1.44891 2.75 1.25C2.75 1.05109 2.67098 0.860322 2.53033 0.71967C2.38968 0.579018 2.19891 0.5 2 0.5V0.5ZM2 9.845C2 9.64609 1.92098 9.45532 1.78033 9.31467C1.63968 9.17402 1.44891 9.095 1.25 9.095C1.05109 9.095 0.860322 9.17402 0.71967 9.31467C0.579018 9.45532 0.5 9.64609 0.5 9.845V10.595C0.5 10.7939 0.579018 10.9847 0.71967 11.1253C0.860322 11.266 1.05109 11.345 1.25 11.345H2C2.19891 11.345 2.38968 11.266 2.53033 11.1253C2.67098 10.9847 2.75 10.7939 2.75 10.595C2.75 10.3961 2.67098 10.2053 2.53033 10.0647C2.38968 9.92402 2.19891 9.845 2 9.845Z" fill="#C4C9D7"/>
</svg>
