<svg width="20" height="20" viewBox="0 0 20 20" fill="none" xmlns="http://www.w3.org/2000/svg">
    <g clip-path="url(#clip0_2447_28771)">
        <path
            d="M1.47383 19.4442C0.450492 19.4442 -0.000618971 18.7009 0.470492 17.7925L9.14216 1.09531C9.61383 0.186979 10.3855 0.186979 10.8572 1.09531L19.5288 17.7931C20.001 18.7009 19.5494 19.4442 18.526 19.4442H1.47383Z"
            fill="#FFCC4D" />
        <path
            d="M8.65723 16.0849C8.65723 15.3443 9.26 14.7415 10.0011 14.7415C10.7417 14.7415 11.3444 15.3443 11.3444 16.0849C11.3444 16.826 10.7411 17.4288 10.0011 17.4288C9.26 17.4288 8.65723 16.826 8.65723 16.0849V16.0849ZM8.76056 5.92209C8.76056 5.19875 9.29445 4.75098 10.0006 4.75098C10.69 4.75098 11.2411 5.21598 11.2411 5.92209V12.5543C11.2411 13.2604 10.69 13.7254 10.0006 13.7254C9.29445 13.7254 8.76056 13.2771 8.76056 12.5543V5.92209V5.92209Z"
            fill="#231F20" />
    </g>
    <defs>
        <clipPath id="clip0_2447_28771">
            <rect width="20" height="20" fill="white" />
        </clipPath>
    </defs>
</svg>