<svg width="18" height="18" viewBox="0 0 18 18" fill="none" xmlns="http://www.w3.org/2000/svg">
<path fill-rule="evenodd" clip-rule="evenodd" d="M0.836391 3.40621C0.57721 3.77636 0.667167 4.28654 1.03732 4.54572L2.93297 5.87307C3.30312 6.13225 3.8133 6.04229 4.07248 5.67215C4.33166 5.302 4.2417 4.79182 3.87155 4.53264L1.9759 3.20529C1.60575 2.94611 1.09557 3.03606 0.836391 3.40621Z" fill="black"/>
<path fill-rule="evenodd" clip-rule="evenodd" d="M17.1636 3.40624C17.4228 3.77639 17.3328 4.28657 16.9627 4.54575L15.067 5.8731C14.6969 6.13228 14.1867 6.04233 13.9275 5.67218C13.6683 5.30203 13.7583 4.79185 14.1284 4.53267L16.0241 3.20532C16.3942 2.94614 16.9044 3.03609 17.1636 3.40624Z" fill="black"/>
<path fill-rule="evenodd" clip-rule="evenodd" d="M4.53215 0.85331C4.12261 1.04428 3.94543 1.53108 4.1364 1.94061L5.11441 4.03796C5.30538 4.44749 5.79218 4.62468 6.20171 4.43371C6.61124 4.24274 6.78843 3.75594 6.59746 3.3464L5.61945 1.24906C5.42848 0.839523 4.94168 0.662342 4.53215 0.85331Z" fill="black"/>
<path fill-rule="evenodd" clip-rule="evenodd" d="M8.87002 6.10352e-05C8.41815 6.11041e-05 8.05184 0.366374 8.05184 0.818243V3.13241C8.05184 3.58428 8.41815 3.95059 8.87002 3.95059C9.32189 3.95059 9.68821 3.58428 9.68821 3.13241V0.818243C9.68821 0.366374 9.32189 6.10696e-05 8.87002 6.10352e-05Z" fill="black"/>
<path fill-rule="evenodd" clip-rule="evenodd" d="M13.2082 0.85331C13.6177 1.04428 13.7949 1.53108 13.6039 1.94061L12.6259 4.03796C12.4349 4.44749 11.9481 4.62468 11.5386 4.43371C11.1291 4.24274 10.9519 3.75594 11.1428 3.3464L12.1208 1.24906C12.3118 0.839523 12.7986 0.662342 13.2082 0.85331Z" fill="black"/>
<path fill-rule="evenodd" clip-rule="evenodd" d="M13.7792 12.3115V9.7097C13.7781 8.55044 13.3667 7.42899 12.6179 6.54397C11.8692 5.65895 10.8314 5.06746 9.68833 4.87425V4.86849C9.42225 4.82385 9.14891 4.80061 8.87015 4.80061C8.59138 4.80061 8.31805 4.82385 8.05197 4.86849V4.87425C6.90892 5.06746 5.87112 5.65895 5.12237 6.54397C4.37362 7.42899 3.96223 8.55044 3.96106 9.7097V12.3115C3.48361 12.4803 3.07006 12.7927 2.7771 13.2057C2.48414 13.6188 2.32612 14.1124 2.32469 14.6188V16.2552C2.32469 16.4722 2.41089 16.6803 2.56433 16.8337C2.71777 16.9871 2.92588 17.0733 3.14288 17.0733H14.5974C14.8144 17.0733 15.0225 16.9871 15.176 16.8337C15.3294 16.6803 15.4156 16.4722 15.4156 16.2552V14.6188C15.4142 14.1124 15.2562 13.6188 14.9632 13.2057C14.6702 12.7927 14.2567 12.4803 13.7792 12.3115ZM5.59742 9.7097C5.59742 8.84172 5.94222 8.00929 6.55598 7.39553C7.16974 6.78178 8.00217 6.43697 8.87015 6.43697C9.73813 6.43697 10.5706 6.78178 11.1843 7.39553C11.7981 8.00929 12.1429 8.84172 12.1429 9.7097V12.1642H5.59742V9.7097ZM3.96106 15.437V14.6188C3.96106 14.4018 4.04726 14.1937 4.2007 14.0403C4.35414 13.8868 4.56224 13.8006 4.77924 13.8006H12.9611C13.1781 13.8006 13.3862 13.8868 13.5396 14.0403C13.693 14.1937 13.7792 14.4018 13.7792 14.6188V15.437H3.96106Z" fill="black"/>
</svg>
