<svg width="26" height="24" viewBox="0 0 26 24" fill="none" xmlns="http://www.w3.org/2000/svg">
<path d="M12.4154 8.29189C12.3147 8.19816 12.1949 8.12377 12.0629 8.073C11.9309 8.02223 11.7893 7.99609 11.6463 7.99609C11.5032 7.99609 11.3616 8.02223 11.2296 8.073C11.0976 8.12377 10.9778 8.19816 10.8771 8.29189L7.62709 11.2919C7.52555 11.3849 7.44496 11.4955 7.38996 11.6173C7.33496 11.7392 7.30664 11.8699 7.30664 12.0019C7.30664 12.1339 7.33496 12.2646 7.38996 12.3865C7.44496 12.5083 7.52555 12.6189 7.62709 12.7119L10.8771 15.7119C10.9778 15.8056 11.0976 15.88 11.2296 15.9308C11.3616 15.9816 11.5032 16.0077 11.6463 16.0077C11.7893 16.0077 11.9309 15.9816 12.0629 15.9308C12.1949 15.88 12.3147 15.8056 12.4154 15.7119C12.517 15.6189 12.5976 15.5083 12.6526 15.3865C12.7076 15.2646 12.7359 15.1339 12.7359 15.0019C12.7359 14.8699 12.7076 14.7392 12.6526 14.6173C12.5976 14.4955 12.517 14.3849 12.4154 14.2919L9.92376 12.0019L12.4154 9.71189C12.517 9.61893 12.5976 9.50833 12.6526 9.38647C12.7076 9.26461 12.7359 9.1339 12.7359 9.00189C12.7359 8.86988 12.7076 8.73917 12.6526 8.61732C12.5976 8.49546 12.517 8.38486 12.4154 8.29189ZM15.8821 12.0019L18.4171 9.71189C18.6211 9.52359 18.7357 9.26819 18.7357 9.00189C18.7357 8.73559 18.6211 8.4802 18.4171 8.29189C18.2131 8.10359 17.9364 7.9978 17.6479 7.9978C17.3594 7.9978 17.0828 8.10359 16.8788 8.29189L13.6288 11.2919C13.5272 11.3849 13.4466 11.4955 13.3916 11.6173C13.3366 11.7392 13.3083 11.8699 13.3083 12.0019C13.3083 12.1339 13.3366 12.2646 13.3916 12.3865C13.4466 12.5083 13.5272 12.6189 13.6288 12.7119L16.8788 15.7119C16.9795 15.8056 17.0993 15.88 17.2313 15.9308C17.3633 15.9816 17.5049 16.0077 17.6479 16.0077C17.7909 16.0077 17.9325 15.9816 18.0645 15.9308C18.1966 15.88 18.3164 15.8056 18.4171 15.7119C18.5186 15.6189 18.5992 15.5083 18.6542 15.3865C18.7092 15.2646 18.7375 15.1339 18.7375 15.0019C18.7375 14.8699 18.7092 14.7392 18.6542 14.6173C18.5992 14.4955 18.5186 14.3849 18.4171 14.2919L15.8821 12.0019Z" fill="#505467"/>
</svg>
