<svg width="20" height="23" viewBox="0 0 20 23" fill="none" xmlns="http://www.w3.org/2000/svg">
<path d="M7 10H13" stroke="#83879D" stroke-width="1.75" stroke-linecap="round"/>
<path d="M10 7L10 13" stroke="#83879D" stroke-width="1.75" stroke-linecap="round"/>
<mask id="path-3-inside-1_8037_105658" fill="white">
<path d="M19.8026 9.15752C19.7053 7.30609 19.0566 5.52219 17.9357 4.02326C16.8148 2.52434 15.2701 1.37513 13.4898 0.715713C11.7095 0.0562947 9.77051 -0.0848519 7.90922 0.309478C6.04792 0.703808 4.3447 1.61658 3.00714 2.93654C1.66959 4.25651 0.755479 5.92664 0.376234 7.74338C-0.00301093 9.56013 0.168988 11.445 0.871268 13.1683C1.57355 14.8915 2.77577 16.3788 4.33141 17.4487C5.7193 18.4032 7.33501 18.9888 9.01912 19.1529C9.33474 19.1837 9.56173 19.4832 9.47095 19.787C9.29208 20.3857 9.06869 20.9707 8.80262 21.5375C8.62699 21.9117 8.92706 22.347 9.33171 22.2628C12.1214 21.6827 14.6543 20.2392 16.543 18.1354C18.6535 15.7846 19.8164 12.7686 19.8161 9.6469C19.8161 9.48203 19.8107 9.33286 19.8026 9.15752Z"/>
</mask>
<path d="M19.8026 9.15752L21.8005 9.0656L21.7998 9.05254L19.8026 9.15752ZM19.8161 9.6469H17.8161V9.64712L19.8161 9.6469ZM8.80262 21.5375L10.6131 22.3874L8.80262 21.5375ZM9.33171 22.2628L8.92449 20.3047L9.33171 22.2628ZM9.01912 19.1529L8.8251 21.1435L9.01912 19.1529ZM21.7998 9.05254C21.6815 6.80172 20.893 4.63829 19.5374 2.82552L16.3341 5.22101C17.2203 6.40609 17.729 7.81045 17.8054 9.2625L21.7998 9.05254ZM19.5374 2.82552C18.1823 1.01337 16.3206 -0.368558 14.1845 -1.15977L12.7951 2.5912C14.2196 3.11882 15.4474 4.03531 16.3341 5.22101L19.5374 2.82552ZM14.1845 -1.15977C12.0487 -1.95084 9.72511 -2.11962 7.4947 -1.64709L8.32373 2.26605C9.81592 1.94992 11.3703 2.06343 12.7951 2.5912L14.1845 -1.15977ZM7.4947 -1.64709C5.26406 -1.17452 3.21578 -0.0792321 1.60232 1.513L4.41196 4.36009C5.47362 3.3124 6.83178 2.58213 8.32373 2.26605L7.4947 -1.64709ZM1.60232 1.513C-0.0116705 3.10576 -1.12081 5.12751 -1.58156 7.33469L2.33403 8.15208C2.63177 6.72578 3.35085 5.40725 4.41196 4.36009L1.60232 1.513ZM-1.58156 7.33469C-2.04239 9.54225 -1.83293 11.8322 -0.980839 13.9231L2.72337 12.4135C2.17091 11.0578 2.03637 9.578 2.33403 8.15208L-1.58156 7.33469ZM-0.980839 13.9231C-0.128986 16.0133 1.32581 17.8089 3.19806 19.0965L5.46476 15.8008C4.22574 14.9486 3.27608 13.7697 2.72337 12.4135L-0.980839 13.9231ZM3.19806 19.0965C4.86808 20.2451 6.80767 20.9469 8.8251 21.1435L9.21313 17.1624C7.86235 17.0307 6.57052 16.5613 5.46476 15.8008L3.19806 19.0965ZM7.55465 19.2145C7.40423 19.7179 7.21626 20.2103 6.99218 20.6876L10.6131 22.3874C10.9211 21.7312 11.1799 21.0534 11.3872 20.3596L7.55465 19.2145ZM9.73894 24.2209C12.9384 23.5556 15.8526 21.8984 18.0313 19.4715L15.0548 16.7993C13.4561 18.5801 11.3044 19.8098 8.92449 20.3047L9.73894 24.2209ZM18.0313 19.4715C20.4669 16.7584 21.8164 13.2682 21.8161 9.64669L17.8161 9.64712C17.8163 12.269 16.8401 14.8107 15.0548 16.7993L18.0313 19.4715ZM21.8161 9.6469C21.8161 9.43652 21.8091 9.25185 21.8005 9.0656L17.8047 9.24944C17.8123 9.41387 17.8161 9.52754 17.8161 9.6469H21.8161ZM6.99218 20.6876C6.57787 21.5702 6.72513 22.5389 7.22217 23.2346C7.73431 23.9515 8.67644 24.4419 9.73894 24.2209L8.92449 20.3047C9.58233 20.1679 10.1721 20.4827 10.477 20.9095C10.7667 21.3151 10.8517 21.879 10.6131 22.3874L6.99218 20.6876ZM8.8251 21.1435C8.04509 21.0675 7.2413 20.2633 7.55465 19.2145L11.3872 20.3596C11.8822 18.7031 10.6244 17.2999 9.21313 17.1624L8.8251 21.1435Z" fill="#83879D" mask="url(#path-3-inside-1_8037_105658)"/>
</svg>
