<svg width="22" height="20" viewBox="0 0 22 20" fill="none" xmlns="http://www.w3.org/2000/svg">
    <path fill-rule="evenodd" clip-rule="evenodd"
        d="M1.72139 2.04688C1.2623 2.04688 0.890137 2.41904 0.890137 2.87813C0.890137 3.33721 1.2623 3.70938 1.72139 3.70938H17.3964C17.8555 3.70938 18.2276 3.33721 18.2276 2.87813C18.2276 2.41904 17.8555 2.04688 17.3964 2.04688H1.72139ZM1.72139 5.99902C1.2623 5.99902 0.890137 6.37119 0.890137 6.83027C0.890137 7.28936 1.2623 7.66152 1.72139 7.66152H17.3964C17.8555 7.66152 18.2276 7.28936 18.2276 6.83027C18.2276 6.37119 17.8555 5.99902 17.3964 5.99902H1.72139ZM1.72139 9.95117C1.2623 9.95117 0.890137 10.3233 0.890137 10.7824C0.890137 11.2415 1.2623 11.6137 1.72139 11.6137H12.4668C12.9461 10.9587 13.5419 10.3944 14.2237 9.95117H1.72139ZM11.3867 13.9033C11.2526 14.431 11.1813 14.9837 11.1813 15.5531C11.1813 15.5573 11.1814 15.5616 11.1814 15.5658H1.72139C1.2623 15.5658 0.890137 15.1937 0.890137 14.7346C0.890137 14.2755 1.2623 13.9033 1.72139 13.9033H11.3867Z"
        fill="#717688" />
    <path d="M14.2656 14.7363H20.2656" stroke="#717688" stroke-width="1.6625" stroke-linecap="round" />
    <path d="M17.2656 11.7363L17.2656 17.7363" stroke="#717688" stroke-width="1.6625" stroke-linecap="round" />
</svg>