<svg width="12" height="12" viewBox="0 0 12 12" fill="none" xmlns="http://www.w3.org/2000/svg">
<path d="M11.2501 5.41687C11.0954 5.41687 10.947 5.47833 10.8376 5.58772C10.7282 5.69712 10.6667 5.84549 10.6667 6.0002C10.6737 7.0928 10.2994 8.15363 9.60838 8.99997C8.91735 9.84631 7.95281 10.4252 6.88089 10.6369C5.80898 10.8486 4.69679 10.6799 3.73588 10.1598C2.77496 9.63976 2.02549 8.80088 1.61652 7.78768C1.20756 6.77448 1.16471 5.65039 1.49536 4.609C1.82601 3.56761 2.50946 2.67412 3.42799 2.08241C4.34653 1.4907 5.44265 1.23782 6.52757 1.36732C7.61249 1.49682 8.61829 2.00059 9.37175 2.79187H7.97175C7.81704 2.79187 7.66867 2.85333 7.55927 2.96272C7.44987 3.07212 7.38842 3.22049 7.38842 3.3752C7.38842 3.52991 7.44987 3.67829 7.55927 3.78768C7.66867 3.89708 7.81704 3.95854 7.97175 3.95854H10.6143C10.769 3.95854 10.9173 3.89708 11.0267 3.78768C11.1361 3.67829 11.1976 3.52991 11.1976 3.3752V0.750203C11.1976 0.595494 11.1361 0.44712 11.0267 0.337724C10.9173 0.228328 10.769 0.16687 10.6143 0.16687C10.4595 0.16687 10.3112 0.228328 10.2018 0.337724C10.0924 0.44712 10.0309 0.595494 10.0309 0.750203V1.7827C9.05947 0.854071 7.79719 0.289342 6.45743 0.183979C5.11767 0.0786149 3.78262 0.439079 2.67795 1.20444C1.57329 1.9698 0.766772 3.09311 0.394733 4.38448C0.0226943 5.67585 0.107956 7.05608 0.636104 8.29185C1.16425 9.52761 2.10289 10.5431 3.29336 11.1667C4.48382 11.7903 5.85308 11.9837 7.16969 11.7142C8.4863 11.4448 9.66948 10.729 10.5192 9.68785C11.369 8.64671 11.8332 7.3441 11.8334 6.0002C11.8334 5.84549 11.772 5.69712 11.6626 5.58772C11.5532 5.47833 11.4048 5.41687 11.2501 5.41687Z" fill="white"/>
</svg>
