<svg width="12" height="16" viewBox="0 0 12 16" fill="none" xmlns="http://www.w3.org/2000/svg">
<path d="M9.75 0.5H0.75C0.551088 0.5 0.360322 0.579018 0.21967 0.71967C0.0790178 0.860322 0 1.05109 0 1.25V14.75C0 14.9489 0.0790178 15.1397 0.21967 15.2803C0.360322 15.421 0.551088 15.5 0.75 15.5H9.75C10.3467 15.5 10.919 15.2629 11.341 14.841C11.7629 14.419 12 13.8467 12 13.25V2.75C12 2.15326 11.7629 1.58097 11.341 1.15901C10.919 0.737053 10.3467 0.5 9.75 0.5ZM3 14H1.5V2H3V14ZM10.5 13.25C10.5 13.4489 10.421 13.6397 10.2803 13.7803C10.1397 13.921 9.94891 14 9.75 14H4.5V2H9.75C9.94891 2 10.1397 2.07902 10.2803 2.21967C10.421 2.36032 10.5 2.55109 10.5 2.75V13.25Z" fill="black"/>
</svg>
