<svg width="18" height="19" viewBox="0 0 18 19" fill="none" xmlns="http://www.w3.org/2000/svg">
<g clip-path="url(#clip0_272_9151)">
<path fill-rule="evenodd" clip-rule="evenodd" d="M17.9999 9.71558C18.0006 9.06377 17.9448 8.4132 17.8329 7.77173H9.18115V11.4464H14.1239C14.0213 12.0271 13.8061 12.5802 13.4911 13.0724C13.1762 13.5646 12.7681 13.9857 12.2915 14.3103V16.6945H15.259C16.9954 15.0406 17.9973 12.6045 17.9973 9.71379L17.9999 9.71558Z" fill="#3E82F1"/>
<path fill-rule="evenodd" clip-rule="evenodd" d="M9.18388 18.9991C11.6635 18.9991 13.7425 18.1489 15.2617 16.6981L12.2942 14.3139C11.4714 14.884 10.4193 15.2214 9.18388 15.2214C6.79166 15.2214 4.76715 13.5497 4.04559 11.3042H0.976807V13.7662C1.74126 15.3398 2.91364 16.6625 4.36294 17.5866C5.81224 18.5107 7.48138 18.9997 9.18388 18.9991Z" fill="#32A753"/>
<path fill-rule="evenodd" clip-rule="evenodd" d="M4.04551 11.3043C3.66138 10.134 3.66138 8.86526 4.04551 7.69495V5.23291H0.97673C0.334455 6.55709 0 8.01812 0 9.49963C0 10.9811 0.334455 12.4422 0.97673 13.7664L4.04551 11.3043Z" fill="#F9BB00"/>
<path fill-rule="evenodd" clip-rule="evenodd" d="M9.18386 3.77762C10.5327 3.77762 11.743 4.25732 12.6947 5.19882L15.3283 2.47367C13.7381 0.940605 11.6591 6.57211e-07 9.18558 6.57211e-07C7.48309 -0.000654391 5.81395 0.488372 4.36465 1.41245C2.91534 2.33652 1.74297 3.65924 0.978516 5.23283L4.0473 7.69486C4.76886 5.44941 6.79337 3.77762 9.18558 3.77762H9.18386Z" fill="#E74133"/>
</g>
<defs>
<clipPath id="clip0_272_9151">
<rect width="18" height="19" fill="white"/>
</clipPath>
</defs>
</svg>
