<svg width="18" height="18" viewBox="0 0 18 18" fill="none" xmlns="http://www.w3.org/2000/svg">
    <path
        d="M12.25 5.49995H4.75C4.55109 5.49995 4.36032 5.5737 4.21967 5.70497C4.07902 5.83625 4 6.01429 4 6.19994C4 6.38559 4.07902 6.56364 4.21967 6.69491C4.36032 6.82618 4.55109 6.89993 4.75 6.89993H12.25C12.4489 6.89993 12.6397 6.82618 12.7803 6.69491C12.921 6.56364 13 6.38559 13 6.19994C13 6.01429 12.921 5.83625 12.7803 5.70497C12.6397 5.5737 12.4489 5.49995 12.25 5.49995ZM12.25 8.29991H4.75C4.55109 8.29991 4.36032 8.37366 4.21967 8.50493C4.07902 8.63621 4 8.81425 4 8.9999C4 9.18555 4.07902 9.3636 4.21967 9.49487C4.36032 9.62614 4.55109 9.69989 4.75 9.69989H12.25C12.4489 9.69989 12.6397 9.62614 12.7803 9.49487C12.921 9.3636 13 9.18555 13 8.9999C13 8.81425 12.921 8.63621 12.7803 8.50493C12.6397 8.37366 12.4489 8.29991 12.25 8.29991ZM13.75 2H3.25C2.65326 2 2.08097 2.22125 1.65901 2.61507C1.23705 3.00889 1 3.54302 1 4.09997V11.0999C1 11.6568 1.23705 12.191 1.65901 12.5848C2.08097 12.9786 2.65326 13.1998 3.25 13.1998H11.9425L14.7175 15.7968C14.7876 15.8617 14.8707 15.913 14.9621 15.9478C15.0534 15.9827 15.1513 16.0003 15.25 15.9998C15.3484 16.0022 15.446 15.983 15.535 15.9438C15.672 15.8913 15.7892 15.8021 15.872 15.6875C15.9547 15.5729 15.9993 15.438 16 15.2998V4.09997C16 3.54302 15.7629 3.00889 15.341 2.61507C14.919 2.22125 14.3467 2 13.75 2ZM14.5 13.6128L12.7825 12.0029C12.7124 11.938 12.6293 11.8867 12.5379 11.8518C12.4466 11.817 12.3487 11.7993 12.25 11.7999H3.25C3.05109 11.7999 2.86032 11.7261 2.71967 11.5948C2.57902 11.4636 2.5 11.2855 2.5 11.0999V4.09997C2.5 3.91432 2.57902 3.73628 2.71967 3.605C2.86032 3.47373 3.05109 3.39998 3.25 3.39998H13.75C13.9489 3.39998 14.1397 3.47373 14.2803 3.605C14.421 3.73628 14.5 3.91432 14.5 4.09997V13.6128Z"
        fill="#717488" />
</svg>