<svg width="28" height="28" viewBox="0 0 28 28" fill="none" xmlns="http://www.w3.org/2000/svg">
<path d="M25.3666 2.65544C22.0191 -0.692113 16.5917 -0.692113 13.2434 2.65544C10.606 5.29366 10.0561 9.21911 11.5758 12.4049L8.53007 15.4499C8.03229 15.9484 7.87596 16.65 8.04396 17.2847L6.5094 18.8184C6.13685 18.4451 5.53562 18.4451 5.16307 18.8184L3.81673 20.1656C3.44418 20.5381 3.44418 21.1401 3.81673 21.5127L3.1424 22.1847C2.76985 21.8129 2.16785 21.8129 1.79607 22.1847L1.12251 22.859C0.749956 23.2316 0.749956 23.8336 1.12251 24.2061C1.13418 24.2186 1.15051 24.2217 1.16218 24.2318C0.544623 25.1566 0.642623 26.4189 1.45929 27.2363C2.38873 28.1658 3.89685 28.1658 4.82629 27.2363L15.618 16.4454C18.8045 17.966 22.73 17.4153 25.3674 14.7763C28.7134 11.4303 28.7134 6.003 25.3666 2.65544V2.65544ZM24.0203 6.696C23.276 7.43955 22.0688 7.43955 21.3261 6.696C20.5825 5.95244 20.5825 4.74611 21.3261 4.00178C22.0688 3.25822 23.276 3.25822 24.0203 4.00178C24.7638 4.74611 24.7638 5.95244 24.0203 6.696Z" fill="#C1694F"/>
</svg>
