<svg width="18" height="17" viewBox="0 0 18 17" fill="none" xmlns="http://www.w3.org/2000/svg">
<path d="M14.8334 0.166992H3.16675C2.50371 0.166992 1.86782 0.430384 1.39898 0.899225C0.93014 1.36807 0.666748 2.00395 0.666748 2.66699V14.3337C0.666748 14.9967 0.93014 15.6326 1.39898 16.1014C1.86782 16.5703 2.50371 16.8337 3.16675 16.8337H14.8334C14.9705 16.8317 15.1071 16.8178 15.2417 16.792L15.4917 16.7337H15.5501H15.5917L15.9001 16.617L16.0084 16.5587C16.0917 16.5087 16.1834 16.467 16.2667 16.4087C16.378 16.3268 16.4838 16.2377 16.5834 16.142L16.6417 16.067C16.7236 15.9841 16.7988 15.8949 16.8667 15.8003L16.9417 15.692C17 15.5992 17.0501 15.5016 17.0917 15.4003C17.1146 15.3603 17.1341 15.3185 17.1501 15.2753C17.1917 15.1753 17.2167 15.067 17.2501 14.9587V14.8337C17.2973 14.6708 17.3253 14.503 17.3334 14.3337V2.66699C17.3334 2.00395 17.07 1.36807 16.6012 0.899225C16.1323 0.430384 15.4965 0.166992 14.8334 0.166992ZM3.16675 15.167C2.94573 15.167 2.73377 15.0792 2.57749 14.9229C2.42121 14.7666 2.33341 14.5547 2.33341 14.3337V10.742L5.07508 7.99199C5.15255 7.91389 5.24472 7.85189 5.34627 7.80958C5.44782 7.76728 5.55674 7.74549 5.66675 7.74549C5.77676 7.74549 5.88568 7.76728 5.98723 7.80958C6.08878 7.85189 6.18095 7.91389 6.25842 7.99199L13.4251 15.167H3.16675ZM15.6667 14.3337C15.666 14.4364 15.6462 14.5381 15.6084 14.6337C15.5894 14.6743 15.5671 14.7133 15.5417 14.7503C15.5195 14.7856 15.4944 14.819 15.4667 14.8503L11.0084 10.392L11.7417 9.65866C11.8192 9.58055 11.9114 9.51856 12.0129 9.47625C12.1145 9.43394 12.2234 9.41216 12.3334 9.41216C12.4434 9.41216 12.5523 9.43394 12.6539 9.47625C12.7554 9.51856 12.8476 9.58055 12.9251 9.65866L15.6667 12.4087V14.3337ZM15.6667 10.0503L14.1001 8.50033C13.6232 8.04782 12.9908 7.79556 12.3334 7.79556C11.676 7.79556 11.0436 8.04782 10.5667 8.50033L9.83342 9.23366L7.43341 6.83366C6.95652 6.38115 6.32416 6.12889 5.66675 6.12889C5.00933 6.12889 4.37698 6.38115 3.90008 6.83366L2.33341 8.38366V2.66699C2.33341 2.44598 2.42121 2.23402 2.57749 2.07774C2.73377 1.92146 2.94573 1.83366 3.16675 1.83366H14.8334C15.0544 1.83366 15.2664 1.92146 15.4227 2.07774C15.579 2.23402 15.6667 2.44598 15.6667 2.66699V10.0503Z" fill="#717488"/>
</svg>
