<svg width="22" height="22" viewBox="0 0 22 22" fill="none" xmlns="http://www.w3.org/2000/svg">
<circle cx="11" cy="11" r="10.25" fill="white" stroke="#83879D" stroke-width="1.5"/>
<path d="M13.292 10.5419L9.6253 6.80971C9.3634 6.54781 8.97054 6.54781 8.70864 6.80971C8.44673 7.07161 8.44673 7.46447 8.70864 7.72638L11.917 10.9347L8.70864 14.143C8.57768 14.274 8.51221 14.4049 8.51221 14.6014C8.51221 14.9942 8.77411 15.2561 9.16697 15.2561C9.3634 15.2561 9.49435 15.1907 9.6253 15.0597L13.3574 11.3276C13.5539 11.1966 13.5539 10.8038 13.292 10.5419Z" fill="#83879D"/>
</svg>
