<svg width="34" height="32" viewBox="0 0 34 32" fill="none" xmlns="http://www.w3.org/2000/svg">
<path d="M26 19.9661H8C7.73478 19.9661 7.48043 20.0732 7.29289 20.264C7.10536 20.4547 7 20.7133 7 20.9831C7 21.2528 7.10536 21.5114 7.29289 21.7021C7.48043 21.8929 7.73478 22 8 22H26C26.2652 22 26.5196 21.8929 26.7071 21.7021C26.8946 21.5114 27 21.2528 27 20.9831C27 20.7133 26.8946 20.4547 26.7071 20.264C26.5196 20.0732 26.2652 19.9661 26 19.9661ZM26 14.8814H8C7.73478 14.8814 7.48043 14.9885 7.29289 15.1792C7.10536 15.3699 7 15.6286 7 15.8983C7 16.168 7.10536 16.4267 7.29289 16.6174C7.48043 16.8081 7.73478 16.9153 8 16.9153H26C26.2652 16.9153 26.5196 16.8081 26.7071 16.6174C26.8946 16.4267 27 16.168 27 15.8983C27 15.6286 26.8946 15.3699 26.7071 15.1792C26.5196 14.9885 26.2652 14.8814 26 14.8814ZM26 10H8C7.73478 10 7.48043 10.1071 7.29289 10.2979C7.10536 10.4886 7 10.7472 7 11.0169C7 11.2867 7.10536 11.5453 7.29289 11.736C7.48043 11.9268 7.73478 12.0339 8 12.0339H26C26.2652 12.0339 26.5196 11.9268 26.7071 11.736C26.8946 11.5453 27 11.2867 27 11.0169C27 10.7472 26.8946 10.4886 26.7071 10.2979C26.5196 10.1071 26.2652 10 26 10Z" fill="#505467"/>
</svg>
