<svg width="20" height="20" viewBox="0 0 20 20" fill="none" xmlns="http://www.w3.org/2000/svg">
<path d="M17.4993 4.99984C17.2783 4.99984 17.0664 5.08764 16.9101 5.24392C16.7538 5.4002 16.666 5.61216 16.666 5.83317V14.1665C16.666 14.8295 16.4026 15.4654 15.9338 15.9343C15.4649 16.4031 14.8291 16.6665 14.166 16.6665H5.83268C5.61167 16.6665 5.39971 16.7543 5.24343 16.9106C5.08715 17.0669 4.99935 17.2788 4.99935 17.4998C4.99935 17.7209 5.08715 17.9328 5.24343 18.0891C5.39971 18.2454 5.61167 18.3332 5.83268 18.3332H14.166C15.2711 18.3332 16.3309 17.8942 17.1123 17.1128C17.8937 16.3314 18.3327 15.2716 18.3327 14.1665V5.83317C18.3327 5.61216 18.2449 5.4002 18.0886 5.24392C17.9323 5.08764 17.7204 4.99984 17.4993 4.99984ZM14.9993 12.4998V4.1665C14.9993 3.50346 14.736 2.86758 14.2671 2.39874C13.7983 1.9299 13.1624 1.6665 12.4993 1.6665H4.16602C3.50297 1.6665 2.86709 1.9299 2.39825 2.39874C1.92941 2.86758 1.66602 3.50346 1.66602 4.1665V12.4998C1.66602 13.1629 1.92941 13.7988 2.39825 14.2676C2.86709 14.7364 3.50297 14.9998 4.16602 14.9998H12.4993C13.1624 14.9998 13.7983 14.7364 14.2671 14.2676C14.736 13.7988 14.9993 13.1629 14.9993 12.4998ZM8.33268 3.33317H9.99935V7.38317L9.69935 7.13317C9.54961 7.00845 9.36089 6.94015 9.16602 6.94015C8.97114 6.94015 8.78242 7.00845 8.63268 7.13317L8.33268 7.38317V3.33317ZM3.33268 12.4998V4.1665C3.33268 3.94549 3.42048 3.73353 3.57676 3.57725C3.73304 3.42097 3.945 3.33317 4.16602 3.33317H6.66602V9.1665C6.66601 9.32581 6.71166 9.48178 6.79756 9.61593C6.88347 9.75009 7.00602 9.85681 7.15072 9.92346C7.29541 9.99011 7.45617 10.0139 7.61396 9.99197C7.77175 9.97006 7.91996 9.90339 8.04102 9.79984L9.16602 8.85817L10.291 9.79984C10.442 9.92893 10.6341 9.99985 10.8327 9.99984C10.9532 9.99899 11.0724 9.97346 11.1827 9.92484C11.3273 9.85789 11.4498 9.75087 11.5354 9.61646C11.6211 9.48205 11.6664 9.32589 11.666 9.1665V3.33317H12.4993C12.7204 3.33317 12.9323 3.42097 13.0886 3.57725C13.2449 3.73353 13.3327 3.94549 13.3327 4.1665V12.4998C13.3327 12.7209 13.2449 12.9328 13.0886 13.0891C12.9323 13.2454 12.7204 13.3332 12.4993 13.3332H4.16602C3.945 13.3332 3.73304 13.2454 3.57676 13.0891C3.42048 12.9328 3.33268 12.7209 3.33268 12.4998Z" fill="#8F95AB"/>
</svg>
