<svg width="12" height="12" viewBox="0 0 12 12" fill="none" xmlns="http://www.w3.org/2000/svg">
<path d="M6.00033 0.166748C2.79199 0.166748 0.166992 2.79175 0.166992 6.00008C0.166992 9.20841 2.79199 11.8334 6.00033 11.8334C9.20866 11.8334 11.8337 9.20841 11.8337 6.00008C11.8337 2.79175 9.20866 0.166748 6.00033 0.166748ZM8.45033 5.00841L5.65033 7.80841C5.41699 8.04175 5.06699 8.04175 4.83366 7.80841L3.55033 6.52508C3.31699 6.29175 3.31699 5.94175 3.55033 5.70841C3.78366 5.47508 4.13366 5.47508 4.36699 5.70841L5.24199 6.58341L7.63366 4.19175C7.86699 3.95841 8.21699 3.95841 8.45033 4.19175C8.68366 4.42508 8.68366 4.77508 8.45033 5.00841Z" fill="#FFAC33"/>
</svg>
