<svg width="28" height="28" viewBox="0 0 28 28" fill="none" xmlns="http://www.w3.org/2000/svg">
<path fill-rule="evenodd" clip-rule="evenodd" d="M19.2851 10.4648C19.6268 10.8065 19.6268 11.3605 19.2851 11.7022L14.6184 16.3689C14.2767 16.7106 13.7227 16.7106 13.381 16.3689L8.71429 11.7022C8.37258 11.3605 8.37258 10.8065 8.71429 10.4648C9.056 10.1231 9.61002 10.1231 9.95173 10.4648L13.9997 14.5127L18.0476 10.4648C18.3893 10.1231 18.9434 10.1231 19.2851 10.4648Z" fill="#A77DFF"/>
</svg>
