<svg width="22" height="22" viewBox="0 0 22 22" fill="none" xmlns="http://www.w3.org/2000/svg">
  <path d="M18.4799 4.58381C17.5082 3.60958 16.2202 3.01497 14.8484 2.90738C13.4766 2.79979 12.1116 3.18632 10.9999 3.99714C9.83361 3.12964 8.38192 2.73628 6.93719 2.89626C5.49245 3.05624 4.162 3.75769 3.21374 4.85935C2.26547 5.961 1.76985 7.38104 1.82666 8.83349C1.88348 10.2859 2.48851 11.6629 3.51993 12.6871L9.21243 18.3888C9.68911 18.8579 10.3311 19.1209 10.9999 19.1209C11.6687 19.1209 12.3107 18.8579 12.7874 18.3888L18.4799 12.6871C19.5502 11.6103 20.1509 10.1537 20.1509 8.63548C20.1509 7.11723 19.5502 5.66065 18.4799 4.58381Z" fill="#6446FF"/>
</svg>
