<svg width="46" height="46" viewBox="0 0 46 46" fill="none" xmlns="http://www.w3.org/2000/svg">
    <path
        d="M46 23C46 35.7024 35.7024 46 23 46C10.2976 46 0 35.7024 0 23C0 10.2976 10.2976 0 23 0C35.7024 0 46 10.2976 46 23Z"
        fill="#FFCC4D" />
    <path
        d="M22.9999 26.8333C18.3705 26.8333 15.2987 26.2941 11.4999 25.5555C10.6323 25.3881 8.94434 25.5555 8.94434 28.1111C8.94434 33.2222 14.8157 39.6111 22.9999 39.6111C31.1828 39.6111 37.0554 33.2222 37.0554 28.1111C37.0554 25.5555 35.3675 25.3869 34.4999 25.5555C30.7011 26.2941 27.6293 26.8333 22.9999 26.8333Z"
        fill="#664500" />
    <path
        d="M11.5 28.1111C11.5 28.1111 15.3333 29.3889 23 29.3889C30.6667 29.3889 34.5 28.1111 34.5 28.1111C34.5 28.1111 31.9444 33.2222 23 33.2222C14.0556 33.2222 11.5 28.1111 11.5 28.1111Z"
        fill="white" />
    <path
        d="M20.0381 5.63887L14.2344 6.66237L11.2444 1.22798C10.9147 0.628704 10.2375 0.307982 9.56796 0.425538C8.89457 0.544371 8.37068 1.07848 8.2659 1.75315L7.31396 7.88265L1.51029 8.90615C0.826678 9.02626 0.298955 9.57698 0.205678 10.2657C0.1124 10.9544 0.475289 11.624 1.10396 11.923L6.30451 14.3917L5.34873 20.5403C5.24268 21.2252 5.59023 21.8999 6.20868 22.2129C6.4374 22.3279 6.68273 22.3829 6.92679 22.3829C7.34462 22.3829 7.75734 22.2193 8.06529 21.9075L12.5528 17.3574L18.3258 20.0982C18.952 20.3947 19.6982 20.2554 20.1735 19.7507C20.6488 19.2459 20.7434 18.4933 20.4099 17.8864L17.4097 12.4328L21.4538 8.3337C21.942 7.8392 22.0531 7.08532 21.7311 6.46943C21.4066 5.85354 20.7178 5.52004 20.0381 5.63887ZM25.9618 5.63887L31.7655 6.66237L34.7555 1.22798C35.0852 0.628704 35.7624 0.307982 36.432 0.425538C37.1041 0.544371 37.628 1.07848 37.7327 1.75315L38.6847 7.88265L44.4883 8.90615C45.1732 9.02626 45.701 9.57571 45.793 10.2644C45.885 10.9531 45.5233 11.6227 44.8947 11.9217L39.6941 14.3904L40.6499 20.539C40.756 21.2239 40.4084 21.8986 39.79 22.2116C39.5612 22.3266 39.3159 22.3816 39.0718 22.3816C38.654 22.3816 38.2413 22.218 37.9333 21.9063L33.4458 17.3561L27.6728 20.0969C27.0467 20.3934 26.3005 20.2541 25.8251 19.7494C25.3498 19.2447 25.2552 18.492 25.5887 17.8851L28.589 12.4328L24.5448 8.3337C24.0567 7.8392 23.9455 7.08532 24.2675 6.46943C24.5933 5.85354 25.2821 5.52004 25.9618 5.63887Z"
        fill="#E95F28" />
</svg>