<svg width="80" height="23" viewBox="0 0 80 23" fill="none" xmlns="http://www.w3.org/2000/svg">
<path fill-rule="evenodd" clip-rule="evenodd" d="M9.61983 4.80421C9.61983 7.4575 7.46635 9.60842 4.80991 9.60842C2.15347 9.60842 0 7.4575 0 4.80421C0 2.15092 2.15347 0 4.80991 0C7.46635 0 9.61983 2.15092 9.61983 4.80421ZM8.69895 13.1901C9.24809 13.9438 9.56587 14.8408 9.61355 15.7717C9.6175 15.8598 9.62014 15.9348 9.62014 16.0177C9.62031 17.5873 9.05059 19.1038 8.01663 20.2858C6.98268 21.4678 5.55466 22.2352 3.99737 22.4457C4.28144 21.9343 4.49462 21.3867 4.63105 20.818C3.69847 20.7833 2.79612 20.4784 2.03399 19.9405C1.27186 19.4025 0.682872 18.6547 0.338815 17.7883C-0.00524174 16.9218 -0.0895066 15.9741 0.096291 15.0606C0.282089 14.1472 0.729924 13.3074 1.38521 12.6437C2.0405 11.9801 2.87493 11.5211 3.78681 11.3228C4.69868 11.1246 5.64861 11.1955 6.52081 11.5271C7.39301 11.8586 8.1498 12.4365 8.69895 13.1901ZM14.4688 3.88335H19.7569L21.7725 11.6114L24.1307 3.83203H28.5968L30.9853 11.668L33.0602 3.88335H38.2614L33.5187 19.3579H28.8524L26.3506 11.3838L23.7935 19.3618H19.1601L14.4688 3.88335ZM45.4799 3.88328H40.0469V19.2486H45.4799V14.4786C45.4799 12.6996 45.8593 11.3955 46.6169 10.5626C46.7124 10.4575 46.8134 10.3419 46.9198 10.2202C47.6568 9.37687 48.6525 8.23747 49.8946 8.23747H50.3491L50.3412 3.63195C49.0519 3.57581 48.0283 3.8596 47.2703 4.48332C46.4773 5.15746 45.8624 6.01605 45.4799 6.98345V3.88328ZM59.1612 19.5629C57.5223 19.5629 56.2462 19.1747 55.3327 18.3984C54.4193 17.622 53.9617 16.3158 53.96 14.4797V8.23334H52.1406V3.88442H53.96V0H59.3904V3.88442H62.9712V8.22676H59.3904V13.4297C59.3904 13.9797 59.5134 14.3723 59.7593 14.6074C60.0056 14.8455 60.3745 14.9627 60.8686 14.9627C61.2248 14.9641 61.5794 14.9163 61.9225 14.8205C62.264 14.7264 62.5968 14.6031 62.9172 14.4521V18.6826C62.386 18.9621 61.8228 19.1764 61.2401 19.3208C60.56 19.4884 59.8616 19.5697 59.1612 19.5629ZM70.1869 3.88528H64.7578V19.2506H70.1869V10.9317C70.186 10.0834 70.3964 9.43997 70.818 9.00134C71.0259 8.78495 71.2769 8.61458 71.5549 8.50124C71.8329 8.3879 72.1317 8.33414 72.4318 8.34341C72.7215 8.33335 73.0099 8.38707 73.2765 8.50077C73.5431 8.61447 73.7814 8.78537 73.9745 9.00134C74.368 9.43733 74.5647 10.0808 74.5647 10.9317V19.2506H79.9964V9.20004C79.9956 7.4438 79.5327 6.0639 78.6079 5.06034C77.683 4.05678 76.392 3.555 74.7346 3.555C74.2308 3.54935 73.7292 3.62125 73.2473 3.76817C72.8145 3.90228 72.3995 4.0883 72.0115 4.32214C71.6434 4.54262 71.304 4.80782 71.0011 5.11166C70.7093 5.40565 70.4373 5.71863 70.1869 6.04855V3.88528Z" fill="#5A2CDA"/>
</svg>
