<svg width="96" height="28" viewBox="0 0 96 28" fill="none" xmlns="http://www.w3.org/2000/svg">
<path fill-rule="evenodd" clip-rule="evenodd" d="M11.4291 5.99316C11.4291 9.3031 8.87061 11.9863 5.71455 11.9863C2.55849 11.9863 0 9.3031 0 5.99316C0 2.68323 2.55849 0 5.71455 0C8.87061 0 11.4291 2.68323 11.4291 5.99316ZM10.335 16.4538C10.9875 17.394 11.365 18.513 11.4216 19.6742C11.4263 19.7842 11.4295 19.8778 11.4295 19.9812C11.4297 21.9393 10.7528 23.831 9.52439 25.3055C8.29597 26.7801 6.59936 27.7374 4.74919 28C5.08669 27.362 5.33996 26.6789 5.50205 25.9695C4.39407 25.9262 3.322 25.5459 2.41654 24.8748C1.51107 24.2037 0.811305 23.2708 0.402539 22.1899C-0.0062276 21.109 -0.106341 19.9268 0.114401 18.7873C0.335143 17.6477 0.867207 16.6001 1.64574 15.7722C2.42427 14.9443 3.41564 14.3718 4.49902 14.1244C5.5824 13.8771 6.71099 13.9656 7.74723 14.3792C8.78347 14.7928 9.6826 15.5137 10.335 16.4538ZM17.1897 4.84527H23.4724L25.8672 14.4859L28.6689 4.78125H33.9749L36.8126 14.5565L39.2778 4.84527H45.4573L39.8225 24.1495H34.2786L31.3063 14.2019L28.2682 24.1544H22.7634L17.1897 4.84527ZM54.0366 4.84564H47.5817V24.0136H54.0366V18.0631C54.0366 15.8438 54.4874 14.217 55.3874 13.178C55.5009 13.0469 55.6209 12.9027 55.7473 12.7508C56.6229 11.6988 57.8058 10.2774 59.2816 10.2774H59.8216L59.8122 4.53211C58.2804 4.46208 57.0642 4.81609 56.1637 5.59417C55.2215 6.43515 54.4911 7.50623 54.0366 8.71305V4.84564ZM70.2883 24.4044C68.3412 24.4044 66.825 23.9201 65.7398 22.9516C64.6546 21.9831 64.1109 20.3537 64.1088 18.0632V10.2709H61.9473V4.84575H64.1088V0H70.5606V4.84575H74.8148V10.2627H70.5606V16.7533C70.5606 17.4394 70.7067 17.9291 70.9989 18.2224C71.2916 18.5195 71.7298 18.6656 72.3168 18.6656C72.74 18.6675 73.1614 18.6078 73.5689 18.4884C73.9747 18.3709 74.37 18.2171 74.7507 18.0287V23.3062C74.1196 23.6549 73.4505 23.9222 72.7582 24.1023C71.9502 24.3114 71.1204 24.4129 70.2883 24.4044ZM83.3918 4.846H76.9416V24.0139H83.3918V13.6363C83.3907 12.5781 83.6406 11.7754 84.1415 11.2282C84.3885 10.9583 84.6868 10.7457 85.0171 10.6043C85.3474 10.4629 85.7023 10.3959 86.0589 10.4074C86.4031 10.3949 86.7457 10.4619 87.0625 10.6037C87.3792 10.7456 87.6623 10.9588 87.8917 11.2282C88.3592 11.7721 88.5929 12.5748 88.5929 13.6363V24.0139H95.0463V11.4761C95.0452 9.2852 94.4953 7.5638 93.3965 6.31187C92.2978 5.05994 90.7639 4.43398 88.7948 4.43398C88.1963 4.42693 87.6003 4.51663 87.0277 4.6999C86.5135 4.86721 86.0205 5.09926 85.5596 5.39098C85.1222 5.66603 84.7189 5.99685 84.3591 6.37589C84.0124 6.74263 83.6892 7.13308 83.3918 7.54465V4.846Z" fill="#ECEEF7"/>
</svg>
