<svg width="20" height="20" viewBox="0 0 20 20" fill="none" xmlns="http://www.w3.org/2000/svg">
    <path
        d="M18.0916 16.9075L14.9999 13.8409C16.2 12.3445 16.7812 10.4453 16.6239 8.5336C16.4667 6.62194 15.583 4.84317 14.1545 3.56306C12.7261 2.28294 10.8614 1.59878 8.94402 1.65125C7.02662 1.70371 5.20219 2.48882 3.84587 3.84514C2.48956 5.20146 1.70445 7.02589 1.65198 8.94329C1.59951 10.8607 2.28368 12.7253 3.56379 14.1538C4.84391 15.5822 6.62267 16.466 8.53434 16.6232C10.446 16.7804 12.3453 16.1993 13.8416 14.9992L16.9083 18.0659C16.9857 18.144 17.0779 18.206 17.1794 18.2483C17.281 18.2906 17.3899 18.3124 17.4999 18.3124C17.6099 18.3124 17.7189 18.2906 17.8204 18.2483C17.9219 18.206 18.0141 18.144 18.0916 18.0659C18.2418 17.9105 18.3257 17.7028 18.3257 17.4867C18.3257 17.2706 18.2418 17.0629 18.0916 16.9075ZM9.16659 14.9992C8.01286 14.9992 6.88505 14.6571 5.92576 14.0161C4.96647 13.3751 4.2188 12.4641 3.77729 11.3982C3.33578 10.3323 3.22026 9.15938 3.44534 8.02783C3.67042 6.89627 4.22599 5.85687 5.0418 5.04107C5.8576 4.22526 6.897 3.66969 8.02856 3.44461C9.16012 3.21953 10.333 3.33505 11.3989 3.77656C12.4648 4.21807 13.3759 4.96574 14.0168 5.92503C14.6578 6.88432 14.9999 8.01213 14.9999 9.16585C14.9999 10.713 14.3853 12.1967 13.2914 13.2906C12.1974 14.3846 10.7137 14.9992 9.16659 14.9992Z"
        fill="#6446FF" />
</svg>