<svg width="16" height="16" viewBox="0 0 16 16" fill="none" xmlns="http://www.w3.org/2000/svg">
    <g clip-path="url(#clip0_10379_50419)">
        <path
            d="M8 0.445312C3.58178 0.445312 0 3.23109 0 6.66753C0 8.60887 1.144 10.3422 2.93511 11.4831C2.70222 12.5093 2.15956 14.0315 0.888889 15.5564C3.448 15.1298 5.084 13.8849 6.096 12.7049C6.70756 12.8213 7.34267 12.8898 8 12.8898C12.4182 12.8898 16 10.104 16 6.66753C16 3.23109 12.4182 0.445312 8 0.445312Z"
            fill="current" />
        <path
            d="M7.99997 7.55512C8.49089 7.55512 8.88886 7.15715 8.88886 6.66623C8.88886 6.17531 8.49089 5.77734 7.99997 5.77734C7.50905 5.77734 7.11108 6.17531 7.11108 6.66623C7.11108 7.15715 7.50905 7.55512 7.99997 7.55512Z"
            fill="white" />
        <path
            d="M11.5556 7.55512C12.0466 7.55512 12.4445 7.15715 12.4445 6.66623C12.4445 6.17531 12.0466 5.77734 11.5556 5.77734C11.0647 5.77734 10.6667 6.17531 10.6667 6.66623C10.6667 7.15715 11.0647 7.55512 11.5556 7.55512Z"
            fill="white" />
        <path
            d="M4.44455 7.55512C4.93547 7.55512 5.33344 7.15715 5.33344 6.66623C5.33344 6.17531 4.93547 5.77734 4.44455 5.77734C3.95363 5.77734 3.55566 6.17531 3.55566 6.66623C3.55566 7.15715 3.95363 7.55512 4.44455 7.55512Z"
            fill="white" />
    </g>
    <defs>
        <clipPath id="clip0_10379_50419">
            <rect width="16" height="16" fill="white" />
        </clipPath>
    </defs>
</svg>