<svg width="116" height="32" viewBox="0 0 116 32" fill="none" xmlns="http://www.w3.org/2000/svg">
<circle cx="58" cy="8.89029" r="8.89029" fill="#6446FF"/>
<path fill-rule="evenodd" clip-rule="evenodd" d="M62.3676 5.78607C62.0163 5.43475 61.4467 5.43475 61.0953 5.78607L57.0595 9.82191L55.1698 7.93222C54.8185 7.58091 54.2489 7.58091 53.8976 7.93222C53.5463 8.28354 53.5463 8.85314 53.8976 9.20446L56.4012 11.7081C56.4083 11.7157 56.4156 11.7232 56.423 11.7306C56.585 11.8927 56.7935 11.98 57.0055 11.9925C57.2535 12.0075 57.5065 11.9202 57.6961 11.7307C57.7039 11.7228 57.7117 11.7148 57.7192 11.7067L62.3676 7.0583C62.7189 6.70699 62.7189 6.13739 62.3676 5.78607Z" fill="white"/>
<path d="M8.78125 29.4754V30.5007H0.646484V29.4754H2.46289V27.2976C1.77441 26.8826 1.35938 26.2527 1.35938 25.4715C1.35938 24.031 2.76562 23.0838 4.69922 23.0789C6.62305 23.0838 8.04395 24.031 8.04883 25.4715C8.04395 26.2381 7.64355 26.8582 6.97461 27.2732V29.4754H8.78125ZM2.58984 25.4715C2.58984 26.3406 3.4248 26.8777 4.69922 26.8777C5.9541 26.8777 6.81348 26.3406 6.81836 25.4715C6.81348 24.5779 5.9541 24.0603 4.69922 24.0652C3.4248 24.0603 2.58984 24.5779 2.58984 25.4715ZM3.69336 29.4754H5.71484V27.7468C5.39746 27.8103 5.05566 27.8445 4.69922 27.8445C4.34277 27.8445 4.00586 27.8103 3.69336 27.7517V29.4754ZM16.457 23.0496V23.7625C16.4619 24.4558 16.4619 25.2224 16.2471 26.2429H17.4238V27.2488H9.28906V26.2429H14.9922C15.1826 25.3591 15.207 24.6707 15.2168 24.0457H10.2852V23.0496H16.457ZM10.2559 31.4382V28.1863H16.4277V31.4382H10.2559ZM11.4766 30.4422H15.1875V29.1629H11.4766V30.4422ZM25.6172 22.6492V31.5359H24.4355V22.6492H25.6172ZM17.7461 28.9382C19.0547 28.1326 19.543 26.5408 19.543 25.032V24.5535H18.0879V23.5574H22.0918V24.5535H20.7441V25.032C20.7393 26.5066 21.2031 28.0007 22.502 28.7429L21.7695 29.6609C20.9736 29.1922 20.4561 28.4011 20.1533 27.4441C19.8506 28.4793 19.3135 29.3582 18.498 29.8562L17.7461 28.9382ZM21.457 26.7019V25.6961H22.6289V22.7957H23.8008V31.1257H22.6289V26.7019H21.457ZM36.584 22.6492V31.5359H35.3926V22.6492H36.584ZM28.8691 24.9832V23.9968H30.373V22.864H31.6133V23.9968H33.0977V24.9832H28.8691ZM29.0645 27.532C29.0596 26.2722 29.8701 25.3933 30.959 25.3933C32.0723 25.3933 32.873 26.2722 32.873 27.532V27.6004H33.6641V26.5359H32.6875V25.5203H33.6641V22.7957H34.8262V31.1453H33.6641V28.5769H32.6582C32.3457 29.2507 31.7256 29.6707 30.959 29.6707C29.8701 29.6707 29.0596 28.7918 29.0645 27.532ZM30.1484 27.532C30.1436 28.2156 30.4707 28.6111 30.959 28.616C31.457 28.6111 31.7939 28.2156 31.7988 27.532C31.7939 26.8338 31.457 26.448 30.959 26.448C30.4707 26.448 30.1436 26.8338 30.1484 27.532ZM41.3496 23.2449V24.241H39.0254V24.9734H41.2617V25.9207H39.0254V26.7068C40.0117 26.697 40.7393 26.658 41.5645 26.5164L41.6914 27.5125C40.6514 27.698 39.7822 27.7322 38.4395 27.7273H37.834V23.2449H41.3496ZM39.0156 29.4461V28.45H45.1582V31.5359H43.918V29.4461H39.0156ZM42.043 28.0105V22.8152H43.2051V24.8269H43.9766V22.659H45.1582V28.0789H43.9766V25.823H43.2051V28.0105H42.043ZM53.2637 23.1863V26.9265H48.918V23.1863H53.2637ZM49.3867 30.5789C51.1641 30.4324 52.1016 29.7293 52.2383 29.1043H49.748V28.1765H52.2773V27.4441H53.5273V28.1765H56.0566V29.1043H53.5664C53.7031 29.7097 54.6357 30.408 56.3984 30.5789L55.9785 31.5164C54.499 31.3797 53.4492 30.8425 52.9072 30.1492C52.3604 30.8523 51.3008 31.3748 49.8164 31.5164L49.3867 30.5789ZM50.1484 25.95H52.0234V24.1531H50.1484V25.95ZM54.6602 27.6882V22.6492H55.9004V27.6882H54.6602ZM66.5254 22.6492V25.5691H67.6582V26.5945H66.5254V29.5828H65.2754V22.6492H66.5254ZM59.3184 27.7566C59.958 27.7566 60.7002 27.7517 61.4766 27.7273V27.2146C60.5098 27.0779 59.9092 26.5994 59.9141 25.9011C59.9092 25.0222 60.7734 24.5095 62.0918 24.5144C63.4004 24.5095 64.2646 25.0222 64.2695 25.9011C64.2646 26.5945 63.6689 27.073 62.7168 27.2146V27.6687C63.4443 27.6248 64.1768 27.5564 64.8652 27.4539L64.9531 28.3132C63.083 28.6746 60.9785 28.699 59.4453 28.7136L59.3184 27.7566ZM59.5527 24.2605V23.3718H61.4766V22.6199H62.7168V23.3718H64.6406V24.2605H59.5527ZM60.5684 31.3797V29.1238H61.8184V30.3836H66.8281V31.3797H60.5684ZM61.1055 25.9011C61.1006 26.2332 61.457 26.4236 62.0918 26.4187C62.7168 26.4236 63.0732 26.2332 63.0781 25.9011C63.0732 25.5252 62.7168 25.3445 62.0918 25.3445C61.457 25.3445 61.1006 25.5252 61.1055 25.9011ZM70.3242 22.7859V23.4011H73.8887V22.7859H75.1289V25.7644H69.0938V22.7859H70.3242ZM68.0586 27.2293V26.2234H76.1641V27.2293H72.7266V27.7859H75.1777V30.032H70.2266V30.5398H75.4121V31.4773H69.0059V29.1726H73.9473V28.6941H68.9961V27.7859H71.4766V27.2293H68.0586ZM70.3242 24.8367H73.8887V24.2996H70.3242V24.8367ZM86.0664 23.1375V23.7332C86.0615 24.4802 86.0615 25.5007 85.832 26.9656H87.1113V27.9715H85.1875V31.5359H83.9473V27.9715H82.1016V31.5359H80.8516V27.9715H79.0059V26.9656H84.5723C84.8018 25.7644 84.8408 24.8416 84.8506 24.1433H79.9727V23.1375H86.0664ZM95.1387 22.6492V27.9226H93.8984V25.823H92.5117V24.8172H93.8984V22.6492H95.1387ZM87.5898 26.9461C89.0449 26.4578 89.709 25.2957 89.7383 24.1824H87.9512V23.1863H92.7754V24.1824H91.0078C91.0322 25.2175 91.667 26.2625 93.0488 26.7215L92.4336 27.698C91.457 27.3806 90.7783 26.7361 90.3926 25.9402C90.002 26.8435 89.2891 27.5711 88.2344 27.9324L87.5898 26.9461ZM89.0449 29.8367C89.0449 28.7576 90.207 28.1228 92.1016 28.1179C94.001 28.1228 95.1631 28.7576 95.168 29.8367C95.1631 30.9158 94.001 31.5457 92.1016 31.5457C90.207 31.5457 89.0449 30.9158 89.0449 29.8367ZM90.2852 29.8367C90.2852 30.3445 90.9248 30.5984 92.1016 30.5984C93.2832 30.5984 93.9229 30.3445 93.9277 29.8367C93.9229 29.324 93.2832 29.0701 92.1016 29.075C90.9248 29.0701 90.2852 29.324 90.2852 29.8367ZM105.705 22.659V25.198H106.838V26.2234H105.705V28.6941H104.455V22.659H105.705ZM98.498 27.5515C99.1475 27.5515 99.8848 27.5515 100.656 27.532V27.034C99.6895 26.8972 99.0889 26.4236 99.0938 25.7449C99.0889 24.9197 99.9531 24.4119 101.271 24.4168C102.58 24.4119 103.444 24.9197 103.449 25.7449C103.444 26.4236 102.849 26.8923 101.896 27.0291V27.4881C102.629 27.449 103.361 27.3953 104.045 27.3074L104.133 28.1668C102.253 28.4988 100.192 28.5183 98.625 28.5183L98.498 27.5515ZM98.7324 24.2117V23.3035H100.656V22.5808H101.896V23.3035H103.82V24.2117H98.7324ZM99.6309 30.0125V29.0554H105.705V31.5359H104.455V30.0125H99.6309ZM100.285 25.7449C100.28 26.0672 100.637 26.2576 101.271 26.2527C101.896 26.2576 102.253 26.0672 102.258 25.7449C102.253 25.3982 101.896 25.2468 101.271 25.2468C100.637 25.2468 100.28 25.3982 100.285 25.7449ZM114.68 22.659V29.0457H113.43V22.659H114.68ZM107.375 25.4617C107.375 24.158 108.439 23.2205 109.807 23.2254C111.169 23.2205 112.233 24.158 112.238 25.4617C112.233 26.7849 111.169 27.7175 109.807 27.7175C108.439 27.7175 107.375 26.7849 107.375 25.4617ZM108.596 25.4617C108.586 26.2039 109.108 26.6336 109.807 26.6336C110.48 26.6336 111.003 26.2039 111.008 25.4617C111.003 24.739 110.48 24.3045 109.807 24.3093C109.108 24.3045 108.586 24.739 108.596 25.4617ZM108.723 31.3797V28.4011H109.982V30.3836H114.914V31.3797H108.723Z" fill="black"/>
</svg>
