<svg width="16" height="18" viewBox="0 0 16 18" fill="none" xmlns="http://www.w3.org/2000/svg">
<path d="M1.2575 0.511719L9.74333 9.00005L1.25833 17.4884C1.10745 17.425 0.978691 17.3183 0.888244 17.1819C0.797796 17.0455 0.749699 16.8854 0.750001 16.7217V1.27839C0.750065 1.1149 0.798214 0.95505 0.888452 0.818729C0.978691 0.682408 1.10703 0.57564 1.2575 0.511719ZM10.3325 9.58922L12.2508 11.5076L3.13667 16.7851L10.3325 9.58922ZM12.9983 6.92422L15.3375 8.27922C15.4638 8.35247 15.5686 8.45762 15.6415 8.58412C15.7143 8.71063 15.7527 8.85406 15.7527 9.00005C15.7527 9.14604 15.7143 9.28947 15.6415 9.41598C15.5686 9.54249 15.4638 9.64763 15.3375 9.72089L12.9975 11.0759L10.9217 9.00005L12.9983 6.92422ZM3.13667 1.21505L12.2517 6.49172L10.3325 8.41089L3.13667 1.21505Z" fill="#6446FF"/>
</svg>
