<svg width="50" height="50" viewBox="0 0 50 50" fill="none" xmlns="http://www.w3.org/2000/svg">
<circle cx="25" cy="25" r="25" fill="#6446FF"/>
<path d="M25.297 36.6911L22.6257 34.0528L29.7492 26.9292H12.9957V23.0377H29.7492L22.6257 15.9471L25.297 13.3088L37.0046 24.9835L25.297 36.6911Z" fill="white"/>
</svg>
