<svg width="26" height="26" viewBox="0 0 26 26" fill="none" xmlns="http://www.w3.org/2000/svg">
<rect x="0.578125" y="0.578125" width="24.8438" height="24.8438" rx="12.4219" fill="white"/>
<path d="M7.18457 9.99062L12.8096 12.4906L13.1908 11.6344L7.56582 9.13437L7.18457 9.99062ZM13.4689 18.9375V12.0625H12.5314V18.9375H13.4689ZM13.1908 12.4906L18.8158 9.99062L18.4346 9.13437L12.8096 11.6344L13.1908 12.4906Z" fill="white"/>
<path fill-rule="evenodd" clip-rule="evenodd" d="M13 7.57519L7.84375 9.86727V16.1327L13 18.4248L18.1562 16.1327V9.86727L13 7.57519ZM12.6571 6.70167C12.765 6.65366 12.8819 6.62885 13 6.62885C13.1181 6.62885 13.235 6.65366 13.3429 6.70167C13.3428 6.70164 13.343 6.7017 13.3429 6.70167L18.5929 9.03542C18.7419 9.10174 18.8687 9.20992 18.9576 9.34669C19.0464 9.48346 19.0937 9.64305 19.0938 9.80614V16.1938C19.0937 16.3568 19.0464 16.5165 18.9576 16.6533C18.8687 16.7901 18.7421 16.8982 18.5931 16.9645L13.3431 19.2982C13.2351 19.3463 13.1182 19.3712 13 19.3712C12.8818 19.3712 12.7649 19.3463 12.6569 19.2982L7.40709 16.9646C7.25809 16.8983 7.13129 16.7901 7.04245 16.6533C6.9536 16.5165 6.90629 16.357 6.90625 16.1939V9.80625C6.90629 9.64316 6.9536 9.48346 7.04245 9.34669C7.13129 9.20993 7.25788 9.10184 7.40687 9.03552L12.6571 6.70167Z" fill="white"/>
<path fill-rule="evenodd" clip-rule="evenodd" d="M9.75927 8.12211C9.86442 7.88554 10.1414 7.779 10.378 7.88415L15.7805 10.2854C15.9295 10.3517 16.0563 10.4599 16.1452 10.5967C16.234 10.7335 16.2813 10.893 16.2814 11.0561V13.3125C16.2814 13.5714 16.0715 13.7812 15.8126 13.7812C15.5537 13.7812 15.3439 13.5714 15.3439 13.3125V11.1173L9.99723 8.74084C9.76066 8.63569 9.65412 8.35868 9.75927 8.12211Z" fill="white"/>
<g clip-path="url(#clip0_14179_59499)">
<path d="M10.423 7.74069C9.77348 7.03612 8.8429 6.59384 7.80778 6.59384C5.8438 6.59384 4.25 8.18812 4.25 10.1527C4.25 12.1172 5.8438 13.7115 7.80778 13.7115C8.84119 13.7115 9.77348 13.2692 10.423 12.5647C11.0091 11.9304 11.3656 11.0835 11.3656 10.151C11.3656 9.2184 11.0074 8.37155 10.423 7.73726V7.74069Z" fill="#24E0A6"/>
<path d="M15.6554 7.74062C15.0059 7.03605 14.0736 6.59377 13.0402 6.59377C11.0745 6.59377 9.48242 8.18804 9.48242 10.1543C9.48242 12.1206 11.0762 13.7132 13.0402 13.7132C14.0736 13.7132 15.0059 13.2709 15.6554 12.5663C16.2415 11.932 16.598 11.0835 16.598 10.1526C16.598 9.22175 16.2398 8.37318 15.6554 7.7389V7.74062Z" fill="#438BFF"/>
<path d="M20.8859 7.74062C20.2364 7.03605 19.3041 6.59377 18.2707 6.59377C16.305 6.59377 14.7129 8.18804 14.7129 10.1526C14.7129 12.1172 16.3067 13.7114 18.2707 13.7114C19.3041 13.7114 20.2364 13.2692 20.8859 12.5646C21.472 11.9303 21.8285 11.0835 21.8285 10.1509C21.8285 9.21832 21.4703 8.37147 20.8859 7.73719V7.74062Z" fill="#2C5BF2"/>
<path d="M10.423 7.74069C9.77348 7.03612 8.8429 6.59384 7.80778 6.59384C5.8438 6.59384 4.25 8.18812 4.25 10.1527C4.25 12.1172 5.8438 13.7115 7.80778 13.7115C8.84119 13.7115 9.77348 13.2692 10.423 12.5647C9.83689 11.9304 9.48042 11.0835 9.48042 10.151C9.48042 9.2184 9.8386 8.37155 10.423 7.73726V7.74069Z" fill="#24E0BC"/>
<path d="M15.6552 7.74062C15.0057 7.03605 14.0734 6.59377 13.04 6.59377C12.0066 6.59377 11.0743 7.03605 10.4248 7.74062C11.0109 8.3749 11.3674 9.22347 11.3674 10.1543C11.3674 11.0852 11.0092 11.9337 10.4248 12.568C11.0743 13.2726 12.0066 13.7149 13.04 13.7149C14.0734 13.7149 15.0057 13.2726 15.6552 12.568C15.0691 11.9337 14.7127 11.0869 14.7127 10.1543C14.7127 9.22175 15.0708 8.3749 15.6552 7.74062Z" fill="#438BFF"/>
<path d="M10.423 7.74062C9.83693 8.3749 9.48047 9.22346 9.48047 10.1543C9.48047 11.0852 9.83865 11.9337 10.423 12.568C11.0092 11.9337 11.3656 11.0869 11.3656 10.1543C11.3656 9.22175 11.0074 8.3749 10.423 7.74062Z" fill="#3A68F9"/>
<path d="M18.2705 6.59377C17.2371 6.59377 16.3048 7.03605 15.6553 7.74062C16.2414 8.3749 16.5978 9.22347 16.5978 10.1543C16.5978 11.0852 16.2397 11.9337 15.6553 12.568C16.3048 13.2726 17.2371 13.7149 18.2705 13.7149C20.2362 13.7149 21.8283 12.1206 21.8283 10.156C21.8283 8.19147 20.2362 6.59377 18.2705 6.59377Z" fill="#2C5BF2"/>
<path d="M15.6555 7.74062C15.0694 8.3749 14.7129 9.22346 14.7129 10.1543C14.7129 11.0852 15.0711 11.9337 15.6555 12.568C16.2416 11.9337 16.598 11.0869 16.598 10.1543C16.598 9.22175 16.2399 8.3749 15.6555 7.74062Z" fill="#0049DB"/>
<path d="M15.2503 16.2142L14.6282 16.4731V16.9994H14.1963V17.5617H14.6213V18.6537C14.6213 19.1062 14.9075 19.4028 15.3651 19.4028C15.5519 19.4028 15.665 19.3702 15.7233 19.3462V18.7977C15.6907 18.8079 15.6033 18.8165 15.5279 18.8165C15.3462 18.8165 15.252 18.7497 15.252 18.544V17.5617H15.7233V16.9994H15.252V16.2142H15.2503Z" fill="#0C0C0C"/>
<path d="M8.42294 17.0011L7.98936 18.5097L7.47866 17.0011H6.85313L6.34414 18.5097L5.91056 17.0011H5.24219L5.9911 19.3479H6.6629L7.16675 17.7674L7.67231 19.3479H8.3424L9.0896 17.0011H8.42294Z" fill="#0C0C0C"/>
<path d="M20.212 16.2142V17.1365C20.0612 17.032 19.8796 16.9651 19.6705 16.948C19.6585 16.948 19.6465 16.9462 19.6345 16.9445C19.6293 16.9445 19.6242 16.9445 19.6191 16.9445C19.6019 16.9445 19.5848 16.9445 19.5659 16.9445C19.5317 16.9445 19.4957 16.9462 19.4614 16.9497C18.9096 16.9942 18.5394 17.392 18.4451 17.9114C18.4314 17.9885 18.4246 18.0674 18.4229 18.148C18.4229 18.1565 18.4229 18.1634 18.4229 18.172C18.4229 18.1925 18.4229 18.2131 18.4229 18.232C18.4229 18.2662 18.4263 18.3005 18.4297 18.3348C18.4948 18.9365 18.9164 19.4011 19.5642 19.4011C19.823 19.4011 20.0458 19.3274 20.224 19.1988V19.3428H20.248L20.8341 19.3479V15.9674L20.2086 16.2108L20.212 16.2142ZM19.6328 18.8354C19.2917 18.8354 19.0141 18.5868 19.0141 18.1668C19.0141 17.7468 19.302 17.5085 19.6328 17.5085C19.9635 17.5085 20.2206 17.7417 20.2206 18.1617C20.2206 18.5817 19.9635 18.8337 19.6328 18.8337V18.8354Z" fill="#0C0C0C"/>
<path d="M18.1919 17.908C18.0925 17.356 17.6829 16.9445 17.0728 16.9445C16.4627 16.9445 16.0531 17.3577 15.9537 17.908C15.9537 17.908 15.9537 17.9097 15.9537 17.9114C15.9383 17.9971 15.9297 18.0845 15.9297 18.1754C15.9297 18.232 15.9331 18.2851 15.9383 18.34C16.0034 18.9417 16.425 19.4062 17.0728 19.4062C17.5903 19.4062 17.9639 19.1097 18.125 18.6828L17.5629 18.5628C17.4687 18.7634 17.299 18.8971 17.0728 18.8971C16.7711 18.8971 16.5672 18.6588 16.5158 18.34H18.2073C18.2124 18.2868 18.2159 18.232 18.2159 18.1771C18.2159 18.0862 18.2073 17.9971 18.1919 17.9131C18.1919 17.9131 18.1919 17.9114 18.1919 17.9097V17.908ZM16.5449 17.9011C16.6238 17.6697 16.8123 17.5085 17.0728 17.5085C17.3333 17.5085 17.5218 17.6697 17.6006 17.9011H16.5449Z" fill="#0C0C0C"/>
<path d="M10.8873 17.1451C10.7263 17.0302 10.5309 16.96 10.3047 16.9462C10.303 16.9462 10.3012 16.9462 10.2995 16.9462C10.2944 16.9462 10.2892 16.9462 10.2841 16.9462C10.267 16.9462 10.2498 16.9462 10.231 16.9462C10.2053 16.9462 10.1813 16.9462 10.1556 16.9497C9.5866 16.9822 9.20614 17.3834 9.11017 17.9131C9.09646 17.9902 9.08789 18.0725 9.08789 18.1548C9.08789 18.1617 9.08789 18.1685 9.08789 18.1754C9.08789 18.196 9.08789 18.2148 9.08789 18.2354C9.08789 18.2354 9.08789 18.2354 9.08789 18.2371C9.08789 18.2371 9.08789 18.2371 9.08789 18.2388C9.08789 18.2731 9.09132 18.3057 9.09475 18.3399C9.15987 18.9417 9.58146 19.4062 10.2293 19.4062C10.4863 19.4062 10.7091 19.3325 10.8873 19.2057V19.3479H11.5009V17.0011H10.8873V17.1451ZM10.2961 18.8371C9.95506 18.8371 9.67743 18.5885 9.67743 18.1685C9.67743 17.7485 9.96534 17.5102 10.2961 17.5102C10.6269 17.5102 10.8839 17.7434 10.8839 18.1634C10.8839 18.5834 10.6269 18.8354 10.2961 18.8354V18.8371Z" fill="#0C0C0C"/>
<path d="M13.1669 16.9377C12.9202 16.9377 12.6442 17.044 12.4986 17.2754V16.9994H11.873V19.3462H12.5071V17.9971C12.5071 17.7245 12.6699 17.5102 12.9459 17.5102C13.2509 17.5102 13.3794 17.7159 13.3794 17.9782V19.3479H14.0135V17.8685C14.0135 17.3525 13.7462 16.9377 13.1652 16.9377H13.1669Z" fill="#0C0C0C"/>
</g>
<rect x="0.578125" y="0.578125" width="24.8438" height="24.8438" rx="12.4219" stroke="#E1E7F5" stroke-width="0.15625"/>
<defs>
<clipPath id="clip0_14179_59499">
<rect width="17.5781" height="12.8125" fill="white" transform="translate(4.25 6.59375)"/>
</clipPath>
</defs>
</svg>
