<svg width="345" height="17" viewBox="0 0 345 17" fill="none" xmlns="http://www.w3.org/2000/svg">
<path d="M7.432 9.96C6.664 9.96 6.06667 9.72533 5.64 9.256C5.21333 8.78667 5 8.136 5 7.304C5 6.45067 5.21867 5.79467 5.656 5.336C6.104 4.86667 6.71733 4.632 7.496 4.632C7.752 4.632 7.99733 4.65867 8.232 4.712C8.47733 4.75467 8.71733 4.82933 8.952 4.936L8.68 5.736C8.47733 5.65067 8.27467 5.58667 8.072 5.544C7.88 5.50133 7.68267 5.48 7.48 5.48C7.01067 5.48 6.65333 5.63467 6.408 5.944C6.17333 6.24267 6.056 6.696 6.056 7.304C6.056 7.88 6.17333 8.328 6.408 8.648C6.64267 8.95733 6.984 9.112 7.432 9.112C7.64533 9.112 7.86933 9.08533 8.104 9.032C8.34933 8.968 8.60533 8.88267 8.872 8.776V9.64C8.616 9.74667 8.37067 9.82667 8.136 9.88C7.90133 9.93333 7.66667 9.96 7.432 9.96ZM7 13.88C6.09333 13.88 5.24 13.7093 4.44 13.368C3.64 13.0267 2.936 12.5573 2.328 11.96C1.73067 11.352 1.26133 10.648 0.92 9.848C0.578667 9.048 0.408 8.19467 0.408 7.288C0.408 6.37067 0.578667 5.51733 0.92 4.728C1.26133 3.928 1.73067 3.22933 2.328 2.632C2.936 2.024 3.64 1.54933 4.44 1.208C5.24 0.866666 6.09333 0.695999 7 0.695999C7.91733 0.695999 8.77067 0.866666 9.56 1.208C10.36 1.54933 11.0587 2.024 11.656 2.632C12.264 3.22933 12.7387 3.928 13.08 4.728C13.4213 5.51733 13.592 6.37067 13.592 7.288C13.592 8.19467 13.4213 9.048 13.08 9.848C12.7387 10.648 12.264 11.352 11.656 11.96C11.0587 12.5573 10.36 13.0267 9.56 13.368C8.77067 13.7093 7.91733 13.88 7 13.88ZM7 12.984C7.78933 12.984 8.52533 12.84 9.208 12.552C9.90133 12.2533 10.5093 11.8427 11.032 11.32C11.5547 10.7973 11.96 10.1947 12.248 9.512C12.5467 8.81867 12.696 8.07733 12.696 7.288C12.696 6.49867 12.5467 5.76267 12.248 5.08C11.96 4.38667 11.5547 3.77867 11.032 3.256C10.5093 2.73333 9.90133 2.328 9.208 2.04C8.52533 1.74133 7.78933 1.592 7 1.592C6.21067 1.592 5.46933 1.74133 4.776 2.04C4.09333 2.328 3.49067 2.73333 2.968 3.256C2.44533 3.77867 2.03467 4.38667 1.736 5.08C1.448 5.76267 1.304 6.49867 1.304 7.288C1.304 8.07733 1.448 8.81867 1.736 9.512C2.03467 10.1947 2.44533 10.7973 2.968 11.32C3.49067 11.8427 4.09333 12.2533 4.776 12.552C5.46933 12.84 6.21067 12.984 7 12.984ZM26.088 11.752H21.416L24.456 8.072C25.16 7.224 26.12 6.168 26.12 4.856C26.12 2.968 24.712 1.832 22.952 1.832C21.224 1.832 19.784 2.968 19.784 4.792H21.144C21.176 3.656 21.96 3.064 22.952 3.064C23.864 3.064 24.744 3.64 24.744 4.792C24.744 5.624 24.248 6.376 23.496 7.256L19.608 11.848V13H26.088V11.752ZM34.168 5.016C34.168 2.984 32.664 1.832 31 1.832C29.336 1.832 27.832 2.984 27.832 5.032V9.928C27.832 11.976 29.336 13.128 31 13.128C32.664 13.128 34.168 11.976 34.168 9.944V5.016ZM32.792 5.016V9.944C32.792 11.128 31.992 11.88 31 11.88C29.992 11.88 29.192 11.128 29.192 9.944V5.016C29.192 3.832 29.992 3.08 31 3.08C31.992 3.08 32.792 3.832 32.792 5.016ZM42.088 11.752H37.416L40.456 8.072C41.16 7.224 42.12 6.168 42.12 4.856C42.12 2.968 40.712 1.832 38.952 1.832C37.224 1.832 35.784 2.968 35.784 4.792H37.144C37.176 3.656 37.96 3.064 38.952 3.064C39.864 3.064 40.744 3.64 40.744 4.792C40.744 5.624 40.248 6.376 39.496 7.256L35.608 11.848V13H42.088V11.752ZM50.088 11.752H45.416L48.456 8.072C49.16 7.224 50.12 6.168 50.12 4.856C50.12 2.968 48.712 1.832 46.952 1.832C45.224 1.832 43.784 2.968 43.784 4.792H45.144C45.176 3.656 45.96 3.064 46.952 3.064C47.864 3.064 48.744 3.64 48.744 4.792C48.744 5.624 48.248 6.376 47.496 7.256L43.608 11.848V13H50.088V11.752ZM53.816 11.144H51.96V13H53.816V11.144ZM65.5013 4.424L68.0133 13H69.4053L72.0933 1.96H70.6533L68.6533 10.68L66.1733 1.96H64.8133L62.3813 10.632L60.3813 1.96H58.9413L61.6293 13H63.0052L65.5013 4.424ZM78.714 5.96C78.202 5.24 77.514 4.872 76.426 4.872C75.45 4.872 74.906 5.224 74.57 5.784V5H73.29V13H74.57V7.992C74.57 6.792 75.306 6.056 76.282 6.056C76.874 6.056 77.29 6.264 77.626 6.728L78.714 5.96ZM78.8829 6.152H79.9069V10.536C79.9069 12.2 80.4509 13 82.3389 13H83.0269V11.784H82.3869C81.3149 11.784 81.1869 11.32 81.1869 10.216V6.152H83.0269V5H81.1869V3.24H79.9069V5H78.8829V6.152ZM84.6338 13H85.9138V8.008C85.9138 6.904 86.6658 6.056 87.8658 6.056C88.8098 6.056 89.6898 6.408 89.6898 8.024V13H90.9698V8.008C90.9698 5.768 89.7698 4.872 88.0578 4.872C86.8738 4.872 86.3138 5.176 85.9138 5.784V5H84.6338V13ZM96.0956 1.96V3.208H99.4556V13H100.832V3.208H104.192V1.96H96.0956ZM109.185 11.08C108.849 11.672 108.321 11.976 107.281 11.976C105.889 11.976 105.233 10.888 105.233 9.512V9.288H110.289V8.456C110.289 6.168 109.233 4.872 107.121 4.872C105.025 4.872 103.953 6.184 103.953 8.456V9.512C103.953 11.736 105.233 13.128 107.377 13.128C108.769 13.128 109.617 12.76 110.177 11.784L109.185 11.08ZM107.121 6.024C108.337 6.024 108.929 6.824 108.993 8.168H105.233C105.312 6.84 105.889 6.024 107.121 6.024ZM116.997 11.08C116.661 11.72 115.973 11.976 115.221 11.976C113.685 11.976 113.045 10.888 113.045 9.512V8.456C113.045 6.952 113.845 6.024 115.221 6.024C115.957 6.024 116.629 6.312 116.981 6.824L117.989 6.12C117.413 5.304 116.421 4.872 115.221 4.872C113.061 4.872 111.765 6.184 111.765 8.456V9.512C111.765 11.72 113.029 13.128 115.221 13.128C116.517 13.128 117.493 12.712 117.989 11.784L116.997 11.08ZM119.274 13H120.554V8.008C120.554 6.904 121.306 6.056 122.506 6.056C123.45 6.056 124.33 6.408 124.33 8.024V13H125.61V8.008C125.61 5.768 124.41 4.872 122.698 4.872C121.514 4.872 120.954 5.176 120.554 5.784V1.96H119.274V13ZM127.696 13H128.976V8.008C128.976 6.904 129.728 6.056 130.928 6.056C131.872 6.056 132.752 6.408 132.752 8.024V13H134.032V8.008C134.032 5.768 132.832 4.872 131.12 4.872C129.936 4.872 129.376 5.176 128.976 5.784V5H127.696V13ZM142.374 8.456C142.374 6.168 141.158 4.872 139.046 4.872C136.95 4.872 135.718 6.184 135.718 8.456V9.512C135.718 11.72 136.918 13.128 139.046 13.128C141.35 13.128 142.374 11.592 142.374 9.512V8.456ZM139.046 11.976C137.574 11.976 136.998 10.888 136.998 9.512V8.456C136.998 6.952 137.734 6.024 139.046 6.024C140.358 6.024 141.094 6.936 141.094 8.456V9.512C141.094 10.872 140.406 11.976 139.046 11.976ZM144.056 10.536C144.056 12.2 144.68 13 146.696 13V11.816C145.384 11.816 145.336 11.08 145.336 10.216V1.96H144.056V10.536ZM154.702 8.456C154.702 6.168 153.486 4.872 151.374 4.872C149.278 4.872 148.046 6.184 148.046 8.456V9.512C148.046 11.72 149.246 13.128 151.374 13.128C153.678 13.128 154.702 11.592 154.702 9.512V8.456ZM151.374 11.976C149.902 11.976 149.326 10.888 149.326 9.512V8.456C149.326 6.952 150.062 6.024 151.374 6.024C152.686 6.024 153.422 6.936 153.422 8.456V9.512C153.422 10.872 152.734 11.976 151.374 11.976ZM161.36 5.8C160.928 5.208 160.24 4.872 159.184 4.872C157.2 4.872 155.984 6.168 155.984 8.456V9.512C155.984 11.592 157.008 13.128 159.184 13.128C160.24 13.128 160.928 12.856 161.36 12.296V12.84C161.36 14.216 160.704 14.984 159.312 14.984C158.272 14.984 157.744 14.68 157.408 14.088L156.416 14.792C156.976 15.768 157.824 16.136 159.216 16.136C161.36 16.136 162.64 15.064 162.64 12.84V5H161.36V5.8ZM159.312 11.976C157.952 11.976 157.264 10.872 157.264 9.512V8.456C157.264 6.936 158 6.024 159.312 6.024C160.624 6.024 161.36 6.952 161.36 8.456V9.512C161.36 10.888 160.784 11.976 159.312 11.976ZM164.968 13H166.248V5H164.968V13ZM164.888 3.4H166.328V1.96H164.888V3.4ZM173.403 11.08C173.067 11.672 172.539 11.976 171.499 11.976C170.107 11.976 169.451 10.888 169.451 9.512V9.288H174.507V8.456C174.507 6.168 173.451 4.872 171.339 4.872C169.243 4.872 168.171 6.184 168.171 8.456V9.512C168.171 11.736 169.451 13.128 171.595 13.128C172.987 13.128 173.835 12.76 174.395 11.784L173.403 11.08ZM171.339 6.024C172.555 6.024 173.147 6.824 173.211 8.168H169.451C169.531 6.84 170.107 6.024 171.339 6.024ZM181.84 6.2C181.216 5.208 180.224 4.872 178.928 4.872C177.024 4.872 176.064 5.816 176.064 7.144C176.064 8.888 177.392 9.432 178.736 9.528C180.288 9.64 180.8 9.944 180.8 10.808C180.8 11.528 180.16 11.944 179.088 11.944C177.936 11.944 177.36 11.704 176.928 11.128L175.984 11.8C176.592 12.632 177.44 13.128 179.072 13.128C181.136 13.128 182.08 12.168 182.08 10.776C182.08 8.936 180.704 8.504 179.2 8.392C178.144 8.312 177.344 8.04 177.344 7.128C177.344 6.424 177.952 6.056 178.896 6.056C180 6.056 180.448 6.312 180.88 6.872L181.84 6.2ZM185.293 11.144H183.757V15.272L185.293 13.944V11.144ZM193.146 1.96H191.77V13H193.146V1.96ZM195.712 13H196.992V8.008C196.992 6.904 197.744 6.056 198.944 6.056C199.888 6.056 200.768 6.408 200.768 8.024V13H202.048V8.008C202.048 5.768 200.848 4.872 199.136 4.872C197.952 4.872 197.392 5.176 196.992 5.784V5H195.712V13ZM208.966 11.08C208.63 11.72 207.942 11.976 207.19 11.976C205.654 11.976 205.014 10.888 205.014 9.512V8.456C205.014 6.952 205.814 6.024 207.19 6.024C207.926 6.024 208.598 6.312 208.95 6.824L209.958 6.12C209.382 5.304 208.39 4.872 207.19 4.872C205.03 4.872 203.734 6.184 203.734 8.456V9.512C203.734 11.72 204.998 13.128 207.19 13.128C208.486 13.128 209.462 12.712 209.958 11.784L208.966 11.08ZM213.019 11.144H211.163V13H213.019V11.144ZM218.624 10.664C218.624 12.216 219.632 13.128 221.488 13.128C222.528 13.128 223.072 12.952 223.52 12.216V13H224.8V7.448C224.8 5.528 223.792 4.872 221.76 4.872C220.24 4.872 219.424 5.272 218.864 6.2L219.824 6.872C220.272 6.136 220.784 6.056 221.744 6.056C222.992 6.056 223.52 6.312 223.52 7.448V8.376H221.616C219.856 8.376 218.624 8.936 218.624 10.664ZM223.52 9.928C223.52 11.72 222.672 11.944 221.488 11.944C220.544 11.944 219.904 11.592 219.904 10.696C219.904 9.896 220.352 9.464 221.616 9.464H223.52V9.928ZM226.884 10.536C226.884 12.2 227.508 13 229.524 13V11.816C228.212 11.816 228.164 11.08 228.164 10.216V1.96H226.884V10.536ZM231.274 10.536C231.274 12.2 231.898 13 233.914 13V11.816C232.602 11.816 232.554 11.08 232.554 10.216V1.96H231.274V10.536ZM245.089 5.96C244.577 5.24 243.889 4.872 242.801 4.872C241.825 4.872 241.281 5.224 240.945 5.784V5H239.665V13H240.945V7.992C240.945 6.792 241.681 6.056 242.657 6.056C243.249 6.056 243.665 6.264 244.001 6.728L245.089 5.96ZM246.202 13H247.482V5H246.202V13ZM246.122 3.4H247.562V1.96H246.122V3.4ZM254.782 5.8C254.35 5.208 253.662 4.872 252.606 4.872C250.622 4.872 249.406 6.168 249.406 8.456V9.512C249.406 11.592 250.43 13.128 252.606 13.128C253.662 13.128 254.35 12.856 254.782 12.296V12.84C254.782 14.216 254.126 14.984 252.734 14.984C251.694 14.984 251.166 14.68 250.83 14.088L249.838 14.792C250.398 15.768 251.246 16.136 252.638 16.136C254.782 16.136 256.062 15.064 256.062 12.84V5H254.782V5.8ZM252.734 11.976C251.374 11.976 250.686 10.872 250.686 9.512V8.456C250.686 6.936 251.422 6.024 252.734 6.024C254.046 6.024 254.782 6.952 254.782 8.456V9.512C254.782 10.888 254.206 11.976 252.734 11.976ZM258.149 13H259.429V8.008C259.429 6.904 260.181 6.056 261.381 6.056C262.325 6.056 263.205 6.408 263.205 8.024V13H264.485V8.008C264.485 5.768 263.285 4.872 261.573 4.872C260.389 4.872 259.829 5.176 259.429 5.784V1.96H258.149V13ZM265.867 6.152H266.891V10.536C266.891 12.2 267.435 13 269.323 13H270.011V11.784H269.371C268.299 11.784 268.171 11.32 268.171 10.216V6.152H270.011V5H268.171V3.24H266.891V5H265.867V6.152ZM277.074 6.2C276.45 5.208 275.458 4.872 274.162 4.872C272.258 4.872 271.298 5.816 271.298 7.144C271.298 8.888 272.626 9.432 273.97 9.528C275.522 9.64 276.034 9.944 276.034 10.808C276.034 11.528 275.394 11.944 274.322 11.944C273.17 11.944 272.594 11.704 272.162 11.128L271.218 11.8C271.826 12.632 272.674 13.128 274.306 13.128C276.37 13.128 277.314 12.168 277.314 10.776C277.314 8.936 275.938 8.504 274.434 8.392C273.378 8.312 272.578 8.04 272.578 7.128C272.578 6.424 273.186 6.056 274.13 6.056C275.234 6.056 275.682 6.312 276.114 6.872L277.074 6.2ZM288.495 5.96C287.983 5.24 287.295 4.872 286.207 4.872C285.231 4.872 284.687 5.224 284.351 5.784V5H283.071V13H284.351V7.992C284.351 6.792 285.087 6.056 286.063 6.056C286.655 6.056 287.071 6.264 287.407 6.728L288.495 5.96ZM294.2 11.08C293.864 11.672 293.336 11.976 292.296 11.976C290.904 11.976 290.248 10.888 290.248 9.512V9.288H295.304V8.456C295.304 6.168 294.248 4.872 292.136 4.872C290.04 4.872 288.968 6.184 288.968 8.456V9.512C288.968 11.736 290.248 13.128 292.392 13.128C293.784 13.128 294.632 12.76 295.192 11.784L294.2 11.08ZM292.136 6.024C293.352 6.024 293.944 6.824 294.008 8.168H290.248C290.328 6.84 290.904 6.024 292.136 6.024ZM302.637 6.2C302.013 5.208 301.021 4.872 299.725 4.872C297.821 4.872 296.861 5.816 296.861 7.144C296.861 8.888 298.189 9.432 299.533 9.528C301.085 9.64 301.597 9.944 301.597 10.808C301.597 11.528 300.957 11.944 299.885 11.944C298.733 11.944 298.157 11.704 297.725 11.128L296.781 11.8C297.389 12.632 298.237 13.128 299.869 13.128C301.933 13.128 302.877 12.168 302.877 10.776C302.877 8.936 301.501 8.504 299.997 8.392C298.941 8.312 298.141 8.04 298.141 7.128C298.141 6.424 298.749 6.056 299.693 6.056C300.797 6.056 301.245 6.312 301.677 6.872L302.637 6.2ZM309.466 11.08C309.13 11.672 308.602 11.976 307.562 11.976C306.17 11.976 305.514 10.888 305.514 9.512V9.288H310.57V8.456C310.57 6.168 309.514 4.872 307.402 4.872C305.306 4.872 304.234 6.184 304.234 8.456V9.512C304.234 11.736 305.514 13.128 307.658 13.128C309.05 13.128 309.898 12.76 310.458 11.784L309.466 11.08ZM307.402 6.024C308.618 6.024 309.21 6.824 309.274 8.168H305.514C305.594 6.84 306.17 6.024 307.402 6.024ZM317.87 5.96C317.358 5.24 316.67 4.872 315.582 4.872C314.606 4.872 314.062 5.224 313.726 5.784V5H312.446V13H313.726V7.992C313.726 6.792 314.462 6.056 315.438 6.056C316.03 6.056 316.446 6.264 316.782 6.728L317.87 5.96ZM324.167 5L321.735 11.368L319.303 5H317.863L321.127 13H322.407L325.607 5H324.167ZM331.638 11.08C331.302 11.672 330.774 11.976 329.734 11.976C328.342 11.976 327.686 10.888 327.686 9.512V9.288H332.742V8.456C332.742 6.168 331.686 4.872 329.574 4.872C327.478 4.872 326.406 6.184 326.406 8.456V9.512C326.406 11.736 327.686 13.128 329.83 13.128C331.222 13.128 332.07 12.76 332.63 11.784L331.638 11.08ZM329.574 6.024C330.79 6.024 331.382 6.824 331.446 8.168H327.686C327.766 6.84 328.342 6.024 329.574 6.024ZM339.594 5.8C339.162 5.208 338.474 4.872 337.418 4.872C335.434 4.872 334.218 6.168 334.218 8.456V9.512C334.218 11.592 335.242 13.128 337.418 13.128C338.474 13.128 339.162 12.856 339.594 12.296V13H340.874V1.96H339.594V5.8ZM337.546 11.976C336.186 11.976 335.498 10.872 335.498 9.512V8.456C335.498 6.936 336.234 6.024 337.546 6.024C338.858 6.024 339.594 6.952 339.594 8.456V9.624C339.594 10.952 338.97 11.976 337.546 11.976ZM344.738 11.144H342.882V13H344.738V11.144Z" fill="#999999"/>
</svg>
