<svg width="18" height="18" viewBox="0 0 18 18" fill="none" xmlns="http://www.w3.org/2000/svg">
<g opacity="0.7" filter="url(#filter0_i_221_3547)">
<rect x="2" y="1" width="3.04762" height="16" fill="#7FC9D5"/>
<path d="M7.04761 1H13.9524C15.6092 1 16.9524 2.34315 16.9524 4V14C16.9524 15.6569 15.6092 17 13.9524 17H7.04761V1Z" fill="#7FC9D5"/>
</g>
<defs>
<filter id="filter0_i_221_3547" x="2" y="1" width="16.9524" height="18" filterUnits="userSpaceOnUse" color-interpolation-filters="sRGB">
<feFlood flood-opacity="0" result="BackgroundImageFix"/>
<feBlend mode="normal" in="SourceGraphic" in2="BackgroundImageFix" result="shape"/>
<feColorMatrix in="SourceAlpha" type="matrix" values="0 0 0 0 0 0 0 0 0 0 0 0 0 0 0 0 0 0 127 0" result="hardAlpha"/>
<feOffset dx="2" dy="2"/>
<feGaussianBlur stdDeviation="2"/>
<feComposite in2="hardAlpha" operator="arithmetic" k2="-1" k3="1"/>
<feColorMatrix type="matrix" values="0 0 0 0 1 0 0 0 0 1 0 0 0 0 1 0 0 0 0.3 0"/>
<feBlend mode="normal" in2="shape" result="effect1_innerShadow_221_3547"/>
</filter>
</defs>
</svg>
