<svg width="109" height="20" viewBox="0 0 109 20" fill="none" xmlns="http://www.w3.org/2000/svg">
<path d="M9.975 19.35C8.725 19.35 7.55 19.125 6.45 18.675C5.35 18.225 4.39167 17.6 3.575 16.8C2.775 15.9833 2.13333 15.025 1.65 13.925C1.18333 12.8083 0.95 11.6 0.95 10.3V10.25C0.95 8.98333 1.18333 7.8 1.65 6.7C2.11667 5.58333 2.75833 4.61667 3.575 3.8C4.39167 2.96667 5.35833 2.31667 6.475 1.85C7.60833 1.38333 8.84167 1.15 10.175 1.15C11.075 1.15 11.8917 1.24167 12.625 1.425C13.3583 1.59167 14.025 1.84167 14.625 2.175C15.2417 2.49167 15.7917 2.875 16.275 3.325C16.775 3.775 17.2167 4.26667 17.6 4.8L13.95 7.625C13.45 6.99167 12.9 6.49167 12.3 6.125C11.7 5.75833 10.975 5.575 10.125 5.575C9.50833 5.575 8.94167 5.7 8.425 5.95C7.925 6.18333 7.49167 6.50833 7.125 6.925C6.75833 7.34167 6.46667 7.83333 6.25 8.4C6.05 8.96667 5.95 9.56667 5.95 10.2V10.25C5.95 10.9 6.05 11.5167 6.25 12.1C6.46667 12.6667 6.75833 13.1583 7.125 13.575C7.49167 13.9917 7.925 14.325 8.425 14.575C8.94167 14.8083 9.50833 14.925 10.125 14.925C10.575 14.925 10.9833 14.875 11.35 14.775C11.7333 14.675 12.075 14.5333 12.375 14.35C12.6917 14.15 12.9833 13.925 13.25 13.675C13.5333 13.4083 13.8083 13.1167 14.075 12.8L17.725 15.4C17.3083 15.9667 16.85 16.4917 16.35 16.975C15.8667 17.4583 15.3083 17.875 14.675 18.225C14.0583 18.575 13.3583 18.85 12.575 19.05C11.8083 19.25 10.9417 19.35 9.975 19.35ZM19.5367 5.475H24.2867V8.2C24.6701 7.28333 25.1951 6.55 25.8617 6C26.5284 5.45 27.4284 5.2 28.5617 5.25V10.25H28.1617C26.9117 10.25 25.9534 10.6167 25.2867 11.35C24.6201 12.0833 24.2867 13.2333 24.2867 14.8V19H19.5367V5.475ZM38.8801 11.125C38.7967 10.375 38.5467 9.78333 38.1301 9.35C37.7134 8.9 37.1801 8.675 36.5301 8.675C35.8967 8.675 35.3801 8.9 34.9801 9.35C34.5801 9.78333 34.3134 10.375 34.1801 11.125H38.8801ZM36.9301 19.325C35.8634 19.325 34.8884 19.1583 34.0051 18.825C33.1217 18.475 32.3551 18 31.7051 17.4C31.0717 16.7833 30.5717 16.0417 30.2051 15.175C29.8551 14.3083 29.6801 13.35 29.6801 12.3V12.25C29.6801 11.2667 29.8467 10.35 30.1801 9.5C30.5134 8.63333 30.9801 7.88333 31.5801 7.25C32.1967 6.6 32.9217 6.09167 33.7551 5.725C34.5884 5.35833 35.5051 5.175 36.5051 5.175C37.6717 5.175 38.6801 5.375 39.5301 5.775C40.3967 6.175 41.1051 6.71667 41.6551 7.4C42.2217 8.06667 42.6384 8.85 42.9051 9.75C43.1884 10.6333 43.3301 11.575 43.3301 12.575C43.3301 12.725 43.3301 12.8833 43.3301 13.05C43.3301 13.2167 43.3217 13.3833 43.3051 13.55H34.2551C34.4384 14.3 34.7801 14.8583 35.2801 15.225C35.7967 15.5917 36.4301 15.775 37.1801 15.775C37.7467 15.775 38.2634 15.6667 38.7301 15.45C39.2134 15.2333 39.6967 14.8833 40.1801 14.4L42.8051 16.575C42.1551 17.4083 41.3467 18.075 40.3801 18.575C39.4301 19.075 38.2801 19.325 36.9301 19.325ZM50.9418 16.325C51.6418 16.325 52.2085 16.125 52.6418 15.725C53.0751 15.325 53.2918 14.7833 53.2918 14.1V13.475C53.0585 13.375 52.7751 13.2917 52.4418 13.225C52.1251 13.1583 51.7918 13.125 51.4418 13.125C50.7418 13.125 50.2001 13.2833 49.8168 13.6C49.4501 13.9 49.2668 14.3 49.2668 14.8V14.85C49.2668 15.3167 49.4251 15.6833 49.7418 15.95C50.0585 16.2 50.4585 16.325 50.9418 16.325ZM49.2418 19.3C48.5918 19.3 47.9918 19.2083 47.4418 19.025C46.8918 18.8417 46.4085 18.575 45.9918 18.225C45.5918 17.875 45.2751 17.4417 45.0418 16.925C44.8085 16.4083 44.6918 15.8083 44.6918 15.125V15.075C44.6918 14.375 44.8168 13.7583 45.0668 13.225C45.3335 12.6917 45.6918 12.25 46.1418 11.9C46.6085 11.55 47.1668 11.2833 47.8168 11.1C48.4668 10.9167 49.1918 10.825 49.9918 10.825C50.6251 10.825 51.2251 10.8833 51.7918 11C52.3751 11.1 52.8585 11.2167 53.2418 11.35V11.125C53.2418 10.425 53.0168 9.88333 52.5668 9.5C52.1335 9.11667 51.4585 8.925 50.5418 8.925C49.8251 8.925 49.1751 8.99167 48.5918 9.125C48.0085 9.25833 47.4168 9.44167 46.8168 9.675L45.8418 6.325C46.6085 6.00833 47.4168 5.75833 48.2668 5.575C49.1335 5.375 50.1501 5.275 51.3168 5.275C52.5335 5.275 53.5585 5.41667 54.3918 5.7C55.2418 5.98333 55.9335 6.39167 56.4668 6.925C56.9835 7.425 57.3501 8.03333 57.5668 8.75C57.8001 9.45 57.9168 10.275 57.9168 11.225V19H53.2168V17.6C52.7501 18.1167 52.1918 18.5333 51.5418 18.85C50.9085 19.15 50.1418 19.3 49.2418 19.3ZM65.7076 19.275C64.2743 19.275 63.1576 18.9333 62.3576 18.25C61.5576 17.5667 61.1576 16.4167 61.1576 14.8V9.3H59.5576V5.475H61.1576V2.05H65.9076V5.475H69.0576V9.3H65.9076V13.875C65.9076 14.3583 66.016 14.7083 66.2326 14.925C66.4493 15.125 66.7743 15.225 67.2076 15.225C67.5243 15.225 67.8326 15.1833 68.1326 15.1C68.4326 15.0167 68.7243 14.9083 69.0076 14.775V18.5C68.5743 18.7333 68.0826 18.9167 67.5326 19.05C66.9826 19.2 66.3743 19.275 65.7076 19.275ZM71.1992 5.475H75.9492V19H71.1992V5.475ZM71.0992 0.75H76.0492V4.25H71.0992V0.75ZM85.5443 15.3C85.9777 15.3 86.3693 15.225 86.7193 15.075C87.0693 14.9083 87.361 14.6917 87.5943 14.425C87.8443 14.1417 88.036 13.8167 88.1693 13.45C88.3027 13.0833 88.3693 12.7 88.3693 12.3V12.25C88.3693 11.8333 88.2943 11.4417 88.1443 11.075C88.011 10.7083 87.811 10.3917 87.5443 10.125C87.2943 9.84167 86.9943 9.61667 86.6443 9.45C86.2943 9.28333 85.911 9.2 85.4943 9.2C85.061 9.2 84.6693 9.28333 84.3193 9.45C83.9693 9.6 83.6693 9.81667 83.4193 10.1C83.186 10.3667 83.0027 10.6833 82.8693 11.05C82.736 11.4167 82.6693 11.8 82.6693 12.2V12.25C82.6693 12.6667 82.736 13.0583 82.8693 13.425C83.0193 13.7917 83.2193 14.1167 83.4693 14.4C83.736 14.6667 84.0443 14.8833 84.3943 15.05C84.7443 15.2167 85.1277 15.3 85.5443 15.3ZM85.4943 19.325C84.411 19.325 83.411 19.1417 82.4943 18.775C81.5943 18.4083 80.811 17.9083 80.1443 17.275C79.4777 16.625 78.961 15.875 78.5943 15.025C78.2277 14.175 78.0443 13.2667 78.0443 12.3V12.25C78.0443 11.2833 78.2277 10.375 78.5943 9.525C78.9777 8.65833 79.5027 7.90833 80.1693 7.275C80.836 6.625 81.6277 6.11667 82.5443 5.75C83.461 5.36667 84.461 5.175 85.5443 5.175C86.6277 5.175 87.6193 5.36667 88.5193 5.75C89.436 6.11667 90.2277 6.61667 90.8943 7.25C91.561 7.88333 92.0777 8.625 92.4443 9.475C92.811 10.325 92.9943 11.2333 92.9943 12.2V12.25C92.9943 13.2167 92.8027 14.1333 92.4193 15C92.0527 15.85 91.536 16.6 90.8693 17.25C90.2027 17.8833 89.411 18.3917 88.4943 18.775C87.5777 19.1417 86.5777 19.325 85.4943 19.325ZM95.0006 5.475H99.7506V7.375C99.9673 7.09167 100.209 6.81667 100.476 6.55C100.742 6.28333 101.042 6.05 101.376 5.85C101.709 5.65 102.076 5.49167 102.476 5.375C102.876 5.24167 103.317 5.175 103.801 5.175C105.251 5.175 106.376 5.61667 107.176 6.5C107.992 7.38333 108.401 8.6 108.401 10.15V19H103.651V11.675C103.651 10.925 103.476 10.3583 103.126 9.975C102.776 9.59167 102.317 9.4 101.751 9.4C101.167 9.4 100.684 9.59167 100.301 9.975C99.9339 10.3583 99.7506 10.925 99.7506 11.675V19H95.0006V5.475Z" fill="white"/>
</svg>
