<svg width="54" height="54" viewBox="0 0 54 54" fill="none" xmlns="http://www.w3.org/2000/svg">
  <circle cx="27" cy="27" r="27" fill="black"/>
  <path d="M33.8294 26.6582C33.8187 24.6955 34.7065 23.2142 36.5033 22.1233C35.4979 20.6847 33.9792 19.8932 31.9738 19.7382C30.0753 19.5884 28.0004 20.8451 27.241 20.8451C26.4388 20.8451 24.5992 19.7916 23.1553 19.7916C20.1712 19.8398 17 22.1714 17 26.9149C17 28.316 17.2567 29.7634 17.7701 31.2573C18.4546 33.2199 20.9253 38.0329 23.5029 37.9527C24.8505 37.9206 25.8024 36.9954 27.5565 36.9954C29.2571 36.9954 30.1395 37.9527 31.6422 37.9527C34.2412 37.9152 36.4766 33.5408 37.129 31.5728C33.6423 29.931 33.8294 26.7598 33.8294 26.6582ZM30.8026 17.8771C32.2625 16.1445 32.1288 14.5669 32.0861 14C30.7972 14.0749 29.3052 14.877 28.4549 15.8664C27.5191 16.9252 26.9682 18.2354 27.0859 19.7114C28.4817 19.8184 29.7544 19.1018 30.8026 17.8771Z" fill="white"/>
</svg>
