<svg width="82" height="18" viewBox="0 0 82 18" fill="none" xmlns="http://www.w3.org/2000/svg">
<path d="M8.60918 0.195435H0.343506V8.46111H8.60918C8.60918 5.70344 8.60918 2.9531 8.60918 0.195435Z" fill="white"/>
<path d="M17.7181 8.46111C17.7181 5.70344 17.7181 2.9531 17.7181 0.195435H9.45251C9.45251 2.9531 9.45251 5.70344 9.45251 8.46111C12.2028 8.46111 14.9604 8.46111 17.7181 8.46111Z" fill="white"/>
<path d="M79.9197 6.62743C79.9051 5.87934 79.9197 5.1386 79.9197 4.39051C79.333 4.56653 78.7462 4.7572 78.1522 4.92589C78.1375 5.49062 78.1522 6.05536 78.1448 6.62009C77.2721 6.62009 76.3993 6.62009 75.5339 6.62009C75.5412 6.1727 75.5045 5.72531 75.5705 5.28526C75.6219 4.93322 75.8273 4.58854 76.1646 4.44919C76.5974 4.27317 77.0741 4.3905 77.4848 4.56652C77.4848 4.05312 77.4848 3.54704 77.4848 3.03365C76.6267 2.79895 75.6439 2.84299 74.8811 3.34172C74.3898 3.65709 74.0304 4.16315 73.8764 4.72055C73.6857 5.33663 73.781 5.98936 73.7516 6.62743C73.3409 6.62743 72.9229 6.62743 72.5122 6.62743C72.5122 7.10416 72.5122 7.58089 72.5122 8.05761C72.9303 8.06495 73.3409 8.05761 73.759 8.05761C73.759 10.0672 73.759 12.0767 73.759 14.0863H75.5486C75.5486 12.0767 75.5486 10.0672 75.5486 8.05761C76.4214 8.05761 77.2941 8.05761 78.1669 8.05761C78.1669 9.3411 78.1669 10.6172 78.1669 11.9007C78.1742 12.4948 78.2769 13.1329 78.673 13.6023C79.0177 14.0203 79.5603 14.211 80.0811 14.2477C80.6311 14.2844 81.2032 14.2183 81.7166 13.9983V12.5315C81.3279 12.7955 80.7852 12.8982 80.3598 12.6562C80.1031 12.5168 80.0077 12.2161 79.971 11.9447C79.9197 11.4827 79.9491 11.0206 79.9418 10.5586C79.9418 9.72246 79.9418 8.88638 79.9418 8.05761C80.5358 8.05761 81.1225 8.04295 81.7166 8.06495V6.61275C81.1299 6.61275 80.5358 6.61275 79.9491 6.61275L79.9197 6.62743Z" fill="white"/>
<path d="M36.5966 3.45173C36.0978 3.5104 35.6797 3.95779 35.687 4.46385C35.665 4.94791 36.0538 5.37328 36.5158 5.4613C36.9632 5.55664 37.4766 5.37329 37.704 4.96257C37.9093 4.6032 37.858 4.11184 37.5793 3.8038C37.3373 3.5251 36.9486 3.40039 36.5892 3.45173H36.5966Z" fill="white"/>
<path d="M31.6826 3.67901C30.6485 6.24599 29.5923 8.81296 28.5509 11.3799C28.3308 10.8665 28.1402 10.3532 27.9348 9.83977C27.1281 7.78619 26.3067 5.73259 25.4999 3.67901H22.9036C22.9036 7.15543 22.9036 10.6245 22.9036 14.1009C23.4683 14.1009 24.0403 14.1009 24.6051 14.1009C24.6051 12.5461 24.6051 10.9913 24.6051 9.4364C24.6051 8.31426 24.5904 7.1921 24.6124 6.06263C24.6417 6.11397 24.6711 6.16534 24.7004 6.22401C25.7639 8.84966 26.8127 11.4826 27.8762 14.1009C28.3016 14.1009 28.7343 14.1083 29.1597 14.0936C30.1865 11.468 31.2426 8.84966 32.2694 6.22401C32.2987 6.16534 32.328 6.11401 32.3647 6.05534C32.3721 6.17268 32.3794 6.28268 32.3721 6.40002C32.3721 8.967 32.3721 11.5266 32.3721 14.0936C32.9735 14.1009 33.5748 14.0936 34.1763 14.0936C34.1763 10.6172 34.1763 7.14813 34.1763 3.67172C33.3401 3.67172 32.5114 3.66438 31.6753 3.67172L31.6826 3.67901Z" fill="white"/>
<path d="M44.1728 6.62004C43.3074 6.37801 42.3833 6.36334 41.5178 6.6127C40.7257 6.84006 39.9996 7.32414 39.5375 8.01356C38.9801 8.82032 38.7895 9.82509 38.8335 10.7859C38.8775 11.71 39.2442 12.6341 39.9116 13.2869C40.5277 13.8883 41.3858 14.211 42.2366 14.255C43.0727 14.299 43.9454 14.1816 44.6788 13.7489C44.6788 13.2062 44.6788 12.6708 44.6788 12.128C44.2094 12.4728 43.6594 12.7221 43.0727 12.7881C42.4859 12.8321 41.8478 12.6928 41.4005 12.2894C40.9677 11.9227 40.7331 11.3653 40.6817 10.8079C40.6084 10.0965 40.7111 9.31904 41.1585 8.73964C41.5032 8.27025 42.0606 7.96955 42.64 7.91821C43.3734 7.82287 44.1068 8.10155 44.6788 8.5416C44.6788 7.96953 44.6788 7.40483 44.6788 6.83276C44.5175 6.73742 44.3488 6.67138 44.1728 6.62004Z" fill="white"/>
<path d="M56.1863 6.78885C55.3869 6.42948 54.4848 6.37811 53.6267 6.48813C52.7246 6.60547 51.8517 7.02354 51.2797 7.74229C50.7589 8.38037 50.5022 9.20913 50.4582 10.0232C50.3849 10.984 50.5463 12.0108 51.111 12.8102C51.5951 13.507 52.3505 13.9837 53.172 14.1597C53.8614 14.3064 54.5801 14.3064 55.2622 14.1597C56.069 13.991 56.8171 13.551 57.3158 12.8909C57.7999 12.2748 58.0492 11.4974 58.1005 10.7126C58.1592 9.91321 58.0785 9.09176 57.7485 8.35834C57.4405 7.66893 56.8757 7.08955 56.1863 6.78151V6.78885ZM56.0176 11.7981C55.8489 12.1795 55.5335 12.5095 55.1375 12.6635C54.6754 12.8395 54.1547 12.8542 53.678 12.7296C53.1939 12.6049 52.7832 12.2528 52.5558 11.8054C52.2698 11.2334 52.2258 10.566 52.2845 9.93522C52.3358 9.36315 52.5412 8.76908 52.9739 8.38037C53.2893 8.087 53.722 7.94031 54.1474 7.91831C54.6828 7.88164 55.2549 8.03566 55.6436 8.42437C56.0543 8.82775 56.2156 9.42182 56.2596 9.97922C56.289 10.5953 56.2597 11.2334 56.0103 11.8054L56.0176 11.7981Z" fill="white"/>
<path d="M62.677 10.0232C62.1489 9.7225 61.5475 9.57581 61.0414 9.23843C60.7481 9.04774 60.6601 8.63703 60.7848 8.32166C60.9388 8.00629 61.3054 7.85959 61.6355 7.85226C62.2955 7.83025 62.963 8.02829 63.5131 8.40966C63.5131 7.8596 63.5131 7.31687 63.5131 6.76681C62.7283 6.47344 61.8629 6.36344 61.0414 6.51013C60.3447 6.63481 59.6552 6.99418 59.2665 7.60292C58.9218 8.12365 58.8778 8.79106 59.0172 9.38513C59.1125 9.78851 59.3619 10.1479 59.6846 10.3973C60.1467 10.7493 60.7041 10.9473 61.2248 11.1894C61.5035 11.3214 61.8042 11.4534 62.0022 11.7027C62.2222 12.0181 62.1563 12.5388 61.7895 12.7148C61.4082 12.8982 60.9681 12.8909 60.5574 12.8249C59.9706 12.7222 59.4132 12.4728 58.9365 12.1281C58.9365 12.7002 58.9365 13.2796 58.9365 13.859C59.5086 14.1157 60.132 14.233 60.7554 14.277C61.6282 14.3064 62.5816 14.1377 63.2417 13.5216C63.9311 12.9129 64.0998 11.8274 63.7038 11.006C63.4911 10.566 63.095 10.2652 62.677 10.0305V10.0232Z" fill="white"/>
<path d="M70.5173 6.84754C69.7032 6.43682 68.7571 6.37816 67.8623 6.48817C67.1436 6.58351 66.4395 6.85491 65.8894 7.33896C65.222 7.91837 64.8259 8.76176 64.7086 9.63453C64.5986 10.5 64.6353 11.4168 64.9873 12.2309C65.3247 13.0303 65.9994 13.6757 66.8062 13.9911C67.5983 14.3064 68.4857 14.3358 69.3218 14.2038C70.1799 14.0644 70.9867 13.6097 71.5221 12.9203C72.0868 12.2015 72.3289 11.2774 72.3289 10.3753C72.3435 9.77389 72.2628 9.15782 72.0501 8.59309C71.7788 7.85233 71.2214 7.20692 70.5173 6.85488V6.84754ZM70.4439 11.1161C70.3779 11.5121 70.2385 11.9008 69.9818 12.2088C69.7252 12.5242 69.3365 12.7149 68.9404 12.7736C68.5151 12.8396 68.0603 12.8103 67.6643 12.6342C67.2316 12.4509 66.9015 12.0768 66.7255 11.6514C66.5128 11.138 66.4688 10.5733 66.5128 10.0233C66.5568 9.4952 66.7035 8.94512 67.0555 8.5344C67.3782 8.14569 67.8623 7.93301 68.361 7.91101C68.8671 7.87434 69.4024 7.9917 69.7912 8.33641C70.1505 8.62978 70.3486 9.07716 70.4366 9.52455C70.5392 10.0526 70.5393 10.5953 70.4513 11.1234L70.4439 11.1161Z" fill="white"/>
<path d="M48.6761 6.73748C48.2287 6.99418 47.9426 7.44154 47.7519 7.91093C47.7519 7.48555 47.7519 7.05283 47.7519 6.62745C47.1652 6.62745 46.5784 6.62745 45.9844 6.62745C45.9844 9.11375 45.9844 11.6074 45.9844 14.0937H47.7446C47.7446 12.9055 47.7446 11.7101 47.7446 10.5219C47.7299 10.0012 47.7739 9.47311 48.0013 8.99638C48.2066 8.549 48.61 8.16031 49.1161 8.10163C49.5341 8.05763 49.9742 8.16032 50.3263 8.38768C50.3263 7.79361 50.3263 7.1922 50.3263 6.59813C49.7909 6.41477 49.1601 6.44411 48.6687 6.73748H48.6761Z" fill="white"/>
<path d="M35.8558 6.62749C35.8558 9.11379 35.8558 11.6074 35.8558 14.0937H37.6307C37.6307 11.6074 37.6307 9.12112 37.6307 6.62749C37.0366 6.61282 36.4426 6.62749 35.8558 6.62749Z" fill="white"/>
<path d="M0.343506 9.30444V17.5701H8.60918C8.60918 14.8124 8.60918 12.0621 8.60918 9.30444C5.85152 9.30444 3.10117 9.30444 0.343506 9.30444Z" fill="white"/>
<path d="M9.45251 9.30444C9.45251 12.0548 9.45251 14.8124 9.45251 17.5701H17.7181V9.30444C14.9604 9.30444 12.2102 9.30444 9.45251 9.30444Z" fill="white"/>
</svg>
