<svg width="100" height="15" viewBox="0 0 100 15" fill="none" xmlns="http://www.w3.org/2000/svg">
<path fill-rule="evenodd" clip-rule="evenodd" d="M38.0382 12.5782C36.9845 12.5782 36.164 12.3286 35.5767 11.8294C34.9894 11.3303 34.6952 10.4904 34.694 9.30991V5.29372H33.5243V2.49753H34.694V0H38.1856V2.49753H40.4879V5.28949H38.1856V8.63476C38.1856 8.98841 38.2646 9.24081 38.4228 9.39197C38.5812 9.54511 38.8183 9.62041 39.136 9.62041C39.365 9.62137 39.5931 9.59062 39.8136 9.52903C40.0332 9.46849 40.2472 9.38923 40.4532 9.29214V12.0122C40.1116 12.1919 39.7495 12.3297 39.3749 12.4225C38.9376 12.5303 38.4885 12.5826 38.0382 12.5782ZM6.18517 3.08897C6.18517 4.79493 4.80058 6.17789 3.09259 6.17789C1.3846 6.17789 0 4.79493 0 3.08897C0 1.383 1.3846 4.78941e-05 3.09259 4.78941e-05C4.80058 4.78941e-05 6.18517 1.383 6.18517 3.08897ZM5.59309 8.48015C5.94617 8.96473 6.15049 9.54144 6.18114 10.14C6.18368 10.1967 6.18538 10.2449 6.18538 10.2982C6.18548 11.3074 5.81918 12.2824 5.15439 13.0424C4.48959 13.8024 3.57143 14.2958 2.57015 14.4311C2.7528 14.1023 2.88987 13.7502 2.97759 13.3846C2.37797 13.3623 1.79779 13.1662 1.30778 12.8204C0.817757 12.4745 0.43906 11.9937 0.217845 11.4366C-0.00337024 10.8795 -0.0575493 10.2701 0.0619114 9.68281C0.181372 9.09549 0.469313 8.55556 0.890637 8.12884C1.31196 7.70211 1.84847 7.40703 2.43477 7.27955C3.02107 7.15207 3.63184 7.1977 4.19263 7.41088C4.75342 7.62406 5.24001 7.99558 5.59309 8.48015ZM9.30265 2.4963H12.7027L13.9987 7.46513L15.5149 2.4633H18.3864L19.9221 7.50151L21.2562 2.4963H24.6004L21.551 12.4458H18.5508L16.9422 7.31877L15.2981 12.4484H12.319L9.30265 2.4963ZM29.2442 2.49798H25.751V12.3773H29.2442V9.31035C29.2442 8.1665 29.4882 7.32806 29.9752 6.79251C30.0367 6.72494 30.1016 6.65063 30.1701 6.57234C30.6439 6.03014 31.2841 5.29755 32.0827 5.29755H32.3749L32.3699 2.33638C31.5409 2.30028 30.8827 2.48275 30.3954 2.88378C29.8855 3.31722 29.4902 3.86926 29.2442 4.49127V2.49798ZM45.1294 2.49988H41.6387V12.3792H45.1294V7.03047C45.1288 6.48505 45.264 6.07133 45.5351 5.78932C45.6688 5.65018 45.8302 5.54064 46.0089 5.46777C46.1877 5.3949 46.3798 5.36033 46.5727 5.36629C46.759 5.35982 46.9444 5.39436 47.1159 5.46747C47.2873 5.54057 47.4405 5.65045 47.5646 5.78932C47.8176 6.06964 47.9441 6.48336 47.9441 7.03047V12.3792H51.4365V5.91707C51.4359 4.78788 51.1383 3.90066 50.5437 3.2554C49.9491 2.61015 49.119 2.28752 48.0534 2.28752C47.7295 2.28389 47.4069 2.33012 47.0971 2.42458C46.8188 2.51082 46.552 2.63042 46.3025 2.78077C46.0658 2.92253 45.8476 3.09304 45.6528 3.2884C45.4652 3.47742 45.2903 3.67866 45.1294 3.89078V2.49988Z" fill="white"/>
<path d="M56.2783 1.93018H58.0797V12.3727H56.2783V1.93018Z" fill="url(#paint0_linear_3894_49047)"/>
<path d="M60.6188 4.49605H62.3909V5.68948C62.5178 5.51047 62.6545 5.3414 62.8009 5.18228C62.9474 5.02315 63.1134 4.87895 63.2989 4.74966C63.4941 4.62037 63.7089 4.52092 63.9433 4.4513C64.1873 4.37174 64.4558 4.33196 64.7487 4.33196C65.3052 4.33196 65.7739 4.46125 66.1547 4.71982C66.5452 4.96845 66.843 5.30162 67.048 5.71932C67.3604 5.30162 67.7265 4.96845 68.1464 4.71982C68.576 4.46125 69.0836 4.33196 69.6694 4.33196C70.5189 4.33196 71.1828 4.59551 71.6612 5.1226C72.1396 5.63976 72.3788 6.38068 72.3788 7.34537V12.3727H70.6067V7.89733C70.6067 7.27078 70.47 6.79341 70.1967 6.46522C69.9233 6.13702 69.5376 5.97292 69.0397 5.97292C68.5515 5.97292 68.1513 6.14199 67.8388 6.48013C67.5362 6.80833 67.3848 7.29067 67.3848 7.92717V12.3727H65.6128V7.88242C65.6128 7.26581 65.4761 6.79341 65.2027 6.46522C64.9294 6.13702 64.5437 5.97292 64.0458 5.97292C63.5478 5.97292 63.1475 6.14697 62.8449 6.49505C62.5422 6.84313 62.3909 7.32548 62.3909 7.94209V12.3727H60.6188V4.49605Z" fill="url(#paint1_linear_3894_49047)"/>
<path d="M79.3087 9.07585C79.0842 8.98634 78.8157 8.91175 78.5032 8.85208C78.2006 8.79241 77.8784 8.76257 77.5367 8.76257C76.9802 8.76257 76.5457 8.87197 76.2333 9.09076C75.9208 9.30956 75.7646 9.60792 75.7646 9.98584V10.0157C75.7646 10.3936 75.9062 10.682 76.1893 10.8809C76.4822 11.0798 76.8386 11.1793 77.2584 11.1793C77.5513 11.1793 77.8198 11.1395 78.0639 11.0599C78.3177 10.9804 78.5374 10.871 78.7229 10.7317C78.9084 10.5826 79.05 10.4085 79.1476 10.2096C79.255 10.0008 79.3087 9.77202 79.3087 9.52338V9.07585ZM79.2648 12.3727V11.403C79.0012 11.7213 78.6643 11.9898 78.2543 12.2086C77.8442 12.4274 77.3463 12.5368 76.7605 12.5368C76.3895 12.5368 76.038 12.4821 75.706 12.3727C75.3741 12.2732 75.0812 12.1241 74.8273 11.9252C74.5833 11.7163 74.3831 11.4627 74.2269 11.1644C74.0805 10.856 74.0072 10.503 74.0072 10.1052V10.0753C74.0072 9.63775 74.0853 9.25983 74.2415 8.94159C74.3978 8.61339 74.6126 8.34487 74.8859 8.13602C75.1691 7.91722 75.501 7.7581 75.8818 7.65865C76.2723 7.54925 76.6921 7.49455 77.1413 7.49455C77.6099 7.49455 78.0053 7.52439 78.3275 7.58406C78.6595 7.64373 78.9768 7.72329 79.2794 7.82274V7.67356C79.2794 7.12657 79.1134 6.70887 78.7815 6.42046C78.4593 6.13205 77.9907 5.98784 77.3756 5.98784C76.9362 5.98784 76.5457 6.0326 76.204 6.1221C75.8623 6.21161 75.5157 6.33095 75.1642 6.48013L74.6809 5.0331C75.1105 4.83419 75.5498 4.67507 75.9989 4.55572C76.4481 4.43638 76.9899 4.37671 77.6245 4.37671C78.7766 4.37671 79.6309 4.6701 80.1874 5.25687C80.7439 5.83369 81.0222 6.6492 81.0222 7.7034V12.3727H79.2648Z" fill="url(#paint2_linear_3894_49047)"/>
<path d="M86.7178 10.2245C87.0205 10.2245 87.3085 10.1748 87.5819 10.0753C87.865 9.96595 88.1091 9.81677 88.3141 9.62781C88.5192 9.4289 88.6803 9.20016 88.7974 8.94159C88.9243 8.67306 88.9878 8.37968 88.9878 8.06143V8.03159C88.9878 7.7034 88.9243 7.41002 88.7974 7.15144C88.6803 6.88292 88.5192 6.65418 88.3141 6.46522C88.1091 6.26631 87.865 6.11713 87.5819 6.01768C87.3085 5.90828 87.0205 5.85358 86.7178 5.85358C86.4054 5.85358 86.1174 5.90828 85.8538 6.01768C85.5902 6.11713 85.3558 6.26134 85.1508 6.4503C84.9555 6.63926 84.7993 6.868 84.6822 7.13652C84.5748 7.3951 84.5211 7.68848 84.5211 8.01668V8.04651C84.5211 8.37471 84.5797 8.67306 84.6968 8.94159C84.814 9.20016 84.9702 9.4289 85.1655 9.62781C85.3607 9.81677 85.5902 9.96595 85.8538 10.0753C86.1271 10.1748 86.4152 10.2245 86.7178 10.2245ZM86.5714 14.7894C85.2826 14.7894 84.1305 14.4761 83.1152 13.8496L83.7742 12.492C84.1842 12.7506 84.6138 12.9545 85.0629 13.1037C85.5121 13.2529 86.0002 13.3274 86.5274 13.3274C87.3183 13.3274 87.9236 13.1236 88.3434 12.7158C88.7632 12.3081 88.9731 11.7064 88.9731 10.9107V10.2991C88.651 10.7268 88.2751 11.0748 87.8455 11.3434C87.4159 11.6119 86.8838 11.7461 86.2492 11.7461C85.7903 11.7461 85.351 11.6616 84.9311 11.4925C84.5113 11.3235 84.1354 11.0848 83.8035 10.7765C83.4813 10.4582 83.2225 10.0704 83.0273 9.61289C82.832 9.15541 82.7344 8.63825 82.7344 8.06143V8.03159C82.7344 7.45477 82.832 6.93762 83.0273 6.48013C83.2225 6.01271 83.4813 5.62484 83.8035 5.31654C84.1354 4.99829 84.5113 4.75463 84.9311 4.58556C85.3607 4.41649 85.8001 4.33196 86.2492 4.33196C86.9033 4.33196 87.4403 4.46622 87.8601 4.73474C88.2897 4.99332 88.6558 5.30659 88.9585 5.67457V4.49605H90.7306V10.7616C90.7306 12.0743 90.4035 13.0639 89.7493 13.7302C89.3979 14.0883 88.9536 14.3518 88.4166 14.5209C87.8894 14.6999 87.2743 14.7894 86.5714 14.7894Z" fill="url(#paint3_linear_3894_49047)"/>
<path d="M98.2423 7.88242C98.213 7.594 98.1495 7.32548 98.0519 7.07685C97.9543 6.81827 97.8225 6.59948 97.6565 6.42046C97.4905 6.2315 97.2904 6.08232 97.056 5.97292C96.8315 5.86353 96.5728 5.80883 96.2799 5.80883C95.7331 5.80883 95.2791 6.00276 94.9179 6.39063C94.5664 6.76855 94.3516 7.26581 94.2735 7.88242H98.2423ZM96.4849 12.5517C95.9284 12.5517 95.406 12.4523 94.9179 12.2534C94.4395 12.0545 94.0196 11.776 93.6584 11.418C93.3069 11.0599 93.0287 10.6323 92.8236 10.135C92.6186 9.62781 92.5161 9.07087 92.5161 8.46421V8.43438C92.5161 7.8675 92.6088 7.33543 92.7943 6.83816C92.9799 6.3409 93.2386 5.90828 93.5705 5.54031C93.9122 5.16239 94.3125 4.869 94.7714 4.66015C95.2303 4.44135 95.738 4.33196 96.2945 4.33196C96.9096 4.33196 97.4466 4.44633 97.9054 4.67507C98.3741 4.90381 98.7597 5.21211 99.0624 5.59998C99.3748 5.98784 99.6092 6.44035 99.7654 6.95751C99.9216 7.46471 99.9997 8.00176 99.9997 8.56864C99.9997 8.6482 99.9948 8.73273 99.985 8.82224C99.985 8.9018 99.9802 8.98634 99.9704 9.07585H94.2881C94.3858 9.72229 94.6347 10.2196 95.035 10.5676C95.4451 10.9058 95.9381 11.0748 96.5142 11.0748C96.9535 11.0748 97.3343 10.9953 97.6565 10.8362C97.9787 10.677 98.296 10.4433 98.6084 10.135L99.6482 11.0748C99.2772 11.5224 98.833 11.8804 98.3155 12.1489C97.8078 12.4175 97.1976 12.5517 96.4849 12.5517Z" fill="url(#paint4_linear_3894_49047)"/>
<defs>
<linearGradient id="paint0_linear_3894_49047" x1="56.2783" y1="10.7709" x2="112.234" y2="10.7709" gradientUnits="userSpaceOnUse">
<stop stop-color="#AF85FF"/>
<stop offset="0.908841" stop-color="#7AAEFC"/>
<stop offset="1" stop-color="#75B2FC"/>
</linearGradient>
<linearGradient id="paint1_linear_3894_49047" x1="56.2783" y1="10.7709" x2="112.234" y2="10.7709" gradientUnits="userSpaceOnUse">
<stop stop-color="#AF85FF"/>
<stop offset="0.908841" stop-color="#7AAEFC"/>
<stop offset="1" stop-color="#75B2FC"/>
</linearGradient>
<linearGradient id="paint2_linear_3894_49047" x1="56.2783" y1="10.7709" x2="112.234" y2="10.7709" gradientUnits="userSpaceOnUse">
<stop stop-color="#AF85FF"/>
<stop offset="0.908841" stop-color="#7AAEFC"/>
<stop offset="1" stop-color="#75B2FC"/>
</linearGradient>
<linearGradient id="paint3_linear_3894_49047" x1="56.2783" y1="10.7709" x2="112.234" y2="10.7709" gradientUnits="userSpaceOnUse">
<stop stop-color="#AF85FF"/>
<stop offset="0.908841" stop-color="#7AAEFC"/>
<stop offset="1" stop-color="#75B2FC"/>
</linearGradient>
<linearGradient id="paint4_linear_3894_49047" x1="56.2783" y1="10.7709" x2="112.234" y2="10.7709" gradientUnits="userSpaceOnUse">
<stop stop-color="#AF85FF"/>
<stop offset="0.908841" stop-color="#7AAEFC"/>
<stop offset="1" stop-color="#75B2FC"/>
</linearGradient>
</defs>
</svg>
