<svg width="170" height="48" viewBox="0 0 170 48" fill="none" xmlns="http://www.w3.org/2000/svg">
<path fill-rule="evenodd" clip-rule="evenodd" d="M20.4425 10.2091C20.4425 15.8475 15.8663 20.4183 10.2213 20.4183C4.57622 20.4183 0 15.8475 0 10.2091C0 4.57079 4.57622 0 10.2213 0C15.8663 0 20.4425 4.57079 20.4425 10.2091ZM18.4856 28.0285C19.6526 29.63 20.3279 31.5361 20.4292 33.5143C20.4376 33.7016 20.4432 33.861 20.4432 34.0372C20.4436 37.3727 19.2329 40.5952 17.0357 43.107C14.8385 45.6189 11.8039 47.2496 8.49458 47.6969C9.09824 46.6102 9.55126 45.4466 9.84118 44.238C7.8594 44.1643 5.94187 43.5164 4.32231 42.3732C2.70276 41.2301 1.45113 39.641 0.719996 37.7997C-0.0111389 35.9584 -0.190205 33.9445 0.204622 32.0033C0.59945 30.0622 1.55112 28.2777 2.94363 26.8673C4.33614 25.457 6.10935 24.4817 8.04713 24.0603C9.9849 23.639 12.0035 23.7898 13.857 24.4944C15.7105 25.199 17.3187 26.4269 18.4856 28.0285ZM30.7399 8.25114H41.9774L46.2608 24.6736L51.272 8.14208H60.7626L65.8382 24.7938L70.2476 8.25114H81.3003L71.2218 41.1352H61.3057L55.9893 24.1898L50.5553 41.1436H40.7092L30.7399 8.25114ZM96.6608 8.25621H85.1153V40.9081H96.6608V30.7717C96.6608 26.9912 97.4671 24.2201 99.0768 22.45C99.2799 22.2268 99.4944 21.9813 99.7204 21.7226L99.7207 21.7223C101.287 19.9303 103.403 17.509 106.042 17.509H107.008L106.991 7.72213C104.251 7.60282 102.076 8.20588 100.465 9.53131C98.7802 10.9639 97.4737 12.7884 96.6608 14.8442V8.25621ZM125.723 41.572C122.241 41.572 119.529 40.7471 117.588 39.0973C115.647 37.4475 114.674 34.6718 114.67 30.7701V17.4962H110.804V8.25456H114.67V0H126.21V8.25456H133.82V17.4822H126.21V28.5386C126.21 29.7075 126.472 30.5417 126.994 31.0413C127.518 31.5474 128.302 31.7963 129.351 31.7963C130.108 31.7995 130.862 31.6978 131.591 31.4943C132.317 31.2942 133.024 31.0322 133.705 30.7113V39.7013C132.576 40.2953 131.379 40.7507 130.141 41.0575C128.696 41.4136 127.212 41.5865 125.723 41.572ZM149.154 8.26365H137.617V40.9156H149.154V23.2376C149.153 21.435 149.6 20.0676 150.495 19.1355C150.937 18.6757 151.471 18.3136 152.062 18.0728C152.652 17.8319 153.287 17.7177 153.925 17.7374C154.541 17.716 155.153 17.8301 155.72 18.0718C156.286 18.3134 156.793 18.6766 157.203 19.1355C158.039 20.062 158.457 21.4294 158.457 23.2376V40.9156H170V19.5577C169.998 15.8257 169.015 12.8933 167.049 10.7607C165.084 8.6281 162.34 7.56179 158.819 7.56179C157.748 7.54979 156.682 7.70258 155.658 8.01478C154.738 8.29978 153.856 8.69508 153.032 9.19201C152.249 9.66054 151.528 10.2241 150.885 10.8698C150.264 11.4945 149.686 12.1596 149.154 12.8607V8.26365Z" fill="#5A2CDA"/>
</svg>
