{
  "$schema": "https://json.schemastore.org/tsconfig",
  "display": "Next.js",
  "extends": "./base.json",
  "compilerOptions": {
    "allowJs": true,
    "skipLibCheck": true,
    "strict": true,
    "forceConsistentCasingInFileNames": true,
    "noEmit": true,
    "incremental": true,
    "esModuleInterop": true
  },
  "include": ["src", "next-env.d.ts"],
  "exclude": ["node_modules"]
}
