<svg width="287" height="287" viewBox="0 0 287 287" fill="none" xmlns="http://www.w3.org/2000/svg">
<g filter="url(#filter0_d_9495_90562)">
<g clip-path="url(#clip0_9495_90562)">
<rect x="60" y="60" width="167" height="167" rx="33" fill="#5A2CDA"/>
<g filter="url(#filter1_di_9495_90562)">
<path fill-rule="evenodd" clip-rule="evenodd" d="M163.082 117.478C163.082 128.235 154.333 136.956 143.541 136.956C132.749 136.956 124 128.235 124 117.478C124 106.721 132.749 98 143.541 98C154.333 98 163.082 106.721 163.082 117.478ZM159.34 151.475C161.571 154.53 162.862 158.167 163.056 161.941C163.072 162.299 163.083 162.603 163.083 162.939C163.084 169.302 160.769 175.451 156.569 180.243C152.368 185.035 146.566 188.147 140.24 189C141.394 186.927 142.26 184.707 142.814 182.401C139.025 182.26 135.36 181.024 132.263 178.843C129.167 176.662 126.774 173.63 125.377 170.117C123.979 166.604 123.636 162.762 124.391 159.058C125.146 155.355 126.965 151.95 129.628 149.259C132.29 146.569 135.68 144.708 139.384 143.904C143.089 143.1 146.948 143.388 150.492 144.732C154.035 146.076 157.11 148.419 159.34 151.475Z" fill="white"/>
</g>
</g>
</g>
<defs>
<filter id="filter0_d_9495_90562" x="0" y="0" width="287" height="287" filterUnits="userSpaceOnUse" color-interpolation-filters="sRGB">
<feFlood flood-opacity="0" result="BackgroundImageFix"/>
<feColorMatrix in="SourceAlpha" type="matrix" values="0 0 0 0 0 0 0 0 0 0 0 0 0 0 0 0 0 0 127 0" result="hardAlpha"/>
<feOffset/>
<feGaussianBlur stdDeviation="30"/>
<feComposite in2="hardAlpha" operator="out"/>
<feColorMatrix type="matrix" values="0 0 0 0 0.277917 0 0 0 0 0.120833 0 0 0 0 0.725 0 0 0 1 0"/>
<feBlend mode="normal" in2="BackgroundImageFix" result="effect1_dropShadow_9495_90562"/>
<feBlend mode="normal" in="SourceGraphic" in2="effect1_dropShadow_9495_90562" result="shape"/>
</filter>
<filter id="filter1_di_9495_90562" x="75.6055" y="68.9633" width="116.513" height="168.431" filterUnits="userSpaceOnUse" color-interpolation-filters="sRGB">
<feFlood flood-opacity="0" result="BackgroundImageFix"/>
<feColorMatrix in="SourceAlpha" type="matrix" values="0 0 0 0 0 0 0 0 0 0 0 0 0 0 0 0 0 0 127 0" result="hardAlpha"/>
<feOffset dx="-9.6789" dy="9.6789"/>
<feGaussianBlur stdDeviation="19.3578"/>
<feComposite in2="hardAlpha" operator="out"/>
<feColorMatrix type="matrix" values="0 0 0 0 0.293576 0 0 0 0 0.00434029 0 0 0 0 0.520833 0 0 0 0.15 0"/>
<feBlend mode="normal" in2="BackgroundImageFix" result="effect1_dropShadow_9495_90562"/>
<feBlend mode="normal" in="SourceGraphic" in2="effect1_dropShadow_9495_90562" result="shape"/>
<feColorMatrix in="SourceAlpha" type="matrix" values="0 0 0 0 0 0 0 0 0 0 0 0 0 0 0 0 0 0 127 0" result="hardAlpha"/>
<feOffset dx="-3.87156" dy="-3.87156"/>
<feGaussianBlur stdDeviation="9.6789"/>
<feComposite in2="hardAlpha" operator="arithmetic" k2="-1" k3="1"/>
<feColorMatrix type="matrix" values="0 0 0 0 0.445333 0 0 0 0 0.166667 0 0 0 0 0.8 0 0 0 0.25 0"/>
<feBlend mode="normal" in2="shape" result="effect2_innerShadow_9495_90562"/>
</filter>
<clipPath id="clip0_9495_90562">
<rect x="60" y="60" width="167" height="167" rx="33" fill="white"/>
</clipPath>
</defs>
</svg>
