<svg width="375" height="238" viewBox="0 0 375 238" fill="none" xmlns="http://www.w3.org/2000/svg">
<g filter="url(#filter0_di_9496_129986)">
<rect x="277.164" y="127.9" width="74.4986" height="74.4986" rx="36" fill="#1F104D"/>
<path opacity="0.7" d="M314.412 168.436C312.787 168.436 311.198 167.954 309.847 167.051C308.496 166.149 307.443 164.865 306.821 163.364C306.199 161.862 306.036 160.21 306.353 158.616C306.67 157.023 307.453 155.558 308.602 154.409C309.751 153.26 311.215 152.478 312.809 152.161C314.403 151.844 316.055 152.006 317.556 152.628C319.058 153.25 320.341 154.303 321.244 155.654C322.147 157.006 322.629 158.594 322.629 160.219C322.626 162.398 321.76 164.486 320.219 166.027C318.679 167.567 316.591 168.434 314.412 168.436ZM314.412 155.289C313.437 155.289 312.484 155.579 311.673 156.12C310.862 156.662 310.23 157.432 309.857 158.333C309.484 159.234 309.387 160.225 309.577 161.181C309.767 162.138 310.237 163.016 310.926 163.706C311.615 164.395 312.494 164.865 313.45 165.055C314.407 165.245 315.398 165.147 316.299 164.774C317.2 164.401 317.97 163.769 318.511 162.958C319.053 162.148 319.342 161.195 319.342 160.219C319.341 158.912 318.821 157.659 317.897 156.735C316.972 155.811 315.719 155.291 314.412 155.289Z" fill="url(#paint0_linear_9496_129986)"/>
<path opacity="0.7" d="M314.413 188.156L300.55 171.807C300.472 171.713 299.978 171.065 299.978 171.065C297.61 167.946 296.33 164.136 296.336 160.219C296.336 155.425 298.24 150.827 301.631 147.437C305.021 144.047 309.619 142.143 314.413 142.143C319.207 142.143 323.805 144.047 327.195 147.437C330.585 150.827 332.49 155.425 332.49 160.219C332.496 164.134 331.217 167.943 328.85 171.061L328.848 171.065C328.848 171.065 328.355 171.713 328.281 171.8L314.413 188.156ZM302.601 169.085C302.603 169.086 302.985 169.592 303.072 169.701L314.413 183.075L325.768 169.682C325.841 169.591 326.226 169.082 326.227 169.081C328.161 166.532 329.207 163.419 329.203 160.219C329.203 156.297 327.645 152.535 324.871 149.761C322.097 146.988 318.335 145.429 314.413 145.429C310.49 145.429 306.728 146.988 303.955 149.761C301.181 152.535 299.623 156.297 299.623 160.219C299.619 163.421 300.665 166.535 302.601 169.085Z" fill="url(#paint1_linear_9496_129986)"/>
</g>
<g filter="url(#filter1_di_9496_129986)">
<rect x="115.641" y="108.781" width="61.9723" height="61.9723" rx="28" fill="#1F104D"/>
<path opacity="0.7" d="M160.297 123.363H154.829V120.629H152.095V123.363H141.159V120.629H138.425V123.363H132.957C131.453 123.363 130.223 124.593 130.223 126.097V153.438C130.223 154.942 131.453 156.172 132.957 156.172H160.297C161.801 156.172 163.032 154.942 163.032 153.438V126.097C163.032 124.593 161.801 123.363 160.297 123.363ZM160.297 153.438H132.957V134.299H160.297V153.438ZM160.297 131.565H132.957V126.097H138.425V128.831H141.159V126.097H152.095V128.831H154.829V126.097H160.297V131.565Z" fill="url(#paint2_linear_9496_129986)"/>
</g>
<g filter="url(#filter2_di_9496_129986)">
<rect x="153.879" y="139.108" width="98.892" height="98.892" rx="42.99" fill="#1F104D"/>
<path opacity="0.7" d="M233.691 189.885L227.147 174.615C226.98 174.22 226.7 173.884 226.343 173.647C225.987 173.411 225.568 173.284 225.14 173.284H218.595V168.921C218.595 168.342 218.366 167.788 217.956 167.378C217.547 166.969 216.993 166.74 216.414 166.74H174.967C174.388 166.74 173.833 166.969 173.424 167.378C173.015 167.788 172.785 168.342 172.785 168.921V206.005C172.785 206.584 173.015 207.139 173.424 207.548C173.833 207.957 174.388 208.187 174.967 208.187H179.635C180.137 210.035 181.234 211.667 182.756 212.831C184.277 213.994 186.14 214.624 188.055 214.624C189.971 214.624 191.833 213.994 193.355 212.831C194.877 211.667 195.973 210.035 196.476 208.187H210.175C210.677 210.035 211.774 211.667 213.296 212.831C214.818 213.994 216.68 214.624 218.595 214.624C220.511 214.624 222.373 213.994 223.895 212.831C225.417 211.667 226.513 210.035 227.016 208.187H231.684C232.263 208.187 232.817 207.957 233.227 207.548C233.636 207.139 233.865 206.584 233.865 206.005V190.735C233.865 190.443 233.806 190.154 233.691 189.885ZM218.595 177.647H223.7L228.368 188.554H218.595V177.647ZM188.055 210.368C187.192 210.368 186.349 210.112 185.631 209.633C184.914 209.154 184.355 208.472 184.024 207.675C183.694 206.878 183.608 206.001 183.776 205.154C183.945 204.308 184.36 203.531 184.97 202.92C185.58 202.31 186.358 201.895 187.204 201.726C188.05 201.558 188.928 201.644 189.725 201.975C190.522 202.305 191.203 202.864 191.683 203.582C192.162 204.299 192.418 205.143 192.418 206.005C192.418 207.163 191.958 208.272 191.14 209.09C190.322 209.909 189.212 210.368 188.055 210.368ZM210.175 203.824H196.476C195.973 201.976 194.877 200.344 193.355 199.18C191.833 198.017 189.971 197.387 188.055 197.387C186.14 197.387 184.277 198.017 182.756 199.18C181.234 200.344 180.137 201.976 179.635 203.824H177.148V171.102H214.233V198.501C213.239 199.078 212.369 199.845 211.673 200.758C210.977 201.672 210.468 202.713 210.175 203.824ZM218.595 210.368C217.733 210.368 216.889 210.112 216.172 209.633C215.454 209.154 214.895 208.472 214.565 207.675C214.234 206.878 214.148 206.001 214.316 205.154C214.485 204.308 214.9 203.531 215.51 202.92C216.121 202.31 216.898 201.895 217.744 201.726C218.591 201.558 219.468 201.644 220.265 201.975C221.062 202.305 221.744 202.864 222.223 203.582C222.702 204.299 222.958 205.143 222.958 206.005C222.958 207.163 222.499 208.272 221.68 209.09C220.862 209.909 219.753 210.368 218.595 210.368ZM229.503 203.824H227.016C226.533 201.956 225.445 200.3 223.922 199.116C222.398 197.932 220.525 197.286 218.595 197.28V192.917H229.503V203.824Z" fill="url(#paint3_linear_9496_129986)"/>
</g>
<g filter="url(#filter3_di_9496_129986)">
<rect x="24" y="48.1274" width="61.9723" height="61.9723" rx="28" fill="#1F104D"/>
<g clip-path="url(#clip0_9496_129986)">
<path opacity="0.7" d="M65.6306 92.8401L64.9146 79.6953L69.2555 77.1891C70.4068 76.5244 71.2468 75.4296 71.5909 74.1455C71.935 72.8614 71.7549 71.4932 71.0902 70.3419C70.4255 69.1906 69.3307 68.3505 68.0466 68.0065C66.7625 67.6624 65.3943 67.8425 64.243 68.5072L59.9021 71.0135L48.8764 63.821C48.6794 63.6655 48.4402 63.5727 48.1899 63.5547C47.9396 63.5367 47.6896 63.5943 47.4724 63.72L42.0463 66.8528C41.7584 67.019 41.5484 67.2927 41.4624 67.6137C41.3764 67.9347 41.4214 68.2768 41.5876 68.5646C41.6518 68.6702 41.7313 68.7657 41.8235 68.848L51.2202 76.0259L45.7941 79.1587L41.7659 76.4923C41.5706 76.3643 41.3434 76.2933 41.1099 76.2875C40.8764 76.2817 40.646 76.3412 40.4446 76.4594L36.7765 78.5771C36.4887 78.7433 36.2786 79.017 36.1926 79.338C36.1066 79.6591 36.1516 80.0011 36.3178 80.2889C36.3601 80.3987 36.4193 80.5013 36.4932 80.5928L42.8742 86.6324L44.9142 95.1783C44.9565 95.2881 45.0156 95.3906 45.0896 95.4821C45.2558 95.77 45.5295 95.98 45.8505 96.066C46.1715 96.152 46.5136 96.107 46.8014 95.9408L50.4695 93.8231C50.6726 93.7077 50.8393 93.5379 50.951 93.3328C51.0627 93.1277 51.1149 92.8954 51.1016 92.6623L50.8066 87.8406L56.2327 84.7078L57.7724 96.422C57.7975 96.543 57.8405 96.6596 57.8998 96.768C58.066 97.0559 58.3397 97.2659 58.6607 97.3519C58.9817 97.4379 59.3238 97.3929 59.6116 97.2267L65.0377 94.0939C65.249 93.9665 65.418 93.7795 65.5234 93.5565C65.6289 93.3334 65.6662 93.0842 65.6306 92.8401ZM59.9972 94.1101L58.2353 80.6576L48.2078 86.447L48.5435 92.0411L46.9917 92.937L45.1315 85.3292L39.473 79.9143L41.0248 79.0183L45.7015 82.1061L55.7291 76.3167L44.9598 68.0646L48.0527 66.2789L59.8204 73.9546L65.4961 70.6777C66.0718 70.3453 66.7559 70.2553 67.3979 70.4273C68.04 70.5993 68.5874 71.0194 68.9197 71.595C69.2521 72.1707 69.3421 72.8548 69.1701 73.4968C68.998 74.1388 68.578 74.6863 68.0024 75.0186L62.3266 78.2955L63.0901 92.3245L59.9972 94.1101Z" fill="url(#paint4_linear_9496_129986)"/>
</g>
</g>
<g filter="url(#filter4_di_9496_129986)">
<rect x="219.146" y="34.9419" width="87.0249" height="87.0249" rx="42.99" fill="#1F104D"/>
<g clip-path="url(#clip1_9496_129986)">
<path opacity="0.7" d="M252.101 103.09C254.045 103.09 255.621 101.515 255.621 99.5709C255.621 97.6272 254.045 96.0515 252.101 96.0515C250.158 96.0515 248.582 97.6272 248.582 99.5709C248.582 101.515 250.158 103.09 252.101 103.09Z" fill="url(#paint5_linear_9496_129986)"/>
<path opacity="0.7" d="M276.736 103.09C278.68 103.09 280.256 101.515 280.256 99.5709C280.256 97.6272 278.68 96.0515 276.736 96.0515C274.792 96.0515 273.217 97.6272 273.217 99.5709C273.217 101.515 274.792 103.09 276.736 103.09Z" fill="url(#paint6_linear_9496_129986)"/>
<path opacity="0.7" d="M283.775 62.6172H244.745L243.302 55.2265C243.22 54.823 242.999 54.4612 242.677 54.204C242.356 53.9467 241.954 53.8104 241.543 53.8187H234.504V57.3381H240.1L246.822 91.1243C246.904 91.5277 247.125 91.8896 247.447 92.1468C247.768 92.404 248.17 92.5403 248.581 92.532H280.256V89.0126H250.024L248.581 81.9738H280.256C280.663 81.9838 281.06 81.8525 281.381 81.6022C281.702 81.3519 281.926 80.9982 282.016 80.6013L285.535 64.764C285.594 64.5029 285.593 64.2318 285.531 63.9713C285.469 63.7109 285.349 63.4679 285.18 63.2608C285.01 63.0538 284.795 62.8882 284.552 62.7767C284.309 62.6652 284.043 62.6106 283.775 62.6172ZM278.848 78.4545H247.913L245.449 66.1366H281.576L278.848 78.4545Z" fill="url(#paint7_linear_9496_129986)"/>
</g>
</g>
<g filter="url(#filter5_di_9496_129986)">
<rect x="123.551" width="74.4986" height="74.4986" rx="36" fill="#1F104D"/>
<path opacity="0.7" d="M151.009 35.7428C151.456 35.7428 151.893 35.8753 152.264 36.1236C152.636 36.3719 152.925 36.7248 153.096 37.1377C153.267 37.5506 153.312 38.0049 153.225 38.4432C153.138 38.8815 152.923 39.2842 152.607 39.6002C152.291 39.9162 151.888 40.1314 151.45 40.2186C151.011 40.3058 150.557 40.261 150.144 40.09C149.731 39.919 149.378 39.6294 149.13 39.2578C148.882 38.8862 148.749 38.4493 148.749 38.0024C148.749 37.4031 148.987 36.8284 149.411 36.4046C149.835 35.9809 150.409 35.7428 151.009 35.7428ZM151.009 32.73C149.966 32.73 148.947 33.0392 148.08 33.6185C147.213 34.1979 146.537 35.0213 146.138 35.9847C145.739 36.9481 145.634 38.0082 145.838 39.031C146.041 40.0537 146.543 40.9932 147.281 41.7306C148.018 42.4679 148.957 42.9701 149.98 43.1735C151.003 43.377 152.063 43.2725 153.026 42.8735C153.99 42.4744 154.813 41.7986 155.393 40.9316C155.972 40.0646 156.281 39.0452 156.281 38.0024C156.281 36.6041 155.726 35.263 154.737 34.2742C153.748 33.2855 152.407 32.73 151.009 32.73Z" fill="url(#paint8_linear_9496_129986)"/>
<path opacity="0.7" d="M174.358 34.2364H162.307C161.508 34.2364 160.742 34.5538 160.177 35.1189C159.612 35.6839 159.294 36.4502 159.294 37.2492V46.2877H142.724V29.1146L160.801 19.3833L179.676 29.5364L181.092 26.8852L161.509 16.3403C161.291 16.2243 161.048 16.1636 160.801 16.1636C160.554 16.1636 160.311 16.2243 160.093 16.3403L140.509 26.8852C140.269 27.0132 140.067 27.2042 139.927 27.4376C139.786 27.6711 139.712 27.9383 139.711 28.2108V58.3389H142.724V49.3005H178.877V58.3389H181.89V41.7685C181.89 39.7708 181.097 37.855 179.684 36.4425C178.272 35.03 176.356 34.2364 174.358 34.2364ZM162.307 46.2877V37.2492H174.358C175.557 37.2492 176.706 37.7254 177.554 38.5729C178.401 39.4204 178.877 40.5699 178.877 41.7685V46.2877H162.307Z" fill="url(#paint9_linear_9496_129986)"/>
</g>
<defs>
<filter id="filter0_di_9496_129986" x="227.375" y="110.532" width="174.075" height="191.444" filterUnits="userSpaceOnUse" color-interpolation-filters="sRGB">
<feFlood flood-opacity="0" result="BackgroundImageFix"/>
<feColorMatrix in="SourceAlpha" type="matrix" values="0 0 0 0 0 0 0 0 0 0 0 0 0 0 0 0 0 0 127 0" result="hardAlpha"/>
<feOffset dy="49.7887"/>
<feGaussianBlur stdDeviation="24.8943"/>
<feColorMatrix type="matrix" values="0 0 0 0 0 0 0 0 0 0 0 0 0 0 0 0 0 0 0.15 0"/>
<feBlend mode="normal" in2="BackgroundImageFix" result="effect1_dropShadow_9496_129986"/>
<feBlend mode="normal" in="SourceGraphic" in2="effect1_dropShadow_9496_129986" result="shape"/>
<feColorMatrix in="SourceAlpha" type="matrix" values="0 0 0 0 0 0 0 0 0 0 0 0 0 0 0 0 0 0 127 0" result="hardAlpha"/>
<feOffset dy="-17.3682"/>
<feGaussianBlur stdDeviation="17.3682"/>
<feComposite in2="hardAlpha" operator="arithmetic" k2="-1" k3="1"/>
<feColorMatrix type="matrix" values="0 0 0 0 0 0 0 0 0 0 0 0 0 0 0 0 0 0 0.25 0"/>
<feBlend mode="normal" in2="shape" result="effect2_innerShadow_9496_129986"/>
</filter>
<filter id="filter1_di_9496_129986" x="65.8519" y="91.4131" width="161.55" height="178.918" filterUnits="userSpaceOnUse" color-interpolation-filters="sRGB">
<feFlood flood-opacity="0" result="BackgroundImageFix"/>
<feColorMatrix in="SourceAlpha" type="matrix" values="0 0 0 0 0 0 0 0 0 0 0 0 0 0 0 0 0 0 127 0" result="hardAlpha"/>
<feOffset dy="49.7887"/>
<feGaussianBlur stdDeviation="24.8943"/>
<feColorMatrix type="matrix" values="0 0 0 0 0 0 0 0 0 0 0 0 0 0 0 0 0 0 0.15 0"/>
<feBlend mode="normal" in2="BackgroundImageFix" result="effect1_dropShadow_9496_129986"/>
<feBlend mode="normal" in="SourceGraphic" in2="effect1_dropShadow_9496_129986" result="shape"/>
<feColorMatrix in="SourceAlpha" type="matrix" values="0 0 0 0 0 0 0 0 0 0 0 0 0 0 0 0 0 0 127 0" result="hardAlpha"/>
<feOffset dy="-17.3682"/>
<feGaussianBlur stdDeviation="17.3682"/>
<feComposite in2="hardAlpha" operator="arithmetic" k2="-1" k3="1"/>
<feColorMatrix type="matrix" values="0 0 0 0 0 0 0 0 0 0 0 0 0 0 0 0 0 0 0.25 0"/>
<feBlend mode="normal" in2="shape" result="effect2_innerShadow_9496_129986"/>
</filter>
<filter id="filter2_di_9496_129986" x="104.09" y="121.74" width="198.47" height="215.838" filterUnits="userSpaceOnUse" color-interpolation-filters="sRGB">
<feFlood flood-opacity="0" result="BackgroundImageFix"/>
<feColorMatrix in="SourceAlpha" type="matrix" values="0 0 0 0 0 0 0 0 0 0 0 0 0 0 0 0 0 0 127 0" result="hardAlpha"/>
<feOffset dy="49.7887"/>
<feGaussianBlur stdDeviation="24.8943"/>
<feColorMatrix type="matrix" values="0 0 0 0 0 0 0 0 0 0 0 0 0 0 0 0 0 0 0.15 0"/>
<feBlend mode="normal" in2="BackgroundImageFix" result="effect1_dropShadow_9496_129986"/>
<feBlend mode="normal" in="SourceGraphic" in2="effect1_dropShadow_9496_129986" result="shape"/>
<feColorMatrix in="SourceAlpha" type="matrix" values="0 0 0 0 0 0 0 0 0 0 0 0 0 0 0 0 0 0 127 0" result="hardAlpha"/>
<feOffset dy="-17.3682"/>
<feGaussianBlur stdDeviation="17.3682"/>
<feComposite in2="hardAlpha" operator="arithmetic" k2="-1" k3="1"/>
<feColorMatrix type="matrix" values="0 0 0 0 0 0 0 0 0 0 0 0 0 0 0 0 0 0 0.25 0"/>
<feBlend mode="normal" in2="shape" result="effect2_innerShadow_9496_129986"/>
</filter>
<filter id="filter3_di_9496_129986" x="-25.7887" y="30.7593" width="161.55" height="178.918" filterUnits="userSpaceOnUse" color-interpolation-filters="sRGB">
<feFlood flood-opacity="0" result="BackgroundImageFix"/>
<feColorMatrix in="SourceAlpha" type="matrix" values="0 0 0 0 0 0 0 0 0 0 0 0 0 0 0 0 0 0 127 0" result="hardAlpha"/>
<feOffset dy="49.7887"/>
<feGaussianBlur stdDeviation="24.8943"/>
<feColorMatrix type="matrix" values="0 0 0 0 0 0 0 0 0 0 0 0 0 0 0 0 0 0 0.15 0"/>
<feBlend mode="normal" in2="BackgroundImageFix" result="effect1_dropShadow_9496_129986"/>
<feBlend mode="normal" in="SourceGraphic" in2="effect1_dropShadow_9496_129986" result="shape"/>
<feColorMatrix in="SourceAlpha" type="matrix" values="0 0 0 0 0 0 0 0 0 0 0 0 0 0 0 0 0 0 127 0" result="hardAlpha"/>
<feOffset dy="-17.3682"/>
<feGaussianBlur stdDeviation="17.3682"/>
<feComposite in2="hardAlpha" operator="arithmetic" k2="-1" k3="1"/>
<feColorMatrix type="matrix" values="0 0 0 0 0 0 0 0 0 0 0 0 0 0 0 0 0 0 0.25 0"/>
<feBlend mode="normal" in2="shape" result="effect2_innerShadow_9496_129986"/>
</filter>
<filter id="filter4_di_9496_129986" x="169.358" y="17.5737" width="186.603" height="203.97" filterUnits="userSpaceOnUse" color-interpolation-filters="sRGB">
<feFlood flood-opacity="0" result="BackgroundImageFix"/>
<feColorMatrix in="SourceAlpha" type="matrix" values="0 0 0 0 0 0 0 0 0 0 0 0 0 0 0 0 0 0 127 0" result="hardAlpha"/>
<feOffset dy="49.7887"/>
<feGaussianBlur stdDeviation="24.8943"/>
<feColorMatrix type="matrix" values="0 0 0 0 0 0 0 0 0 0 0 0 0 0 0 0 0 0 0.15 0"/>
<feBlend mode="normal" in2="BackgroundImageFix" result="effect1_dropShadow_9496_129986"/>
<feBlend mode="normal" in="SourceGraphic" in2="effect1_dropShadow_9496_129986" result="shape"/>
<feColorMatrix in="SourceAlpha" type="matrix" values="0 0 0 0 0 0 0 0 0 0 0 0 0 0 0 0 0 0 127 0" result="hardAlpha"/>
<feOffset dy="-17.3682"/>
<feGaussianBlur stdDeviation="17.3682"/>
<feComposite in2="hardAlpha" operator="arithmetic" k2="-1" k3="1"/>
<feColorMatrix type="matrix" values="0 0 0 0 0 0 0 0 0 0 0 0 0 0 0 0 0 0 0.25 0"/>
<feBlend mode="normal" in2="shape" result="effect2_innerShadow_9496_129986"/>
</filter>
<filter id="filter5_di_9496_129986" x="73.7621" y="-17.3682" width="174.075" height="191.444" filterUnits="userSpaceOnUse" color-interpolation-filters="sRGB">
<feFlood flood-opacity="0" result="BackgroundImageFix"/>
<feColorMatrix in="SourceAlpha" type="matrix" values="0 0 0 0 0 0 0 0 0 0 0 0 0 0 0 0 0 0 127 0" result="hardAlpha"/>
<feOffset dy="49.7887"/>
<feGaussianBlur stdDeviation="24.8943"/>
<feColorMatrix type="matrix" values="0 0 0 0 0 0 0 0 0 0 0 0 0 0 0 0 0 0 0.15 0"/>
<feBlend mode="normal" in2="BackgroundImageFix" result="effect1_dropShadow_9496_129986"/>
<feBlend mode="normal" in="SourceGraphic" in2="effect1_dropShadow_9496_129986" result="shape"/>
<feColorMatrix in="SourceAlpha" type="matrix" values="0 0 0 0 0 0 0 0 0 0 0 0 0 0 0 0 0 0 127 0" result="hardAlpha"/>
<feOffset dy="-17.3682"/>
<feGaussianBlur stdDeviation="17.3682"/>
<feComposite in2="hardAlpha" operator="arithmetic" k2="-1" k3="1"/>
<feColorMatrix type="matrix" values="0 0 0 0 0 0 0 0 0 0 0 0 0 0 0 0 0 0 0.25 0"/>
<feBlend mode="normal" in2="shape" result="effect2_innerShadow_9496_129986"/>
</filter>
<linearGradient id="paint0_linear_9496_129986" x1="306.195" y1="163.301" x2="327.227" y2="163.301" gradientUnits="userSpaceOnUse">
<stop stop-color="#AF85FF"/>
<stop offset="0.908841" stop-color="#7AAEFC"/>
<stop offset="1" stop-color="#75B2FC"/>
</linearGradient>
<linearGradient id="paint1_linear_9496_129986" x1="296.336" y1="173.777" x2="342.606" y2="173.777" gradientUnits="userSpaceOnUse">
<stop stop-color="#AF85FF"/>
<stop offset="0.908841" stop-color="#7AAEFC"/>
<stop offset="1" stop-color="#75B2FC"/>
</linearGradient>
<linearGradient id="paint2_linear_9496_129986" x1="130.223" y1="145.065" x2="172.212" y2="145.065" gradientUnits="userSpaceOnUse">
<stop stop-color="#AF85FF"/>
<stop offset="0.908841" stop-color="#7AAEFC"/>
<stop offset="1" stop-color="#75B2FC"/>
</linearGradient>
<linearGradient id="paint3_linear_9496_129986" x1="172.785" y1="199.66" x2="250.957" y2="199.66" gradientUnits="userSpaceOnUse">
<stop stop-color="#AF85FF"/>
<stop offset="0.908841" stop-color="#7AAEFC"/>
<stop offset="1" stop-color="#75B2FC"/>
</linearGradient>
<linearGradient id="paint4_linear_9496_129986" x1="41.4195" y1="67.2146" x2="63.8721" y2="106.104" gradientUnits="userSpaceOnUse">
<stop stop-color="#AF85FF"/>
<stop offset="0.908841" stop-color="#7AAEFC"/>
<stop offset="1" stop-color="#75B2FC"/>
</linearGradient>
<linearGradient id="paint5_linear_9496_129986" x1="248.582" y1="100.891" x2="257.59" y2="100.891" gradientUnits="userSpaceOnUse">
<stop stop-color="#AF85FF"/>
<stop offset="0.908841" stop-color="#7AAEFC"/>
<stop offset="1" stop-color="#75B2FC"/>
</linearGradient>
<linearGradient id="paint6_linear_9496_129986" x1="273.217" y1="100.891" x2="282.225" y2="100.891" gradientUnits="userSpaceOnUse">
<stop stop-color="#AF85FF"/>
<stop offset="0.908841" stop-color="#7AAEFC"/>
<stop offset="1" stop-color="#75B2FC"/>
</linearGradient>
<linearGradient id="paint7_linear_9496_129986" x1="234.504" y1="80.4342" x2="299.87" y2="80.4342" gradientUnits="userSpaceOnUse">
<stop stop-color="#AF85FF"/>
<stop offset="0.908841" stop-color="#7AAEFC"/>
<stop offset="1" stop-color="#75B2FC"/>
</linearGradient>
<linearGradient id="paint8_linear_9496_129986" x1="145.736" y1="39.9796" x2="159.232" y2="39.9796" gradientUnits="userSpaceOnUse">
<stop stop-color="#AF85FF"/>
<stop offset="0.908841" stop-color="#7AAEFC"/>
<stop offset="1" stop-color="#75B2FC"/>
</linearGradient>
<linearGradient id="paint9_linear_9496_129986" x1="139.711" y1="45.1591" x2="193.693" y2="45.1591" gradientUnits="userSpaceOnUse">
<stop stop-color="#AF85FF"/>
<stop offset="0.908841" stop-color="#7AAEFC"/>
<stop offset="1" stop-color="#75B2FC"/>
</linearGradient>
<clipPath id="clip0_9496_129986">
<rect width="40.0997" height="40.0997" fill="white" transform="translate(63.2363 51.7251) rotate(60)"/>
</clipPath>
<clipPath id="clip1_9496_129986">
<rect width="56.3103" height="56.3103" fill="white" transform="translate(234.504 50.2993)"/>
</clipPath>
</defs>
</svg>
