<svg width="127" height="13" viewBox="0 0 127 13" fill="none" xmlns="http://www.w3.org/2000/svg">
    <g clip-path="url(#clip0_2494_27489)">
        <path
            d="M115.773 0.320312L113.297 6.68701L110.822 0.320312H108.339L112.207 10.2667H113.297H114.389L118.256 0.320312H115.773Z"
            fill="#D1D7ED" />
        <path d="M92.9499 0.320312H90.6328V7.98096V10.2667H92.9499H96.8634V7.98096H92.9499V0.320312Z" fill="#D1D7ED" />
        <path
            d="M123.132 0.320312H120.951L117.083 10.2738H119.566L120.204 8.52485H123.879L124.517 10.2738H127L123.132 0.320312ZM120.899 6.46305L122.043 3.22105L123.187 6.46305H120.899Z"
            fill="#D1D7ED" />
        <path
            d="M106.572 1.63259C105.831 0.869934 104.875 0.343429 103.828 0.120818C102.782 -0.101793 101.691 -0.0103262 100.698 0.38345C99.7039 0.777225 98.8524 1.4553 98.2526 2.33042C97.6529 3.20555 97.3322 4.23769 97.332 5.29406C97.3329 6.24065 97.5904 7.16977 98.078 7.98507C98.2155 8.21578 98.3709 8.43565 98.5428 8.64271C99.0421 9.24592 99.6703 9.73298 100.382 10.0691C101.095 10.4053 101.873 10.5822 102.662 10.5873C103.452 10.5924 104.233 10.4255 104.949 10.0986C105.666 9.77166 106.3 9.29275 106.808 8.69603L106.851 8.63915C107.631 7.69545 108.057 6.51461 108.056 5.29667C108.055 4.07872 107.627 2.89856 106.845 1.95608C106.754 1.82989 106.665 1.7268 106.572 1.63259ZM105.013 7.15857L104.986 7.19056C104.959 7.22256 104.934 7.25455 104.907 7.28477C104.507 7.71857 103.986 8.0255 103.41 8.16658C102.833 8.30766 102.227 8.27652 101.669 8.07711C101.11 7.8777 100.624 7.51903 100.273 7.04664C99.9214 6.57426 99.7202 6.00949 99.6948 5.42406C99.6694 4.83863 99.821 4.25896 100.13 3.75869C100.44 3.25841 100.893 2.86011 101.432 2.61436C101.971 2.36861 102.572 2.28652 103.159 2.3785C103.745 2.47048 104.291 2.73239 104.727 3.13095C105.287 3.63953 105.628 4.34043 105.68 5.08955C105.732 5.83867 105.492 6.57909 105.008 7.15857H105.013Z"
            fill="#D1D7ED" />
        <path
            d="M87.5553 7.19238L87.5121 7.24393L87.4742 7.28481C87.0676 7.72499 86.5355 8.03349 85.9479 8.16976C85.3602 8.30604 84.7445 8.26369 84.1817 8.0483C83.6189 7.83292 83.1353 7.45456 82.7945 6.96299C82.4538 6.47141 82.2718 5.88962 82.2725 5.2941V5.2941C82.2719 4.69954 82.4535 4.11868 82.7933 3.62765C83.1332 3.13662 83.6155 2.75833 84.177 2.54236C84.7386 2.32639 85.3532 2.28281 85.9402 2.41735C86.5273 2.55188 87.0595 2.85825 87.467 3.29629C87.5031 3.33717 87.5409 3.37805 87.5805 3.42604L89.4184 1.9419L89.3769 1.89213C88.6691 1.06023 87.719 0.463265 86.6555 0.182227C85.592 -0.0988119 84.4666 -0.0503167 83.432 0.321133C82.3974 0.692582 81.5037 1.369 80.8721 2.25862C80.2405 3.14825 79.9016 4.208 79.9014 5.2941V5.2941C79.9016 6.38021 80.2405 7.43996 80.8721 8.32958C81.5037 9.2192 82.3974 9.89562 83.432 10.2671C84.4666 10.6385 85.592 10.687 86.6555 10.406C87.719 10.1249 88.6691 9.52797 89.3769 8.69607L89.4184 8.6463L87.5805 7.16217L87.5553 7.19238Z"
            fill="#D1D7ED" />
        <path
            d="M1.96574 6.52545V10.2758H0V0.322282H3.77292C5.76568 0.31695 7.08999 1.62335 7.08999 3.42031C7.08999 5.21728 5.76568 6.52545 3.77292 6.52545H1.96574ZM3.53148 4.85291C4.51345 4.85291 5.11164 4.29125 5.11164 3.43098C5.11164 2.54227 4.51345 1.99838 3.53148 1.99838H1.98195V4.84224L3.53148 4.85291Z"
            fill="#D1D7ED" />
        <path
            d="M14.8701 6.8211C14.8701 8.94155 13.2881 10.4879 11.1963 10.4879C9.10442 10.4879 7.52246 8.94155 7.52246 6.8211C7.52246 4.70065 9.10262 3.1543 11.1963 3.1543C13.2899 3.1543 14.8701 4.68465 14.8701 6.8211ZM12.9728 6.8211C12.9728 5.51115 12.1206 4.8535 11.1963 4.8535C10.272 4.8535 9.41613 5.51115 9.41613 6.8211C9.41613 8.13105 10.2702 8.78692 11.1963 8.78692C12.1224 8.78692 12.9728 8.1275 12.9728 6.8211Z"
            fill="#D1D7ED" />
        <path
            d="M22.1494 3.36523L23.6593 7.80877L24.953 3.36523H26.8322L24.6413 10.2758H22.7476L21.1098 5.55501L19.5008 10.2758H17.5801L15.3423 3.36523H17.3369L18.6323 7.80877L20.1548 3.36523H22.1494Z"
            fill="#D1D7ED" />
        <path
            d="M34.1168 8.29458C33.7565 9.489 32.6502 10.4861 30.9259 10.4861C29.0052 10.4861 27.3115 9.12463 27.3115 6.79266C27.3115 4.58689 28.9619 3.1543 30.7565 3.1543C32.9187 3.1543 34.2159 4.51757 34.2159 6.73578C34.2159 7.0024 34.1871 7.28323 34.1871 7.31167H29.1746C29.2178 8.22526 30.0016 8.88468 30.9403 8.88468C31.825 8.88468 32.3078 8.44921 32.5367 7.83067L34.1168 8.29458ZM32.3511 6.03371C32.3223 5.34585 31.8664 4.67221 30.7835 4.67221C30.3954 4.65795 30.0165 4.79126 29.7252 5.04463C29.4338 5.29799 29.2522 5.65205 29.2178 6.03371H32.3511Z"
            fill="#D1D7ED" />
        <path
            d="M39.9851 5.21931C39.7977 5.18127 39.6069 5.16221 39.4157 5.16244C38.4481 5.16244 37.6139 5.62634 37.6139 7.11759V10.2761H35.7148V3.36547H37.5509V4.38926C37.9797 3.47745 38.9472 3.30859 39.5454 3.30859C39.6924 3.31046 39.8391 3.31995 39.9851 3.33703V5.21931Z"
            fill="#D1D7ED" />
        <path
            d="M47.5343 8.29458C47.174 9.489 46.0695 10.4861 44.3452 10.4861C42.4245 10.4861 40.729 9.12463 40.729 6.79266C40.729 4.58689 42.3812 3.1543 44.1758 3.1543C46.3379 3.1543 47.6352 4.51757 47.6352 6.73578C47.6352 7.0024 47.6064 7.28323 47.6064 7.31167H42.5938C42.6371 8.22526 43.4209 8.88468 44.3596 8.88468C45.2425 8.88468 45.7271 8.44921 45.9542 7.83067L47.5343 8.29458ZM45.765 6.03371C45.7379 5.34585 45.2821 4.67221 44.1992 4.67221C43.8111 4.65795 43.4322 4.79126 43.1408 5.04463C42.8495 5.29799 42.6678 5.65205 42.6335 6.03371H45.765Z"
            fill="#D1D7ED" />
        <path
            d="M55.8117 9.02453C55.8117 9.48843 55.8387 9.99322 55.8693 10.2687H54.0531C54.0069 10.0039 53.9834 9.73578 53.9829 9.4671C53.6693 10.0145 52.9577 10.4358 52.0171 10.4358C50.0244 10.4358 48.5938 8.89122 48.5938 6.79921C48.5938 4.77651 49.9739 3.18928 51.9523 3.18928C53.1631 3.18928 53.7324 3.67985 53.9342 4.04599V0.105469H55.7991L55.8117 9.02453ZM52.2514 8.77214C53.2189 8.77214 53.9739 8.04162 53.9739 6.7921C53.9739 5.54258 53.2207 4.86716 52.2514 4.86716C51.282 4.86716 50.5126 5.56924 50.5126 6.80632C50.5126 8.0434 51.255 8.77214 52.2514 8.77214Z"
            fill="#D1D7ED" />
        <path
            d="M61.2026 10.2758V0.105469H63.0621V4.12242C63.3738 3.63186 64.1431 3.18217 65.1828 3.18217C67.2332 3.18217 68.4151 4.74096 68.4151 6.7921C68.4151 8.88411 67.1053 10.4429 65.1107 10.4429C64.1431 10.4429 63.4044 10.0217 63.0332 9.43156V10.2758H61.2026ZM64.7918 4.85294C63.8368 4.85294 63.0405 5.5408 63.0405 6.80809C63.0405 8.07539 63.8368 8.77391 64.7918 8.77391C65.7467 8.77391 66.5287 8.06295 66.5287 6.80809C66.5287 5.55324 65.7647 4.85294 64.7918 4.85294Z"
            fill="#D1D7ED" />
        <path
            d="M70.0064 13.0002L71.6587 9.40453L68.6821 3.36133H70.81L72.6749 7.40672L74.3974 3.36133H76.4136L72.0154 13.0002H70.0064Z"
            fill="#D1D7ED" />
    </g>
    <defs>
        <clipPath id="clip0_2494_27489">
            <rect width="127" height="13" fill="white" />
        </clipPath>
    </defs>
</svg>